{
    "paths": {
        "deRwrbkFJDIreONBoRlZXu": [
            "Optional/Crosis/NetworkSignal/AutoAtlas",
            "cc.SpriteAtlas"
        ],
        "651oeZN8REy6BiwFLqPTd8": [
            "Optional/Crosis/NetworkSignal/NetworkSignal",
            "cc.Prefab"
        ],
        "ffrWLyx7hIup7VGkCK+8UW": [
            "Optional/Crosis/NetworkSignal/connection1",
            "cc.SpriteFrame",
            1
        ],
        "165b6LfJhEwoVsXYuUz+Ox": [
            "Optional/Crosis/NetworkSignal/connection2",
            "cc.SpriteFrame",
            1
        ],
        "08V3AFW8lCVKhJ1eXdDFtx": [
            "Optional/Crosis/NetworkSignal/connection3",
            "cc.SpriteFrame",
            1
        ],
        "cfoabLq+VJpq5XwzauWzPJ": [
            "Optional/Crosis/NetworkSignal/connection4",
            "cc.SpriteFrame",
            1
        ],
        "22sB651exJpq5QymFv8yhO": [
            "Optional/Crosis/NetworkSignal/connection5",
            "cc.SpriteFrame",
            1
        ],
        "eani5wyOxDEYOiwF/ttZlr": [
            "Optional/Crosis/NetworkSignal/connection_frame",
            "cc.SpriteFrame",
            1
        ],
        "dcn+RIjhFNII9RiefBpaDe": [
            "Optional/Crosis/NetworkSignal/img_connection1",
            "cc.SpriteFrame",
            1
        ],
        "86gPhvLHtL46sGdrKdq8Pt": [
            "Optional/Crosis/NetworkSignal/img_connection2",
            "cc.SpriteFrame",
            1
        ],
        "66XUB5FdNNBK7yz8xdE0aJ": [
            "Optional/Crosis/NetworkSignal/img_connection3",
            "cc.SpriteFrame",
            1
        ],
        "6bB8373ipMeIAMZyci3az3": [
            "Optional/Crosis/NetworkSignal/img_connection4",
            "cc.SpriteFrame",
            1
        ],
        "7e633cKKFHWbO5GUbsrOkv": [
            "Optional/Crosis/miCard/Card",
            "cc.Prefab"
        ],
        "31/JNzTBFKNrE1+bGRcEGI": [
            "Optional/Crosis/miCard/card-back",
            "cc.SpriteFrame",
            1
        ],
        "b7dU+aiWNCebjMvETVzBG1": [
            "Optional/Crosis/miCard/card-back",
            "cc.Texture2D"
        ],
        "91XjPVhX1OcaIhtrYsH0XZ": [
            "Optional/Crosis/miCard/club-10",
            "cc.SpriteFrame",
            1
        ],
        "cbwLFylpVAUrzqqlhW9lpd": [
            "Optional/Crosis/miCard/club-10",
            "cc.Texture2D"
        ],
        "808vtr9kBKD4NTHI5n/evT": [
            "Optional/Crosis/miCard/micard",
            "cc.EffectAsset"
        ],
        "2cULTNFHhJkI6Rrnea+BTU": [
            "Optional/Crosis/miCard/micardMaterial",
            "cc.Material"
        ],
        "7aoSmEQIZEK40uZa/pDrMO": [
            "Optional/Crosis/miCard/micardMaterialNum",
            "cc.Material"
        ],
        "44ym0wTdRFaKbw7WwxcwvK": [
            "Optional/Crosis/miCard/micardNum",
            "cc.EffectAsset"
        ],
        "3fz79G2xlCZqjabE4wKcW6": [
            "Optional/README",
            "cc.TextAsset"
        ],
        "f7VOi2oeVH37fePCm51h6o": [
            "Optional/Songlin/README ",
            "cc.TextAsset"
        ],
        "ebffZlSZNMWplWjTdhL58t": [
            "README",
            "cc.TextAsset"
        ],
        "6b2zQzW9VGfptmh3Zp0ihy": [
            "Tools/Localization/Readme",
            "cc.TextAsset"
        ],
        "58kiR1wqxCBJTPwlYpO21o": [
            "Tools/README",
            "cc.TextAsset"
        ],
        "17rnZd+rpJMbKFghRQnVdh": [
            "Tools/Socket/SDK/BufferPlus.d",
            "cc.TextAsset"
        ],
        "feHxLSH+dFJKibL04A3T9G": [
            "Tools/Socket/SDK/Club.d",
            "cc.TextAsset"
        ],
        "06d2AgbeJHsqfwbZrGeP+1": [
            "Tools/Socket/SDK/ErrorCode.d",
            "cc.TextAsset"
        ],
        "fdrBdoOCRGTI5YPYsaituY": [
            "Tools/Socket/SDK/GameClient.d",
            "cc.TextAsset"
        ],
        "f29fBkVBdKfrlbo/N5kPrP": [
            "Tools/Socket/SDK/Routine.d",
            "cc.TextAsset"
        ],
        "65oip/YbZIKZaV2LFvQAjb": [
            "Tools/Socket/SDK/Schema.d",
            "cc.TextAsset"
        ],
        "81QE1ABHRKtZnr0f5oI+5X": [
            "Tools/Socket/SDK/Tool.d",
            "cc.TextAsset"
        ]
    },
    "uuids": [
        "06d2AgbeJHsqfwbZrGeP+1",
        "08V3AFW8lCVKhJ1eXdDFtx",
        "0dpU5FwVRHd4j1LmGjjeJU",
        "1150545bc",
        "165b6LfJhEwoVsXYuUz+Ox",
        "17rnZd+rpJMbKFghRQnVdh",
        "22sB651exJpq5QymFv8yhO",
        "29FYIk+N1GYaeWH/q1NxQO",
        "2cULTNFHhJkI6Rrnea+BTU",
        "31/JNzTBFKNrE1+bGRcEGI",
        "3fz79G2xlCZqjabE4wKcW6",
        "44ym0wTdRFaKbw7WwxcwvK",
        "58kiR1wqxCBJTPwlYpO21o",
        "65oip/YbZIKZaV2LFvQAjb",
        "651oeZN8REy6BiwFLqPTd8",
        "66XUB5FdNNBK7yz8xdE0aJ",
        "6bB8373ipMeIAMZyci3az3",
        "6b2zQzW9VGfptmh3Zp0ihy",
        "71VhFCTINJM6/Ky3oX9nBT",
        "7aoSmEQIZEK40uZa/pDrMO",
        "7e633cKKFHWbO5GUbsrOkv",
        "808vtr9kBKD4NTHI5n/evT",
        "81QE1ABHRKtZnr0f5oI+5X",
        "86gPhvLHtL46sGdrKdq8Pt",
        "91XjPVhX1OcaIhtrYsH0XZ",
        "b4P/PCArtIdIH38t6mlw8Y",
        "b7dU+aiWNCebjMvETVzBG1",
        "cbwLFylpVAUrzqqlhW9lpd",
        "cfoabLq+VJpq5XwzauWzPJ",
        "dcn+RIjhFNII9RiefBpaDe",
        "deRwrbkFJDIreONBoRlZXu",
        "e8Ueib+qJEhL6mXAHdnwbi",
        "e97GVMl6JHh5Ml5qEDdSGa",
        "eani5wyOxDEYOiwF/ttZlr",
        "ebffZlSZNMWplWjTdhL58t",
        "ecpdLyjvZBwrvm+cedCcQy",
        "f0BIwQ8D5Ml7nTNQbh1YlS",
        "f29fBkVBdKfrlbo/N5kPrP",
        "f7VOi2oeVH37fePCm51h6o",
        "fdrBdoOCRGTI5YPYsaituY",
        "feHxLSH+dFJKibL04A3T9G",
        "ffrWLyx7hIup7VGkCK+8UW"
    ],
    "scenes": {
        "db://assets/Common/Optional/Crosis/miCard/MiCard.fire": "0dpU5FwVRHd4j1LmGjjeJU"
    },
    "redirect": [
        "ecpdLyjvZBwrvm+cedCcQy",
        0
    ],
    "deps": [
        "internal"
    ],
    "packs": {
        "0bb226422": [
            "06d2AgbeJHsqfwbZrGeP+1",
            "08V3AFW8lCVKhJ1eXdDFtx",
            "0dpU5FwVRHd4j1LmGjjeJU",
            "1150545bc",
            "165b6LfJhEwoVsXYuUz+Ox",
            "17rnZd+rpJMbKFghRQnVdh",
            "22sB651exJpq5QymFv8yhO",
            "29FYIk+N1GYaeWH/q1NxQO",
            "2cULTNFHhJkI6Rrnea+BTU",
            "31/JNzTBFKNrE1+bGRcEGI",
            "3fz79G2xlCZqjabE4wKcW6",
            "44ym0wTdRFaKbw7WwxcwvK",
            "58kiR1wqxCBJTPwlYpO21o",
            "65oip/YbZIKZaV2LFvQAjb",
            "651oeZN8REy6BiwFLqPTd8",
            "66XUB5FdNNBK7yz8xdE0aJ",
            "6bB8373ipMeIAMZyci3az3",
            "6b2zQzW9VGfptmh3Zp0ihy",
            "71VhFCTINJM6/Ky3oX9nBT",
            "7aoSmEQIZEK40uZa/pDrMO",
            "7e633cKKFHWbO5GUbsrOkv",
            "808vtr9kBKD4NTHI5n/evT",
            "81QE1ABHRKtZnr0f5oI+5X",
            "86gPhvLHtL46sGdrKdq8Pt",
            "91XjPVhX1OcaIhtrYsH0XZ",
            "b4P/PCArtIdIH38t6mlw8Y",
            "b7dU+aiWNCebjMvETVzBG1",
            "cbwLFylpVAUrzqqlhW9lpd",
            "cfoabLq+VJpq5XwzauWzPJ",
            "dcn+RIjhFNII9RiefBpaDe",
            "deRwrbkFJDIreONBoRlZXu",
            "e8Ueib+qJEhL6mXAHdnwbi",
            "e97GVMl6JHh5Ml5qEDdSGa",
            "eani5wyOxDEYOiwF/ttZlr",
            "ebffZlSZNMWplWjTdhL58t",
            "f0BIwQ8D5Ml7nTNQbh1YlS",
            "f29fBkVBdKfrlbo/N5kPrP",
            "f7VOi2oeVH37fePCm51h6o",
            "fdrBdoOCRGTI5YPYsaituY",
            "feHxLSH+dFJKibL04A3T9G",
            "ffrWLyx7hIup7VGkCK+8UW"
        ]
    },
    "name": "Common",
    "importBase": "import",
    "nativeBase": "native",
    "debug": true,
    "isZip": false,
    "encrypted": false,
    "versions": {
        "import": [
            "0bb226422",
            "f4502"
        ],
        "native": [
            "1150545bc",
            "5170e",
            "71VhFCTINJM6/Ky3oX9nBT",
            "c06a9",
            "b4P/PCArtIdIH38t6mlw8Y",
            "83fcc",
            "b7dU+aiWNCebjMvETVzBG1",
            "ca147",
            "cbwLFylpVAUrzqqlhW9lpd",
            "62ef8",
            "e8Ueib+qJEhL6mXAHdnwbi",
            "90cf4"
        ]
    }
}