{
    "paths": {
        "42jKO471VP3ItiIQ1waAQb": [
            "Common/Socket/SDK/Slot_GameClient.d",
            "cc.TextAsset"
        ],
        "aaMHXh8aNNwpBAF2NBs5Wa": [
            "README",
            "cc.TextAsset"
        ],
        "5d9It7KaJF5aEJujFA11He": [
            "Resources/CarryMoney/g62_com_pl_7",
            "cc.Texture2D"
        ],
        "b5d01Noq5JT4Uf4he1QqRe": [
            "Resources/CarryMoney/g62_com_pl_7",
            "cc.SpriteFrame",
            1
        ],
        "1f5hq4uvBGYrrR6cUwo3rj": [
            "Resources/CarryMoney/g62_com_pl_8",
            "cc.SpriteFrame",
            1
        ],
        "cbWJ5vGBtKgJbAKICMMmIM": [
            "Resources/CarryMoney/g62_com_pl_8",
            "cc.Texture2D"
        ],
        "19KvkRLcVJUKJgcOGOeXqC": [
            "Resources/CarryMoney/g87_btn_kk_3",
            "cc.SpriteFrame",
            1
        ],
        "9fjKYuDXVHa6/3yXtkOE9n": [
            "Resources/CarryMoney/g87_btn_kk_3",
            "cc.Texture2D"
        ],
        "b7r6Clb+dFs47Rpm56N7re": [
            "Resources/CarryMoney/g87_btn_kk_5",
            "cc.Texture2D"
        ],
        "dcHrWlYTRFVqd9nG3vsi5u": [
            "Resources/CarryMoney/g87_btn_kk_5",
            "cc.SpriteFrame",
            1
        ],
        "4bK58f8fFI0IL5xdL9heWQ": [
            "Resources/CarryMoney/g87_img_kk_5",
            "cc.Texture2D"
        ],
        "8c8JBfTgJJqKSbB/HkQubD": [
            "Resources/CarryMoney/g87_img_kk_5",
            "cc.SpriteFrame",
            1
        ],
        "24PS6crJVMyZClOQAw93hi": [
            "Resources/CarryMoney/g87_img_pl_kk_1",
            "cc.Texture2D"
        ],
        "c0IgCeDoZLOpPX4bjm5O63": [
            "Resources/CarryMoney/g87_img_pl_kk_1",
            "cc.SpriteFrame",
            1
        ],
        "43lkua7oVBpJh+sK0yJskc": [
            "Resources/CarryMoney/g87_img_pl_kk_2",
            "cc.SpriteFrame",
            1
        ],
        "509O5Z90RPvYBgtBG+wqB+": [
            "Resources/CarryMoney/g87_img_pl_kk_2",
            "cc.Texture2D"
        ],
        "739kAgo8ZD6YNTO7SPaHmU": [
            "Resources/CarryMoney/g87_img_pl_kk_3",
            "cc.Texture2D"
        ],
        "a87Q2zsnJEA5IU6H0x/FCU": [
            "Resources/CarryMoney/g87_img_pl_kk_3",
            "cc.SpriteFrame",
            1
        ],
        "f5Qc5iPHNJ+IJjDbCPtu/A": [
            "Resources/CarryMoney/g87_img_pl_kk_5",
            "cc.Texture2D"
        ],
        "fbigJUdKxAkrNGEpSDk80J": [
            "Resources/CarryMoney/g87_img_pl_kk_5",
            "cc.SpriteFrame",
            1
        ],
        "f3iIU/uHBJmZGKXbyhlT58": [
            "Resources/Jackpot_FX/FX_Animation/FX_AnJP_BG",
            "cc.AnimationClip"
        ],
        "e9xpgg/t5BrL/q3zoDL4TW": [
            "Resources/Jackpot_FX/FX_Animation/FX_AnJP_loop",
            "cc.AnimationClip"
        ],
        "fb7UsrhEZFhIlzr8YdV7rN": [
            "Resources/Jackpot_FX/FX_Animation/FX_AnJackpot_Start",
            "cc.AnimationClip"
        ],
        "94V+3X6M5JZ7C3P+rjnZpT": [
            "Resources/Jackpot_FX/FX_Material/m_Coin",
            "cc.Material"
        ],
        "d2OuAKheNPWpsXIdWNPztR": [
            "Resources/Jackpot_FX/FX_Material/m_glow_pt02",
            "cc.Material"
        ],
        "2bGmzxuvdMnoASNMwNeFYQ": [
            "Resources/Jackpot_FX/FX_Material/m_star_02",
            "cc.Material"
        ],
        "c9NrxhaGNKBJDiYd4V++Qi": [
            "Resources/Jackpot_FX/FX_Perfab/FX_Jackpot",
            "cc.Prefab"
        ],
        "48ypaf2aVEM7t8bE6fyI8+": [
            "Resources/Jackpot_FX/FX_Texture/t_BG",
            "cc.Texture2D"
        ],
        "8d9Ehv39dJCoIVm3uphvha": [
            "Resources/Jackpot_FX/FX_Texture/t_BG",
            "cc.SpriteFrame",
            1
        ],
        "89uHuBB5BJBaIr5nCbqdK+": [
            "Resources/Jackpot_FX/FX_Texture/t_Coin",
            "cc.Texture2D"
        ],
        "fcizhqX4hPZbEwJ9BBc1FC": [
            "Resources/Jackpot_FX/FX_Texture/t_Coin",
            "cc.SpriteFrame",
            1
        ],
        "0cb0BjJCJEE5YCdlUJ2/a8": [
            "Resources/Jackpot_FX/FX_Texture/t_JP",
            "cc.Texture2D"
        ],
        "a7JCBdfqNJzpK+N4iXH94M": [
            "Resources/Jackpot_FX/FX_Texture/t_JP",
            "cc.SpriteFrame",
            1
        ],
        "28iC7SbJlEVqaCHyS+6oRV": [
            "Resources/Jackpot_FX/FX_Texture/t_JP_BG",
            "cc.SpriteFrame",
            1
        ],
        "9aYQQF6jxOCpXXnnm18hV9": [
            "Resources/Jackpot_FX/FX_Texture/t_JP_BG",
            "cc.Texture2D"
        ],
        "63HKKZYARH14KehlGEjUzS": [
            "Resources/Jackpot_FX/FX_Texture/t_JP_BG2",
            "cc.Texture2D"
        ],
        "90G6VYTcpKK6ovHJ5wfG3s": [
            "Resources/Jackpot_FX/FX_Texture/t_JP_BG2",
            "cc.SpriteFrame",
            1
        ],
        "8eZXn5cp9GaKp6ywAEP++V": [
            "Resources/Jackpot_FX/FX_Texture/t_JP_add",
            "cc.SpriteFrame",
            1
        ],
        "ccitNBFk5KJZbWltXL8JDL": [
            "Resources/Jackpot_FX/FX_Texture/t_JP_add",
            "cc.Texture2D"
        ],
        "9dN8rG4dtP7pqO2eZHb7r1": [
            "Resources/Jackpot_FX/FX_Texture/t_JP_li/t_JP_li_00",
            "cc.Texture2D"
        ],
        "fadqJDWIxD/rQmXcb5mxCB": [
            "Resources/Jackpot_FX/FX_Texture/t_JP_li/t_JP_li_00",
            "cc.SpriteFrame",
            1
        ],
        "99+hpKjUNLIaW2GK8izJdO": [
            "Resources/Jackpot_FX/FX_Texture/t_JP_li/t_JP_li_01",
            "cc.Texture2D"
        ],
        "f2tFj5xSZGPY88hXUNVGR+": [
            "Resources/Jackpot_FX/FX_Texture/t_JP_li/t_JP_li_01",
            "cc.SpriteFrame",
            1
        ],
        "15CHUcREZHsr+LGxENd+fa": [
            "Resources/Jackpot_FX/FX_Texture/t_JP_li/t_JP_li_02",
            "cc.Texture2D"
        ],
        "a0NhYt0LFOOpdpc+hBFSd7": [
            "Resources/Jackpot_FX/FX_Texture/t_JP_li/t_JP_li_02",
            "cc.SpriteFrame",
            1
        ],
        "451stX8IdK94v7yBaVVwje": [
            "Resources/Jackpot_FX/FX_Texture/t_JP_li/t_JP_li_03",
            "cc.Texture2D"
        ],
        "ab0UOV0wlNwJV9UpLwC0hG": [
            "Resources/Jackpot_FX/FX_Texture/t_JP_li/t_JP_li_03",
            "cc.SpriteFrame",
            1
        ],
        "ae0+mAnmFL77oiEFN1zajq": [
            "Resources/Jackpot_FX/FX_Texture/t_JP_li/t_JP_li_04",
            "cc.Texture2D"
        ],
        "be/RuoQy5Dr4NpiEH8JPIC": [
            "Resources/Jackpot_FX/FX_Texture/t_JP_li/t_JP_li_04",
            "cc.SpriteFrame",
            1
        ],
        "b8HojNPj9HzoB18+lRhjZE": [
            "Resources/Jackpot_FX/FX_Texture/t_JP_li/t_JP_li_05",
            "cc.SpriteFrame",
            1
        ],
        "f1rSOtmcFLDKrY3AEjvlhv": [
            "Resources/Jackpot_FX/FX_Texture/t_JP_li/t_JP_li_05",
            "cc.Texture2D"
        ],
        "4eI8ULCWdLyp/YZWn0mVPJ": [
            "Resources/Jackpot_FX/FX_Texture/t_JP_side",
            "cc.Texture2D"
        ],
        "ffBkWw4ytFHa6K7Xh4uW4b": [
            "Resources/Jackpot_FX/FX_Texture/t_JP_side",
            "cc.SpriteFrame",
            1
        ],
        "3fp25rSDdBsIYXacT2rV+m": [
            "Resources/Jackpot_FX/FX_Texture/t_glow_01",
            "cc.Texture2D"
        ],
        "a1HwP9eQBKX5ngfnSJ5xyE": [
            "Resources/Jackpot_FX/FX_Texture/t_glow_01",
            "cc.SpriteFrame",
            1
        ],
        "bbklnVum1OFaimsftzrApj": [
            "Resources/Jackpot_FX/FX_Texture/t_glow_pt02",
            "cc.SpriteFrame",
            1
        ],
        "c4xe/19SlB7ZzjRMJ6x2qb": [
            "Resources/Jackpot_FX/FX_Texture/t_glow_pt02",
            "cc.Texture2D"
        ],
        "16P6WiUQxJB7cHDIR4DGcx": [
            "Resources/Jackpot_FX/FX_Texture/t_jackpot_bg/t_jackpot_bg_00",
            "cc.SpriteFrame",
            1
        ],
        "f2Qi53uQBGYI+Y1Ax5Ibt/": [
            "Resources/Jackpot_FX/FX_Texture/t_jackpot_bg/t_jackpot_bg_00",
            "cc.Texture2D"
        ],
        "34JFYabKZAdaZc3NqlawC8": [
            "Resources/Jackpot_FX/FX_Texture/t_jackpot_bg/t_jackpot_bg_01",
            "cc.Texture2D"
        ],
        "f2yeB5arlAlr+y67ec7DzD": [
            "Resources/Jackpot_FX/FX_Texture/t_jackpot_bg/t_jackpot_bg_01",
            "cc.SpriteFrame",
            1
        ],
        "00fSbm3OVFa6zIp+2Be3zG": [
            "Resources/Jackpot_FX/FX_Texture/t_jackpot_bg/t_jackpot_bg_02",
            "cc.SpriteFrame",
            1
        ],
        "23AoOGFGhJt7wNk5DNjmME": [
            "Resources/Jackpot_FX/FX_Texture/t_jackpot_bg/t_jackpot_bg_02",
            "cc.Texture2D"
        ],
        "0eM9EID1FFaqIGPFa2KeSr": [
            "Resources/Jackpot_FX/FX_Texture/t_jackpot_bg/t_jackpot_bg_03",
            "cc.Texture2D"
        ],
        "12n0CjpkZJ8oklX4Uxz1QG": [
            "Resources/Jackpot_FX/FX_Texture/t_jackpot_bg/t_jackpot_bg_03",
            "cc.SpriteFrame",
            1
        ],
        "1dF5eDVrNFYJkFc4ed16yU": [
            "Resources/Jackpot_FX/FX_Texture/t_jackpot_bg/t_jackpot_bg_04",
            "cc.Texture2D"
        ],
        "4e7Qdo6eZObKrFoUTsLTRk": [
            "Resources/Jackpot_FX/FX_Texture/t_jackpot_bg/t_jackpot_bg_04",
            "cc.SpriteFrame",
            1
        ],
        "4dwIkhKqRKkLqcUg9FJ/DR": [
            "Resources/Jackpot_FX/FX_Texture/t_jackpot_bg/t_jackpot_bg_05",
            "cc.SpriteFrame",
            1
        ],
        "f8qcI/HXlEz6eBpAK/zTWp": [
            "Resources/Jackpot_FX/FX_Texture/t_jackpot_bg/t_jackpot_bg_05",
            "cc.Texture2D"
        ],
        "67T7NMy7JOyJ/hLJMTIU+f": [
            "Resources/Jackpot_FX/FX_Texture/t_jackpot_bg/t_jackpot_bg_06",
            "cc.Texture2D"
        ],
        "c9ibnZW8hJB7BLgOP7+yP0": [
            "Resources/Jackpot_FX/FX_Texture/t_jackpot_bg/t_jackpot_bg_06",
            "cc.SpriteFrame",
            1
        ],
        "0fvlci+95C4aM8j8PNz6Qy": [
            "Resources/Jackpot_FX/FX_Texture/t_jackpot_bg/t_jackpot_bg_07",
            "cc.SpriteFrame",
            1
        ],
        "135pInBzFAx4D3BzXjn4Ap": [
            "Resources/Jackpot_FX/FX_Texture/t_jackpot_bg/t_jackpot_bg_07",
            "cc.Texture2D"
        ],
        "6333uBJrBPnrUM56MCkxmh": [
            "Resources/Jackpot_FX/FX_Texture/t_jackpot_bg/t_jackpot_bg_08",
            "cc.Texture2D"
        ],
        "87Ez+nEaRCmY4Hn+0bw3CD": [
            "Resources/Jackpot_FX/FX_Texture/t_jackpot_bg/t_jackpot_bg_08",
            "cc.SpriteFrame",
            1
        ],
        "557ESvEzlHV4kb7vocsFuv": [
            "Resources/Jackpot_FX/FX_Texture/t_jackpot_bg/t_jackpot_bg_09",
            "cc.Texture2D"
        ],
        "ef5hrRidxK35E9QURe6E5n": [
            "Resources/Jackpot_FX/FX_Texture/t_jackpot_bg/t_jackpot_bg_09",
            "cc.SpriteFrame",
            1
        ],
        "7flMg0V+5LrI0TK1Xs1kqv": [
            "Resources/Jackpot_FX/FX_Texture/t_jackpot_bg/t_jackpot_bg_10",
            "cc.Texture2D"
        ],
        "82goVusfJPqLxXJDFrHXZK": [
            "Resources/Jackpot_FX/FX_Texture/t_jackpot_bg/t_jackpot_bg_10",
            "cc.SpriteFrame",
            1
        ],
        "46W9yOas9IC5+94brqKd9U": [
            "Resources/Jackpot_FX/FX_Texture/t_jackpot_bg/t_jackpot_bg_11",
            "cc.SpriteFrame",
            1
        ],
        "b97JAT4S1KkbrqHDr7zRHx": [
            "Resources/Jackpot_FX/FX_Texture/t_jackpot_bg/t_jackpot_bg_11",
            "cc.Texture2D"
        ],
        "80l9DqHa1CG61Gl/xA6vMK": [
            "Resources/Jackpot_FX/FX_Texture/t_side_li/t_side_li_01",
            "cc.SpriteFrame",
            1
        ],
        "e8yKcDwepM2pVmWDe9VYag": [
            "Resources/Jackpot_FX/FX_Texture/t_side_li/t_side_li_01",
            "cc.Texture2D"
        ],
        "3bTzkMuLhH0rcrsmemT5yu": [
            "Resources/Jackpot_FX/FX_Texture/t_side_li/t_side_li_02",
            "cc.SpriteFrame",
            1
        ],
        "c0J3HcHnZJCae6sDuRpRy7": [
            "Resources/Jackpot_FX/FX_Texture/t_side_li/t_side_li_02",
            "cc.Texture2D"
        ],
        "2dztZ/vv9K765nXtJ+PDqB": [
            "Resources/Jackpot_FX/FX_Texture/t_side_li/t_side_li_03",
            "cc.SpriteFrame",
            1
        ],
        "7b5fqJhVZEWrp5majnXkpU": [
            "Resources/Jackpot_FX/FX_Texture/t_side_li/t_side_li_03",
            "cc.Texture2D"
        ],
        "590nBsYkdNnpGgkxL8M/zF": [
            "Resources/Jackpot_FX/FX_Texture/t_side_li/t_side_li_04",
            "cc.SpriteFrame",
            1
        ],
        "5bA7gHYbBBqaMpGVZhYpnn": [
            "Resources/Jackpot_FX/FX_Texture/t_side_li/t_side_li_04",
            "cc.Texture2D"
        ],
        "c9KssdwZhHrKzSeOC9qNum": [
            "Resources/Jackpot_FX/FX_Texture/t_side_li/t_side_li_05",
            "cc.Texture2D"
        ],
        "e8DiiuN9xHwq8XmMObw/DD": [
            "Resources/Jackpot_FX/FX_Texture/t_side_li/t_side_li_05",
            "cc.SpriteFrame",
            1
        ],
        "cbXdGCRtRAg45abLhHl+AN": [
            "Resources/Jackpot_FX/FX_Texture/t_side_li/t_side_li_06",
            "cc.SpriteFrame",
            1
        ],
        "eaPvV2nQdLT6nLCL2KvbYv": [
            "Resources/Jackpot_FX/FX_Texture/t_side_li/t_side_li_06",
            "cc.Texture2D"
        ],
        "15YHYRKFJGpY6cnsUdGhJC": [
            "Resources/Jackpot_FX/FX_Texture/t_side_li/t_side_li_07",
            "cc.Texture2D"
        ],
        "62i9LASEVNZqRstVk3tTxc": [
            "Resources/Jackpot_FX/FX_Texture/t_side_li/t_side_li_07",
            "cc.SpriteFrame",
            1
        ],
        "889WsHUz5EzJPGo04uC2ti": [
            "Resources/Jackpot_FX/FX_Texture/t_star_01",
            "cc.Texture2D"
        ],
        "efw4aZEVdN7q13PAPbZClP": [
            "Resources/Jackpot_FX/FX_Texture/t_star_01",
            "cc.SpriteFrame",
            1
        ],
        "7dHkVwMwtPQb81LE70J54a": [
            "Resources/Jackpot_FX/FX_Texture/t_star_02",
            "cc.SpriteFrame",
            1
        ],
        "cd5UD1mWFGyqEpbZKfA45I": [
            "Resources/Jackpot_FX/FX_Texture/t_star_02",
            "cc.Texture2D"
        ],
        "4eOiVKaF1OH75rBGjFL+z/": [
            "Resources/Jackpot_FX/g4_com_font_2",
            "cc.SpriteFrame",
            1
        ],
        "55lKbaqqNJ+YqO54RH+NfC": [
            "Resources/Jackpot_FX/g4_com_font_2",
            "cc.Texture2D"
        ],
        "7e+PdiS5JKpa/rwNEC/Dxt": [
            "Resources/Jackpot_FX/g4_com_font_2",
            "cc.BitmapFont"
        ],
        "c83KWBAXlCdrektvA4A+Ht": [
            "Resources/g4_com_img_10",
            "cc.SpriteFrame",
            1
        ],
        "cc2NuwwopKIrae+iXUdb2+": [
            "Resources/g4_com_img_10",
            "cc.Texture2D"
        ],
        "10/N7ktplF+Z0Yebx8WxVz": [
            "Resources/g4_com_img_11",
            "cc.Texture2D"
        ],
        "43mQ9s8gtIwqq2cvTPjis6": [
            "Resources/g4_com_img_11",
            "cc.SpriteFrame",
            1
        ],
        "261KPtq7xCIpKJuPi4F76y": [
            "Resources/g4_com_img_9",
            "cc.SpriteFrame",
            1
        ],
        "57sTOv+uNFz4YVmrx5OhFb": [
            "Resources/g4_com_img_9",
            "cc.Texture2D"
        ],
        "19E74YpdxIvbg4w1PKF8/C": [
            "Resources/pl_3",
            "cc.SpriteFrame",
            1
        ],
        "f3Fu3O5LpO2Kfu5xZAuo5K": [
            "Resources/pl_3",
            "cc.Texture2D"
        ],
        "17ukzvEBtBB49AsbnRvysN": [
            "Resources/prefab/Jackpot/PoolItem",
            "cc.Prefab"
        ],
        "04KB8bSgBFjZxX1b7yRR91": [
            "Resources/prefab/Jackpot/Slot_JackpotPanel",
            "cc.Prefab"
        ],
        "9coxI+WYlFyYlQCLzhDQgP": [
            "Resources/prefab/Jackpot/Slot_JackpotPanel_VH",
            "cc.Prefab"
        ],
        "dcP1ctzsJJGrG4WzneKeeO": [
            "Resources/prefab/SlotCarryMoneyInfoPanel",
            "cc.Prefab"
        ]
    },
    "uuids": [
        "00fSbm3OVFa6zIp+2Be3zG",
        "04KB8bSgBFjZxX1b7yRR91",
        "0cb0BjJCJEE5YCdlUJ2/a8",
        "0eM9EID1FFaqIGPFa2KeSr",
        "0fvlci+95C4aM8j8PNz6Qy",
        "10/N7ktplF+Z0Yebx8WxVz",
        "12n0CjpkZJ8oklX4Uxz1QG",
        "135pInBzFAx4D3BzXjn4Ap",
        "15CHUcREZHsr+LGxENd+fa",
        "15YHYRKFJGpY6cnsUdGhJC",
        "16P6WiUQxJB7cHDIR4DGcx",
        "17ukzvEBtBB49AsbnRvysN",
        "19E74YpdxIvbg4w1PKF8/C",
        "19KvkRLcVJUKJgcOGOeXqC",
        "1dF5eDVrNFYJkFc4ed16yU",
        "1f5hq4uvBGYrrR6cUwo3rj",
        "23AoOGFGhJt7wNk5DNjmME",
        "24PS6crJVMyZClOQAw93hi",
        "261KPtq7xCIpKJuPi4F76y",
        "28iC7SbJlEVqaCHyS+6oRV",
        "2bGmzxuvdMnoASNMwNeFYQ",
        "2dztZ/vv9K765nXtJ+PDqB",
        "34JFYabKZAdaZc3NqlawC8",
        "3bTzkMuLhH0rcrsmemT5yu",
        "3fp25rSDdBsIYXacT2rV+m",
        "42jKO471VP3ItiIQ1waAQb",
        "43lkua7oVBpJh+sK0yJskc",
        "43mQ9s8gtIwqq2cvTPjis6",
        "451stX8IdK94v7yBaVVwje",
        "46W9yOas9IC5+94brqKd9U",
        "48ypaf2aVEM7t8bE6fyI8+",
        "4bK58f8fFI0IL5xdL9heWQ",
        "4dwIkhKqRKkLqcUg9FJ/DR",
        "4eI8ULCWdLyp/YZWn0mVPJ",
        "4eOiVKaF1OH75rBGjFL+z/",
        "4e7Qdo6eZObKrFoUTsLTRk",
        "509O5Z90RPvYBgtBG+wqB+",
        "55lKbaqqNJ+YqO54RH+NfC",
        "557ESvEzlHV4kb7vocsFuv",
        "57sTOv+uNFz4YVmrx5OhFb",
        "590nBsYkdNnpGgkxL8M/zF",
        "5bA7gHYbBBqaMpGVZhYpnn",
        "5d9It7KaJF5aEJujFA11He",
        "62i9LASEVNZqRstVk3tTxc",
        "63HKKZYARH14KehlGEjUzS",
        "6333uBJrBPnrUM56MCkxmh",
        "67T7NMy7JOyJ/hLJMTIU+f",
        "739kAgo8ZD6YNTO7SPaHmU",
        "7b5fqJhVZEWrp5majnXkpU",
        "7dHkVwMwtPQb81LE70J54a",
        "7e+PdiS5JKpa/rwNEC/Dxt",
        "7flMg0V+5LrI0TK1Xs1kqv",
        "80l9DqHa1CG61Gl/xA6vMK",
        "82goVusfJPqLxXJDFrHXZK",
        "82migssElAGb04Ws6NimQX",
        "87Ez+nEaRCmY4Hn+0bw3CD",
        "889WsHUz5EzJPGo04uC2ti",
        "89uHuBB5BJBaIr5nCbqdK+",
        "8c8JBfTgJJqKSbB/HkQubD",
        "8d9Ehv39dJCoIVm3uphvha",
        "8eZXn5cp9GaKp6ywAEP++V",
        "90G6VYTcpKK6ovHJ5wfG3s",
        "94V+3X6M5JZ7C3P+rjnZpT",
        "99+hpKjUNLIaW2GK8izJdO",
        "9aYQQF6jxOCpXXnnm18hV9",
        "9coxI+WYlFyYlQCLzhDQgP",
        "9dN8rG4dtP7pqO2eZHb7r1",
        "9fjKYuDXVHa6/3yXtkOE9n",
        "a0NhYt0LFOOpdpc+hBFSd7",
        "a1HwP9eQBKX5ngfnSJ5xyE",
        "a2MjXRFdtLlYQ5ouAFv/+R",
        "a7JCBdfqNJzpK+N4iXH94M",
        "a87Q2zsnJEA5IU6H0x/FCU",
        "aaMHXh8aNNwpBAF2NBs5Wa",
        "ab0UOV0wlNwJV9UpLwC0hG",
        "ae0+mAnmFL77oiEFN1zajq",
        "b5d01Noq5JT4Uf4he1QqRe",
        "b7r6Clb+dFs47Rpm56N7re",
        "b8HojNPj9HzoB18+lRhjZE",
        "b97JAT4S1KkbrqHDr7zRHx",
        "bbklnVum1OFaimsftzrApj",
        "be/RuoQy5Dr4NpiEH8JPIC",
        "c0IgCeDoZLOpPX4bjm5O63",
        "c0J3HcHnZJCae6sDuRpRy7",
        "c4xe/19SlB7ZzjRMJ6x2qb",
        "c83KWBAXlCdrektvA4A+Ht",
        "c9KssdwZhHrKzSeOC9qNum",
        "c9NrxhaGNKBJDiYd4V++Qi",
        "c9ibnZW8hJB7BLgOP7+yP0",
        "cbWJ5vGBtKgJbAKICMMmIM",
        "cbXdGCRtRAg45abLhHl+AN",
        "ccitNBFk5KJZbWltXL8JDL",
        "cc2NuwwopKIrae+iXUdb2+",
        "cd5UD1mWFGyqEpbZKfA45I",
        "d2OuAKheNPWpsXIdWNPztR",
        "dcHrWlYTRFVqd9nG3vsi5u",
        "dcP1ctzsJJGrG4WzneKeeO",
        "e8DiiuN9xHwq8XmMObw/DD",
        "e8yKcDwepM2pVmWDe9VYag",
        "e9xpgg/t5BrL/q3zoDL4TW",
        "eaPvV2nQdLT6nLCL2KvbYv",
        "ecpdLyjvZBwrvm+cedCcQy",
        "efw4aZEVdN7q13PAPbZClP",
        "ef5hrRidxK35E9QURe6E5n",
        "f1rSOtmcFLDKrY3AEjvlhv",
        "f2Qi53uQBGYI+Y1Ax5Ibt/",
        "f2tFj5xSZGPY88hXUNVGR+",
        "f2yeB5arlAlr+y67ec7DzD",
        "f3Fu3O5LpO2Kfu5xZAuo5K",
        "f3iIU/uHBJmZGKXbyhlT58",
        "f5Qc5iPHNJ+IJjDbCPtu/A",
        "f8qcI/HXlEz6eBpAK/zTWp",
        "fadqJDWIxD/rQmXcb5mxCB",
        "fbigJUdKxAkrNGEpSDk80J",
        "fb7UsrhEZFhIlzr8YdV7rN",
        "fcizhqX4hPZbEwJ9BBc1FC",
        "ffBkWw4ytFHa6K7Xh4uW4b"
    ],
    "scenes": {},
    "redirect": [
        "82migssElAGb04Ws6NimQX",
        0,
        "a2MjXRFdtLlYQ5ouAFv/+R",
        1,
        "ecpdLyjvZBwrvm+cedCcQy",
        0
    ],
    "deps": [
        "internal",
        "CommonResources"
    ],
    "packs": {
        "0f913dd1c": [
            "00fSbm3OVFa6zIp+2Be3zG",
            "04KB8bSgBFjZxX1b7yRR91",
            "0cb0BjJCJEE5YCdlUJ2/a8",
            "0eM9EID1FFaqIGPFa2KeSr",
            "0fvlci+95C4aM8j8PNz6Qy",
            "10/N7ktplF+Z0Yebx8WxVz",
            "12n0CjpkZJ8oklX4Uxz1QG",
            "135pInBzFAx4D3BzXjn4Ap",
            "15CHUcREZHsr+LGxENd+fa",
            "15YHYRKFJGpY6cnsUdGhJC",
            "16P6WiUQxJB7cHDIR4DGcx",
            "17ukzvEBtBB49AsbnRvysN",
            "19E74YpdxIvbg4w1PKF8/C",
            "19KvkRLcVJUKJgcOGOeXqC",
            "1dF5eDVrNFYJkFc4ed16yU",
            "1f5hq4uvBGYrrR6cUwo3rj",
            "23AoOGFGhJt7wNk5DNjmME",
            "24PS6crJVMyZClOQAw93hi",
            "261KPtq7xCIpKJuPi4F76y",
            "28iC7SbJlEVqaCHyS+6oRV",
            "2bGmzxuvdMnoASNMwNeFYQ",
            "2dztZ/vv9K765nXtJ+PDqB",
            "34JFYabKZAdaZc3NqlawC8",
            "3bTzkMuLhH0rcrsmemT5yu",
            "3fp25rSDdBsIYXacT2rV+m",
            "42jKO471VP3ItiIQ1waAQb",
            "43lkua7oVBpJh+sK0yJskc",
            "43mQ9s8gtIwqq2cvTPjis6",
            "451stX8IdK94v7yBaVVwje",
            "46W9yOas9IC5+94brqKd9U",
            "48ypaf2aVEM7t8bE6fyI8+",
            "4bK58f8fFI0IL5xdL9heWQ",
            "4dwIkhKqRKkLqcUg9FJ/DR",
            "4eI8ULCWdLyp/YZWn0mVPJ",
            "4eOiVKaF1OH75rBGjFL+z/",
            "4e7Qdo6eZObKrFoUTsLTRk",
            "509O5Z90RPvYBgtBG+wqB+",
            "55lKbaqqNJ+YqO54RH+NfC",
            "557ESvEzlHV4kb7vocsFuv",
            "57sTOv+uNFz4YVmrx5OhFb",
            "590nBsYkdNnpGgkxL8M/zF",
            "5bA7gHYbBBqaMpGVZhYpnn",
            "5d9It7KaJF5aEJujFA11He",
            "62i9LASEVNZqRstVk3tTxc",
            "63HKKZYARH14KehlGEjUzS",
            "6333uBJrBPnrUM56MCkxmh",
            "67T7NMy7JOyJ/hLJMTIU+f",
            "739kAgo8ZD6YNTO7SPaHmU",
            "7b5fqJhVZEWrp5majnXkpU",
            "7dHkVwMwtPQb81LE70J54a",
            "7e+PdiS5JKpa/rwNEC/Dxt",
            "7flMg0V+5LrI0TK1Xs1kqv",
            "80l9DqHa1CG61Gl/xA6vMK",
            "82goVusfJPqLxXJDFrHXZK",
            "87Ez+nEaRCmY4Hn+0bw3CD",
            "889WsHUz5EzJPGo04uC2ti",
            "89uHuBB5BJBaIr5nCbqdK+",
            "8c8JBfTgJJqKSbB/HkQubD",
            "8d9Ehv39dJCoIVm3uphvha",
            "8eZXn5cp9GaKp6ywAEP++V",
            "90G6VYTcpKK6ovHJ5wfG3s",
            "94V+3X6M5JZ7C3P+rjnZpT",
            "99+hpKjUNLIaW2GK8izJdO",
            "9aYQQF6jxOCpXXnnm18hV9",
            "9coxI+WYlFyYlQCLzhDQgP",
            "9dN8rG4dtP7pqO2eZHb7r1",
            "9fjKYuDXVHa6/3yXtkOE9n",
            "a0NhYt0LFOOpdpc+hBFSd7",
            "a1HwP9eQBKX5ngfnSJ5xyE",
            "a7JCBdfqNJzpK+N4iXH94M",
            "a87Q2zsnJEA5IU6H0x/FCU",
            "aaMHXh8aNNwpBAF2NBs5Wa",
            "ab0UOV0wlNwJV9UpLwC0hG",
            "ae0+mAnmFL77oiEFN1zajq",
            "b5d01Noq5JT4Uf4he1QqRe",
            "b7r6Clb+dFs47Rpm56N7re",
            "b8HojNPj9HzoB18+lRhjZE",
            "b97JAT4S1KkbrqHDr7zRHx",
            "bbklnVum1OFaimsftzrApj",
            "be/RuoQy5Dr4NpiEH8JPIC",
            "c0IgCeDoZLOpPX4bjm5O63",
            "c0J3HcHnZJCae6sDuRpRy7",
            "c4xe/19SlB7ZzjRMJ6x2qb",
            "c83KWBAXlCdrektvA4A+Ht",
            "c9KssdwZhHrKzSeOC9qNum",
            "c9NrxhaGNKBJDiYd4V++Qi",
            "c9ibnZW8hJB7BLgOP7+yP0",
            "cbWJ5vGBtKgJbAKICMMmIM",
            "cbXdGCRtRAg45abLhHl+AN",
            "ccitNBFk5KJZbWltXL8JDL",
            "cc2NuwwopKIrae+iXUdb2+",
            "cd5UD1mWFGyqEpbZKfA45I",
            "d2OuAKheNPWpsXIdWNPztR",
            "dcHrWlYTRFVqd9nG3vsi5u",
            "dcP1ctzsJJGrG4WzneKeeO",
            "e8DiiuN9xHwq8XmMObw/DD",
            "e8yKcDwepM2pVmWDe9VYag",
            "e9xpgg/t5BrL/q3zoDL4TW",
            "eaPvV2nQdLT6nLCL2KvbYv",
            "efw4aZEVdN7q13PAPbZClP",
            "ef5hrRidxK35E9QURe6E5n",
            "f1rSOtmcFLDKrY3AEjvlhv",
            "f2Qi53uQBGYI+Y1Ax5Ibt/",
            "f2tFj5xSZGPY88hXUNVGR+",
            "f2yeB5arlAlr+y67ec7DzD",
            "f3Fu3O5LpO2Kfu5xZAuo5K",
            "f3iIU/uHBJmZGKXbyhlT58",
            "f5Qc5iPHNJ+IJjDbCPtu/A",
            "f8qcI/HXlEz6eBpAK/zTWp",
            "fadqJDWIxD/rQmXcb5mxCB",
            "fbigJUdKxAkrNGEpSDk80J",
            "fb7UsrhEZFhIlzr8YdV7rN",
            "fcizhqX4hPZbEwJ9BBc1FC",
            "ffBkWw4ytFHa6K7Xh4uW4b"
        ]
    },
    "name": "SlotFramework",
    "importBase": "import",
    "nativeBase": "native",
    "debug": true,
    "isZip": false,
    "encrypted": false,
    "versions": {
        "import": [
            "0f913dd1c",
            "b0b39"
        ],
        "native": [
            "0cb0BjJCJEE5YCdlUJ2/a8",
            "da399",
            "0eM9EID1FFaqIGPFa2KeSr",
            "31856",
            "10/N7ktplF+Z0Yebx8WxVz",
            "5394b",
            "135pInBzFAx4D3BzXjn4Ap",
            "77c65",
            "15CHUcREZHsr+LGxENd+fa",
            "736ca",
            "15YHYRKFJGpY6cnsUdGhJC",
            "0c079",
            "1dF5eDVrNFYJkFc4ed16yU",
            "a0c59",
            "23AoOGFGhJt7wNk5DNjmME",
            "65c7f",
            "24PS6crJVMyZClOQAw93hi",
            "b90f7",
            "34JFYabKZAdaZc3NqlawC8",
            "e34a4",
            "3fp25rSDdBsIYXacT2rV+m",
            "d0862",
            "451stX8IdK94v7yBaVVwje",
            "38f68",
            "48ypaf2aVEM7t8bE6fyI8+",
            "f9cbd",
            "4bK58f8fFI0IL5xdL9heWQ",
            "e1abd",
            "4eI8ULCWdLyp/YZWn0mVPJ",
            "2084f",
            "509O5Z90RPvYBgtBG+wqB+",
            "3d6a4",
            "55lKbaqqNJ+YqO54RH+NfC",
            "f2d81",
            "557ESvEzlHV4kb7vocsFuv",
            "c744e",
            "57sTOv+uNFz4YVmrx5OhFb",
            "1048a",
            "5bA7gHYbBBqaMpGVZhYpnn",
            "f9a1b",
            "5d9It7KaJF5aEJujFA11He",
            "6a04d",
            "63HKKZYARH14KehlGEjUzS",
            "1390c",
            "6333uBJrBPnrUM56MCkxmh",
            "c1cfe",
            "67T7NMy7JOyJ/hLJMTIU+f",
            "7069f",
            "739kAgo8ZD6YNTO7SPaHmU",
            "a3024",
            "7b5fqJhVZEWrp5majnXkpU",
            "3aed2",
            "7flMg0V+5LrI0TK1Xs1kqv",
            "dc07b",
            "889WsHUz5EzJPGo04uC2ti",
            "ce378",
            "89uHuBB5BJBaIr5nCbqdK+",
            "7ba51",
            "99+hpKjUNLIaW2GK8izJdO",
            "c3728",
            "9aYQQF6jxOCpXXnnm18hV9",
            "b2104",
            "9dN8rG4dtP7pqO2eZHb7r1",
            "898d3",
            "9fjKYuDXVHa6/3yXtkOE9n",
            "11531",
            "ae0+mAnmFL77oiEFN1zajq",
            "a823c",
            "b7r6Clb+dFs47Rpm56N7re",
            "a64d0",
            "b97JAT4S1KkbrqHDr7zRHx",
            "15eb7",
            "c0J3HcHnZJCae6sDuRpRy7",
            "1816e",
            "c4xe/19SlB7ZzjRMJ6x2qb",
            "f30e3",
            "c9KssdwZhHrKzSeOC9qNum",
            "e6977",
            "cbWJ5vGBtKgJbAKICMMmIM",
            "95ebb",
            "ccitNBFk5KJZbWltXL8JDL",
            "b1220",
            "cc2NuwwopKIrae+iXUdb2+",
            "f7626",
            "cd5UD1mWFGyqEpbZKfA45I",
            "5f573",
            "e8yKcDwepM2pVmWDe9VYag",
            "e1a68",
            "eaPvV2nQdLT6nLCL2KvbYv",
            "f14b8",
            "f1rSOtmcFLDKrY3AEjvlhv",
            "0c2e4",
            "f2Qi53uQBGYI+Y1Ax5Ibt/",
            "14392",
            "f3Fu3O5LpO2Kfu5xZAuo5K",
            "718e3",
            "f5Qc5iPHNJ+IJjDbCPtu/A",
            "1f9b7",
            "f8qcI/HXlEz6eBpAK/zTWp",
            "71e51"
        ]
    }
}