{
    "paths": {
        "42jKO471VP3ItiIQ1waAQb": [
            "Common/Socket/SDK/Slot_GameClient.d",
            "cc.TextAsset"
        ],
        "aaMHXh8aNNwpBAF2NBs5Wa": [
            "README",
            "cc.TextAsset"
        ],
        "5d9It7KaJF5aEJujFA11He": [
            "Resources/CarryMoney/g62_com_pl_7",
            "cc.Texture2D"
        ],
        "b5d01Noq5JT4Uf4he1QqRe": [
            "Resources/CarryMoney/g62_com_pl_7",
            "cc.SpriteFrame",
            1
        ],
        "1f5hq4uvBGYrrR6cUwo3rj": [
            "Resources/CarryMoney/g62_com_pl_8",
            "cc.SpriteFrame",
            1
        ],
        "cbWJ5vGBtKgJbAKICMMmIM": [
            "Resources/CarryMoney/g62_com_pl_8",
            "cc.Texture2D"
        ],
        "19KvkRLcVJUKJgcOGOeXqC": [
            "Resources/CarryMoney/g87_btn_kk_3",
            "cc.SpriteFrame",
            1
        ],
        "9fjKYuDXVHa6/3yXtkOE9n": [
            "Resources/CarryMoney/g87_btn_kk_3",
            "cc.Texture2D"
        ],
        "b7r6Clb+dFs47Rpm56N7re": [
            "Resources/CarryMoney/g87_btn_kk_5",
            "cc.Texture2D"
        ],
        "dcHrWlYTRFVqd9nG3vsi5u": [
            "Resources/CarryMoney/g87_btn_kk_5",
            "cc.SpriteFrame",
            1
        ],
        "4bK58f8fFI0IL5xdL9heWQ": [
            "Resources/CarryMoney/g87_img_kk_5",
            "cc.Texture2D"
        ],
        "8c8JBfTgJJqKSbB/HkQubD": [
            "Resources/CarryMoney/g87_img_kk_5",
            "cc.SpriteFrame",
            1
        ],
        "24PS6crJVMyZClOQAw93hi": [
            "Resources/CarryMoney/g87_img_pl_kk_1",
            "cc.Texture2D"
        ],
        "c0IgCeDoZLOpPX4bjm5O63": [
            "Resources/CarryMoney/g87_img_pl_kk_1",
            "cc.SpriteFrame",
            1
        ],
        "43lkua7oVBpJh+sK0yJskc": [
            "Resources/CarryMoney/g87_img_pl_kk_2",
            "cc.SpriteFrame",
            1
        ],
        "509O5Z90RPvYBgtBG+wqB+": [
            "Resources/CarryMoney/g87_img_pl_kk_2",
            "cc.Texture2D"
        ],
        "739kAgo8ZD6YNTO7SPaHmU": [
            "Resources/CarryMoney/g87_img_pl_kk_3",
            "cc.Texture2D"
        ],
        "a87Q2zsnJEA5IU6H0x/FCU": [
            "Resources/CarryMoney/g87_img_pl_kk_3",
            "cc.SpriteFrame",
            1
        ],
        "f5Qc5iPHNJ+IJjDbCPtu/A": [
            "Resources/CarryMoney/g87_img_pl_kk_5",
            "cc.Texture2D"
        ],
        "fbigJUdKxAkrNGEpSDk80J": [
            "Resources/CarryMoney/g87_img_pl_kk_5",
            "cc.SpriteFrame",
            1
        ],
        "19E74YpdxIvbg4w1PKF8/C": [
            "Resources/pl_3",
            "cc.SpriteFrame",
            1
        ],
        "f3Fu3O5LpO2Kfu5xZAuo5K": [
            "Resources/pl_3",
            "cc.Texture2D"
        ],
        "dcP1ctzsJJGrG4WzneKeeO": [
            "Resources/prefab/SlotCarryMoneyInfoPanel",
            "cc.Prefab"
        ]
    },
    "uuids": [
        "19E74YpdxIvbg4w1PKF8/C",
        "19KvkRLcVJUKJgcOGOeXqC",
        "1f5hq4uvBGYrrR6cUwo3rj",
        "24PS6crJVMyZClOQAw93hi",
        "42jKO471VP3ItiIQ1waAQb",
        "43lkua7oVBpJh+sK0yJskc",
        "4bK58f8fFI0IL5xdL9heWQ",
        "509O5Z90RPvYBgtBG+wqB+",
        "5d9It7KaJF5aEJujFA11He",
        "739kAgo8ZD6YNTO7SPaHmU",
        "8c8JBfTgJJqKSbB/HkQubD",
        "9fjKYuDXVHa6/3yXtkOE9n",
        "a2MjXRFdtLlYQ5ouAFv/+R",
        "a87Q2zsnJEA5IU6H0x/FCU",
        "aaMHXh8aNNwpBAF2NBs5Wa",
        "b5d01Noq5JT4Uf4he1QqRe",
        "b7r6Clb+dFs47Rpm56N7re",
        "c0IgCeDoZLOpPX4bjm5O63",
        "cbWJ5vGBtKgJbAKICMMmIM",
        "dcHrWlYTRFVqd9nG3vsi5u",
        "dcP1ctzsJJGrG4WzneKeeO",
        "ecpdLyjvZBwrvm+cedCcQy",
        "f3Fu3O5LpO2Kfu5xZAuo5K",
        "f5Qc5iPHNJ+IJjDbCPtu/A",
        "fbigJUdKxAkrNGEpSDk80J"
    ],
    "scenes": {},
    "redirect": [
        "a2MjXRFdtLlYQ5ouAFv/+R",
        0,
        "ecpdLyjvZBwrvm+cedCcQy",
        1
    ],
    "deps": [
        "CommonResources",
        "internal"
    ],
    "packs": {
        "040ca0fef": [
            "19E74YpdxIvbg4w1PKF8/C",
            "19KvkRLcVJUKJgcOGOeXqC",
            "1f5hq4uvBGYrrR6cUwo3rj",
            "24PS6crJVMyZClOQAw93hi",
            "42jKO471VP3ItiIQ1waAQb",
            "43lkua7oVBpJh+sK0yJskc",
            "4bK58f8fFI0IL5xdL9heWQ",
            "509O5Z90RPvYBgtBG+wqB+",
            "5d9It7KaJF5aEJujFA11He",
            "739kAgo8ZD6YNTO7SPaHmU",
            "8c8JBfTgJJqKSbB/HkQubD",
            "9fjKYuDXVHa6/3yXtkOE9n",
            "a87Q2zsnJEA5IU6H0x/FCU",
            "aaMHXh8aNNwpBAF2NBs5Wa",
            "b5d01Noq5JT4Uf4he1QqRe",
            "b7r6Clb+dFs47Rpm56N7re",
            "c0IgCeDoZLOpPX4bjm5O63",
            "cbWJ5vGBtKgJbAKICMMmIM",
            "dcHrWlYTRFVqd9nG3vsi5u",
            "dcP1ctzsJJGrG4WzneKeeO",
            "f3Fu3O5LpO2Kfu5xZAuo5K",
            "f5Qc5iPHNJ+IJjDbCPtu/A",
            "fbigJUdKxAkrNGEpSDk80J"
        ]
    },
    "name": "SlotFramework",
    "importBase": "import",
    "nativeBase": "native",
    "debug": true,
    "isZip": false,
    "encrypted": false,
    "versions": {
        "import": [
            "040ca0fef",
            "b416b"
        ],
        "native": [
            "24PS6crJVMyZClOQAw93hi",
            "b90f7",
            "4bK58f8fFI0IL5xdL9heWQ",
            "e1abd",
            "509O5Z90RPvYBgtBG+wqB+",
            "3d6a4",
            "5d9It7KaJF5aEJujFA11He",
            "6a04d",
            "739kAgo8ZD6YNTO7SPaHmU",
            "a3024",
            "9fjKYuDXVHa6/3yXtkOE9n",
            "11531",
            "b7r6Clb+dFs47Rpm56N7re",
            "a64d0",
            "cbWJ5vGBtKgJbAKICMMmIM",
            "95ebb",
            "f3Fu3O5LpO2Kfu5xZAuo5K",
            "718e3",
            "f5Qc5iPHNJ+IJjDbCPtu/A",
            "1f9b7"
        ]
    }
}