{
    "paths": {
        "43l64nvntFvYZ81qPDk75c": [
            "Common/script/socket/SDK/G57_GameClient.d",
            "cc.TextAsset"
        ],
        "556AUCTg1dwIeCNOG4wP2W": [
            "README",
            "cc.TextAsset"
        ],
        "c7Fz/F3DZM6oFDqZ5lC7cu": [
            "Resources/Audio - G57",
            "cc.TextAsset"
        ],
        "080sFVSmFBPZUP4tCG+5MI": [
            "Resources/Font/G57_mg_fnt_linemoney",
            "cc.BitmapFont"
        ],
        "a4gvqLfgtEsYTY/qHZjjND": [
            "Resources/Font/G57_mg_fnt_linemoney",
            "cc.SpriteFrame",
            1
        ],
        "e4gXMQVUpPk5yNkd08BA3N": [
            "Resources/Font/G57_mg_fnt_linemoney",
            "cc.Texture2D"
        ],
        "01vQRhPrVOtIDJplk7VKMu": [
            "Resources/Font/font_1",
            "cc.SpriteFrame",
            1
        ],
        "13oF44pA9Gequ6UT3sftsp": [
            "Resources/Font/font_1",
            "cc.Texture2D"
        ],
        "5fVxeMYb5EWbEJdG1cDAHc": [
            "Resources/Font/font_1",
            "cc.BitmapFont"
        ],
        "1et1ASx/pECa+lmvmC+6K3": [
            "Resources/Font/g57_com_fnt_1",
            "cc.Texture2D"
        ],
        "749i5cqmlPOJd32YRdt42N": [
            "Resources/Font/g57_com_fnt_1",
            "cc.BitmapFont"
        ],
        "7fRfroN+dGuY0MCQa/2tuV": [
            "Resources/Font/g57_com_fnt_1",
            "cc.SpriteFrame",
            1
        ],
        "533Aa47JRPoJeoUvMCefbL": [
            "Resources/Font/g57_com_fnt_2",
            "cc.BitmapFont"
        ],
        "99mqisYdpMIK1tgexKtc91": [
            "Resources/Font/g57_com_fnt_2",
            "cc.Texture2D"
        ],
        "daHjIKRD1BR4u6uV1LPxI5": [
            "Resources/Font/g57_com_fnt_2",
            "cc.SpriteFrame",
            1
        ],
        "29MlVBTJVPQ43zrPtBuprL": [
            "Resources/Font/g57_com_fnt_3",
            "cc.Texture2D"
        ],
        "6eQCh3TAREi79+wORe3+tM": [
            "Resources/Font/g57_com_fnt_3",
            "cc.BitmapFont"
        ],
        "7eU5vGoPJOo5YSHUeTuebr": [
            "Resources/Font/g57_com_fnt_3",
            "cc.SpriteFrame",
            1
        ],
        "0cF0OSRnhI9LwZ9SMl2ut9": [
            "Resources/Font/g57_fg_fnt_2",
            "cc.BitmapFont"
        ],
        "33zGfERC5NvKT2imqEJqS7": [
            "Resources/Font/g57_fg_fnt_2",
            "cc.Texture2D"
        ],
        "6aLDx84utIiKqhNq+X0Jd6": [
            "Resources/Font/g57_fg_fnt_2",
            "cc.SpriteFrame",
            1
        ],
        "5btZE5jM5Ks5cvxWrVxEO0": [
            "Resources/Font/g57_fg_fnt_3",
            "cc.BitmapFont"
        ],
        "7eJ1ZyhxxEzbtuHyF9INaL": [
            "Resources/Font/g57_fg_fnt_3",
            "cc.SpriteFrame",
            1
        ],
        "8dBJp7B+FBNJHmxKEJ08HS": [
            "Resources/Font/g57_fg_fnt_3",
            "cc.Texture2D"
        ],
        "1ePzTqLQVHWLtRdTtGqg6H": [
            "Resources/Font/g57_mg_fnt_1",
            "cc.SpriteFrame",
            1
        ],
        "5c+fEwrP1BSbiAsJIS6nGG": [
            "Resources/Font/g57_mg_fnt_1",
            "cc.BitmapFont"
        ],
        "8667yNFcBGfrNaLFRBjdFl": [
            "Resources/Font/g57_mg_fnt_1",
            "cc.Texture2D"
        ],
        "87eKJTHLRKeZpGdgPyon+z": [
            "Resources/G57_FX/FX_Animation/FX_An1Prompt_02",
            "cc.AnimationClip"
        ],
        "75XMyZ9tVDsYgT8WKujDbZ": [
            "Resources/G57_FX/FX_Animation/FX_An1Prompt_BG",
            "cc.AnimationClip"
        ],
        "b8fCRjsMNGRIEHCmF3W7Mi": [
            "Resources/G57_FX/FX_Animation/FX_An1Prompt_fadein",
            "cc.AnimationClip"
        ],
        "6a2n+RnSNJUItZM6vxPyFL": [
            "Resources/G57_FX/FX_Animation/FX_An3Prompt",
            "cc.AnimationClip"
        ],
        "f2RW9OghBLDq3LYR7VLrb+": [
            "Resources/G57_FX/FX_Animation/FX_An3Prompt_02",
            "cc.AnimationClip"
        ],
        "2deRNfJKtNuLAxTku0Y2+O": [
            "Resources/G57_FX/FX_Animation/FX_An3Prompt_03",
            "cc.AnimationClip"
        ],
        "5b/1WjEw1MsrEmhb8Ig/XK": [
            "Resources/G57_FX/FX_Animation/FX_AnBroad_Once",
            "cc.AnimationClip"
        ],
        "43jdAalShNc489S4zR81jx": [
            "Resources/G57_FX/FX_Animation/FX_AnBroad_Once2_H",
            "cc.AnimationClip"
        ],
        "94aXYVWCJOfaq6K9KWj29U": [
            "Resources/G57_FX/FX_Animation/FX_AnBroad_Once2_V",
            "cc.AnimationClip"
        ],
        "2a38OXUcBAhquYlDzKGqsH": [
            "Resources/G57_FX/FX_Animation/FX_AnCollect_Fly",
            "cc.AnimationClip"
        ],
        "edvAUILzxBRJ0GG5nIUmcL": [
            "Resources/G57_FX/FX_Animation/FX_AnEnd",
            "cc.AnimationClip"
        ],
        "f6wcIfEIFEjaVEW1sqjnQA": [
            "Resources/G57_FX/FX_Animation/FX_AnFG_AddTimes",
            "cc.AnimationClip"
        ],
        "d03NIYREFI+pwS+cMeIOU1": [
            "Resources/G57_FX/FX_Animation/FX_AnFG_In",
            "cc.AnimationClip"
        ],
        "481ncEZsVDgZld9SHUoua6": [
            "Resources/G57_FX/FX_Animation/FX_AnFG_Scene",
            "cc.AnimationClip"
        ],
        "d6vBBAe+dN9quILZruZEuF": [
            "Resources/G57_FX/FX_Animation/FX_AnFG_Scene_Win_02",
            "cc.AnimationClip"
        ],
        "31wCWjYIdFNb9yQ5G+m6R/": [
            "Resources/G57_FX/FX_Animation/FX_AnFG_Scene_roller",
            "cc.AnimationClip"
        ],
        "eeRexBAepEAIsI3EB2XhKT": [
            "Resources/G57_FX/FX_Animation/FX_AnFG_Scene_roller2",
            "cc.AnimationClip"
        ],
        "1fOLOANapJo49cvSicD2Kx": [
            "Resources/G57_FX/FX_Animation/FX_AnHighWin",
            "cc.AnimationClip"
        ],
        "809SDjQWFPe7UqWoj9xB2U": [
            "Resources/G57_FX/FX_Animation/FX_AnHighWin_02",
            "cc.AnimationClip"
        ],
        "d4ujSV5OlCeJeOD0ZQTGQp": [
            "Resources/G57_FX/FX_Animation/FX_AnHighWin_big",
            "cc.AnimationClip"
        ],
        "8bTi4xyp1ETaj9xMM4xPRZ": [
            "Resources/G57_FX/FX_Animation/FX_AnHighWin_fadeout",
            "cc.AnimationClip"
        ],
        "75DIg/zgtOZ6Z1pX1J33cW": [
            "Resources/G57_FX/FX_Animation/FX_AnHighWin_fadeout_big",
            "cc.AnimationClip"
        ],
        "7fzcQCPftOwYr5u3e8v1DA": [
            "Resources/G57_FX/FX_Animation/FX_AnHighWin_line",
            "cc.AnimationClip"
        ],
        "1cULuehUFOiKv/1m8X1avx": [
            "Resources/G57_FX/FX_Animation/FX_AnHighWin_number",
            "cc.AnimationClip"
        ],
        "f4WjBUtOxE2Jqv1bXFpkDm": [
            "Resources/G57_FX/FX_Animation/FX_AnHighWin_word",
            "cc.AnimationClip"
        ],
        "140yAL5BVEfY0XKtxBE7He": [
            "Resources/G57_FX/FX_Animation/FX_AnHighWin_word_2",
            "cc.AnimationClip"
        ],
        "347gKiaRtF0qj5MJHlR9jh": [
            "Resources/G57_FX/FX_Animation/FX_AnLoading",
            "cc.AnimationClip"
        ],
        "cd2c6TcoZCC74ibO/9IgXm": [
            "Resources/G57_FX/FX_Animation/FX_AnScatter_Collect_start",
            "cc.AnimationClip"
        ],
        "925qeHM75GZ4ufTuqgGZ6/": [
            "Resources/G57_FX/FX_Animation/FX_AnScene_Idle",
            "cc.AnimationClip"
        ],
        "58SuE9nOZL0b97gPGNkkwM": [
            "Resources/G57_FX/FX_Animation/FX_AnScene_Win",
            "cc.AnimationClip"
        ],
        "8a1Mf4b8lDXKyIY3p1/NXV": [
            "Resources/G57_FX/FX_Animation/FX_AnScene_Win2",
            "cc.AnimationClip"
        ],
        "8d25wLSFpGjaXeonXBotxx": [
            "Resources/G57_FX/FX_Animation/FX_AnScene_boombox",
            "cc.AnimationClip"
        ],
        "b4wIahfP1IlKhYOgOMt5Bp": [
            "Resources/G57_FX/FX_Animation/FX_AnSelect",
            "cc.AnimationClip"
        ],
        "05ic8RLD9JMqm9p2wf3kBM": [
            "Resources/G57_FX/FX_Animation/FX_AnSpin_Loop",
            "cc.AnimationClip"
        ],
        "ac3RkONC9MfIjAAYuEk/dJ": [
            "Resources/G57_FX/FX_Animation/FX_AnX2",
            "cc.AnimationClip"
        ],
        "82riyrh5pDqaIfZNR8J0ga": [
            "Resources/G57_FX/FX_Animation/FX_AnX2_02",
            "cc.AnimationClip"
        ],
        "deT0Q6YMdCaa9l47nlCS6m": [
            "Resources/G57_FX/FX_Animation/FX_An_Number",
            "cc.AnimationClip"
        ],
        "779unbn8BHQbSV+ENtlJMH": [
            "Resources/G57_FX/FX_Animation/FX_An_Opacity",
            "cc.AnimationClip"
        ],
        "49E3bC50xL5qTFtYD6ZrVq": [
            "Resources/G57_FX/FX_Animation/FX_An_Opacity_02",
            "cc.AnimationClip"
        ],
        "0fyAlg+RhOlKqdt7ZlGai5": [
            "Resources/G57_FX/FX_Animation/FX_An_Opacity_03",
            "cc.AnimationClip"
        ],
        "74XHTkAzlPpqQF2mbqO8ls": [
            "Resources/G57_FX/FX_Animation/FX_An_Opacity_03_H",
            "cc.AnimationClip"
        ],
        "7bI23P9idC6LOi+Sx5Me9K": [
            "Resources/G57_FX/FX_Animation/FX_An_Opacity_04",
            "cc.AnimationClip"
        ],
        "cadvS9vIhKboSXJTVKkZVU": [
            "Resources/G57_FX/FX_Animation/FX_FG_Scene_boombox",
            "cc.AnimationClip"
        ],
        "9akyG4o4pBdKT7RLFER76Z": [
            "Resources/G57_FX/FX_Material/m_UVOffsetMaterial_t_color_01",
            "cc.Material"
        ],
        "76k/zYxeVMeL9zVSmI+JL6": [
            "Resources/G57_FX/FX_Material/m_UVOffsetMaterial_t_logo_01",
            "cc.Material"
        ],
        "18qu2v0CFHdrqxAtfcuQpP": [
            "Resources/G57_FX/FX_Material/m_UVOffsetMaterial_t_spotlight_01",
            "cc.Material"
        ],
        "86oJNxFNxBvJHSa+StWcys": [
            "Resources/G57_FX/FX_Material/m_UVOffsetMaterial_t_ui_01",
            "cc.Material"
        ],
        "90EOibT5tCnrF56Y74oV7c": [
            "Resources/G57_FX/FX_Material/m_ball_02",
            "cc.Material"
        ],
        "aeft4DKklJ16MyM5xM5mW1": [
            "Resources/G57_FX/FX_Material/m_ball_09",
            "cc.Material"
        ],
        "caAVVgiORAZ62JqVN0Yrtr": [
            "Resources/G57_FX/FX_Material/m_bl_34",
            "cc.Material"
        ],
        "2eTPYa8c9A/pBa4FdjKKmq": [
            "Resources/G57_FX/FX_Material/m_coin_01",
            "cc.Material"
        ],
        "df1D4fwhRJx6gYSvNf/d9I": [
            "Resources/G57_FX/FX_Material/m_color_01",
            "cc.Material"
        ],
        "03ur2V7KhBPYZobSMwk2oy": [
            "Resources/G57_FX/FX_Material/m_light_01",
            "cc.Material"
        ],
        "98sN3IDwNJX6SR4+ef9tyi": [
            "Resources/G57_FX/FX_Material/m_light_02",
            "cc.Material"
        ],
        "a0lkbc3eZP26kxXC4G8u88": [
            "Resources/G57_FX/FX_Material/m_linelight_01",
            "cc.Material"
        ],
        "e6iboTifBH+KQAuTNn8Zy1": [
            "Resources/G57_FX/FX_Material/m_music_01",
            "cc.Material"
        ],
        "2bYkwpmbRJFIeNHCbVefHj": [
            "Resources/G57_FX/FX_Material/m_music_02",
            "cc.Material"
        ],
        "70gberBwxCq7dd6E1hKzIi": [
            "Resources/G57_FX/FX_Material/m_o_01",
            "cc.Material"
        ],
        "52z37d5ChBhrTOhWYrw0LJ": [
            "Resources/G57_FX/FX_Material/m_o_05",
            "cc.Material"
        ],
        "0dr4LyFFZHmYO5yafBlrGH": [
            "Resources/G57_FX/FX_Material/m_o_06",
            "cc.Material"
        ],
        "6auRJwh4lKFpYi0/vwRQ77": [
            "Resources/G57_FX/FX_Material/m_o_09",
            "cc.Material"
        ],
        "8fXfAP7zxAeIO6Dp1I/YD6": [
            "Resources/G57_FX/FX_Material/m_smoke_01",
            "cc.Material"
        ],
        "902MSRCy5Ol6KYxLENGgh2": [
            "Resources/G57_FX/FX_Material/m_smoke_02",
            "cc.Material"
        ],
        "36Lfm8uZ5KMYRob+05nAQx": [
            "Resources/G57_FX/FX_Material/m_sn_225",
            "cc.Material"
        ],
        "65Lbz1u9pF15MPZ7gxMDXF": [
            "Resources/G57_FX/FX_Material/m_star_02",
            "cc.Material"
        ],
        "67E1Xf5RdN8LWPX8DFm+lE": [
            "Resources/G57_FX/FX_Material/m_ui_07",
            "cc.Material"
        ],
        "19x5/yDPdCOYgfieKRigYy": [
            "Resources/G57_FX/FX_Material/m_ui_09",
            "cc.Material"
        ],
        "59TxNjW/xC55RbKDk0vlE0": [
            "Resources/G57_FX/FX_Material/m_wave_01",
            "cc.Material"
        ],
        "16yyzpEVtEdbaCnxmzS6kI": [
            "Resources/G57_FX/FX_Spine/Background/Background",
            "cc.SpriteFrame",
            1
        ],
        "4fXogrx7RN47H6wlfO5Cir": [
            "Resources/G57_FX/FX_Spine/Background/Background",
            "cc.Texture2D"
        ],
        "90yp6EUp5HGb4Zb8x1qdsw": [
            "Resources/G57_FX/FX_Spine/Background/Background",
            "sp.SkeletonData"
        ],
        "9cNvRvyD1I1orkskQrqMat": [
            "Resources/G57_FX/FX_Spine/Background/Background",
            "cc.Asset"
        ],
        "2eSUFf7EhEI5CKpgjjhhKH": [
            "Resources/G57_FX/FX_Spine/Symbol/Symbol",
            "cc.Asset"
        ],
        "34S3boNnpDrqYkgUKb/yGW": [
            "Resources/G57_FX/FX_Spine/Symbol/Symbol",
            "sp.SkeletonData"
        ],
        "65UUzJWBJKgrh/uED8fnW5": [
            "Resources/G57_FX/FX_Spine/Symbol/Symbol",
            "cc.Texture2D"
        ],
        "89X9lqzblOAJfuboqGW0om": [
            "Resources/G57_FX/FX_Spine/Symbol/Symbol",
            "cc.SpriteFrame",
            1
        ],
        "ebEBdHZjhM4q13Ku3RFhrX": [
            "Resources/G57_FX/FX_Texture/AutoAtlas",
            "cc.SpriteAtlas"
        ],
        "ceLgef2xJDgpYGPbEp2MCi": [
            "Resources/G57_FX/FX_Texture/fg_in_select/AutoAtlas",
            "cc.SpriteAtlas"
        ],
        "38orXI8b5NqI6ap8iaDEjh": [
            "Resources/G57_FX/FX_Texture/fg_in_select/t_fg_choice_1",
            "cc.SpriteFrame",
            1
        ],
        "cfhMVR07BNuKmW7/QQsqwP": [
            "Resources/G57_FX/FX_Texture/fg_in_select/t_fg_choice_1_2",
            "cc.SpriteFrame",
            1
        ],
        "adRhV1ipRM1ZGQqUtKmZeB": [
            "Resources/G57_FX/FX_Texture/fg_in_select/t_fg_choice_2",
            "cc.SpriteFrame",
            1
        ],
        "7cFOor0XFB/LKBGb7epdgV": [
            "Resources/G57_FX/FX_Texture/fg_in_select/t_fg_choice_2_2",
            "cc.SpriteFrame",
            1
        ],
        "eegCNb9dpIX7jsJgVOduB0": [
            "Resources/G57_FX/FX_Texture/fg_in_select/t_fg_choice_3",
            "cc.SpriteFrame",
            1
        ],
        "0fR4XDUZ9NO4ILjvxdDuD/": [
            "Resources/G57_FX/FX_Texture/fg_in_select/t_fg_choice_3_2",
            "cc.SpriteFrame",
            1
        ],
        "c7Orwm5AdLoalhxEUH35XM": [
            "Resources/G57_FX/FX_Texture/fg_in_select/t_fg_choice_4",
            "cc.SpriteFrame",
            1
        ],
        "f8bB1MptBF+qMfL4HJKRqP": [
            "Resources/G57_FX/FX_Texture/fg_in_select/t_fg_choice_4_2",
            "cc.SpriteFrame",
            1
        ],
        "ebGJ0OFqxMwJ450B07QVcu": [
            "Resources/G57_FX/FX_Texture/fg_in_select/t_fg_choice_5",
            "cc.SpriteFrame",
            1
        ],
        "ecw/g8qSdB27q64+rXOIzS": [
            "Resources/G57_FX/FX_Texture/fg_in_select/t_fg_choice_5_2",
            "cc.SpriteFrame",
            1
        ],
        "29Xv2fH6tDmY1SJWKce1h+": [
            "Resources/G57_FX/FX_Texture/fg_in_select/t_words_01",
            "cc.SpriteFrame",
            1
        ],
        "6f3iyFcedAYqRb4tST1evp": [
            "Resources/G57_FX/FX_Texture/fg_in_select/t_words_02",
            "cc.SpriteFrame",
            1
        ],
        "daSTaLt29CELGuFqQb+qEu": [
            "Resources/G57_FX/FX_Texture/fg_in_select/t_words_02_2",
            "cc.SpriteFrame",
            1
        ],
        "a4pcTwgUxBOIqRTHMKej/K": [
            "Resources/G57_FX/FX_Texture/highwin/AutoAtlas",
            "cc.SpriteAtlas"
        ],
        "a0JgAot+ZDTItZXb7pckyk": [
            "Resources/G57_FX/FX_Texture/highwin/t_bg_color",
            "cc.SpriteFrame",
            1
        ],
        "37EbWrQ0hAHqfoe9aBLl1r": [
            "Resources/G57_FX/FX_Texture/highwin/t_big_01",
            "cc.SpriteFrame",
            1
        ],
        "6csbKRqjFHE6DGmINdc5eC": [
            "Resources/G57_FX/FX_Texture/highwin/t_big_02",
            "cc.SpriteFrame",
            1
        ],
        "a18tN0BrVCM7bNEaE9AJVi": [
            "Resources/G57_FX/FX_Texture/highwin/t_coin_01",
            "cc.Texture2D"
        ],
        "d5fI/UMgNEDpIGjk+UZMQe": [
            "Resources/G57_FX/FX_Texture/highwin/t_coin_01",
            "cc.SpriteFrame",
            1
        ],
        "0fPsNkPqBJd6TgHxpvXjm/": [
            "Resources/G57_FX/FX_Texture/highwin/t_mega_01",
            "cc.SpriteFrame",
            1
        ],
        "dfeck7QvpCjpZso4Xdxrb8": [
            "Resources/G57_FX/FX_Texture/highwin/t_mega_02",
            "cc.SpriteFrame",
            1
        ],
        "30HO3c9FZF/5+IDfDz5Ukk": [
            "Resources/G57_FX/FX_Texture/highwin/t_super_01",
            "cc.SpriteFrame",
            1
        ],
        "90XvJbfsVFWp1A5E49/0R7": [
            "Resources/G57_FX/FX_Texture/highwin/t_super_02",
            "cc.SpriteFrame",
            1
        ],
        "cdfI3qs1FAVbvVntkNoMIf": [
            "Resources/G57_FX/FX_Texture/t_3Prompt_light",
            "cc.SpriteFrame",
            1
        ],
        "79xa05T/1F8bJk3B/i8V3s": [
            "Resources/G57_FX/FX_Texture/t_ball_01",
            "cc.SpriteFrame",
            1
        ],
        "4bhlk9ciBEUqkSVdpKPyS2": [
            "Resources/G57_FX/FX_Texture/t_ball_02",
            "cc.Texture2D"
        ],
        "c4rZElS2tGPpEe5RKeic7l": [
            "Resources/G57_FX/FX_Texture/t_ball_02",
            "cc.SpriteFrame",
            1
        ],
        "21kMgw+OZBv44IGd+iuu/i": [
            "Resources/G57_FX/FX_Texture/t_ball_09",
            "cc.SpriteFrame",
            1
        ],
        "43ERlSnGtOXpPc/XG2swtt": [
            "Resources/G57_FX/FX_Texture/t_ball_09",
            "cc.Texture2D"
        ],
        "0dcjkpgUFG0KL1ICy4i9Bl": [
            "Resources/G57_FX/FX_Texture/t_bl_34",
            "cc.Texture2D"
        ],
        "d8ei9jLM1I+osTI9PCbtFG": [
            "Resources/G57_FX/FX_Texture/t_bl_34",
            "cc.SpriteFrame",
            1
        ],
        "d3r+XJlLZI3JJcoea7MBuC": [
            "Resources/G57_FX/FX_Texture/t_boombox_01",
            "cc.SpriteFrame",
            1
        ],
        "7euxOUv4xJEqb7VHlcxl0f": [
            "Resources/G57_FX/FX_Texture/t_boombox_02",
            "cc.SpriteFrame",
            1
        ],
        "2682sRt7VKgpSw0r/cqEA4": [
            "Resources/G57_FX/FX_Texture/t_boombox_03",
            "cc.SpriteFrame",
            1
        ],
        "45YZf9181HeJn/8gXYYIRk": [
            "Resources/G57_FX/FX_Texture/t_boombox_04",
            "cc.SpriteFrame",
            1
        ],
        "91T2bOafpB7rYgXCRctT0f": [
            "Resources/G57_FX/FX_Texture/t_boxcolor_01",
            "cc.SpriteFrame",
            1
        ],
        "50xsgCpihOQ5OMRBQn0c82": [
            "Resources/G57_FX/FX_Texture/t_btn_01",
            "cc.SpriteFrame",
            1
        ],
        "33FznvPS1Dr5YY3i7SklJ3": [
            "Resources/G57_FX/FX_Texture/t_cloud_01",
            "cc.SpriteFrame",
            1
        ],
        "39QnoxDQxJB48iba9MZUG1": [
            "Resources/G57_FX/FX_Texture/t_color_01",
            "cc.SpriteFrame",
            1
        ],
        "deOotEUAtINpNfmhZSggf/": [
            "Resources/G57_FX/FX_Texture/t_color_01",
            "cc.Texture2D"
        ],
        "8aNqONMnlHAoY7n1JblB5A": [
            "Resources/G57_FX/FX_Texture/t_eleceiceline/AutoAtlas",
            "cc.SpriteAtlas"
        ],
        "9da9jHcOZF9Y6mFWkRsDBk": [
            "Resources/G57_FX/FX_Texture/t_eleceiceline/t_eleceiceline_00",
            "cc.SpriteFrame",
            1
        ],
        "22qavUJbVCF6AjSBVDtGDz": [
            "Resources/G57_FX/FX_Texture/t_eleceiceline/t_eleceiceline_01",
            "cc.SpriteFrame",
            1
        ],
        "65kjPKlRtGHLYRWu0GBaPH": [
            "Resources/G57_FX/FX_Texture/t_eleceiceline/t_eleceiceline_02",
            "cc.SpriteFrame",
            1
        ],
        "ddoFONJQhJoow1c+ZGH2Pe": [
            "Resources/G57_FX/FX_Texture/t_eleceiceline/t_eleceiceline_03",
            "cc.SpriteFrame",
            1
        ],
        "03epfEtrNJy4bv68jvvyOl": [
            "Resources/G57_FX/FX_Texture/t_eleceiceline/t_eleceiceline_04",
            "cc.SpriteFrame",
            1
        ],
        "0fSdR4kwVM+q0sojP7Xkvd": [
            "Resources/G57_FX/FX_Texture/t_eleceiceline/t_eleceiceline_05",
            "cc.SpriteFrame",
            1
        ],
        "c4SXNIKB1KwJWjdHSjWVWX": [
            "Resources/G57_FX/FX_Texture/t_eleceiceline/t_eleceiceline_06",
            "cc.SpriteFrame",
            1
        ],
        "ba9idBiItBT4C/5sC2BPIt": [
            "Resources/G57_FX/FX_Texture/t_eleceiceline/t_eleceiceline_07",
            "cc.SpriteFrame",
            1
        ],
        "4f7HhP5y5IEZe5NH926wyo": [
            "Resources/G57_FX/FX_Texture/t_eleceiceline/t_eleceiceline_08",
            "cc.SpriteFrame",
            1
        ],
        "09ziPkaSFBWY4ZY5zjwu9f": [
            "Resources/G57_FX/FX_Texture/t_eleceiceline/t_eleceiceline_09",
            "cc.SpriteFrame",
            1
        ],
        "9aivFGyiRBH7wuAwkOSLMJ": [
            "Resources/G57_FX/FX_Texture/t_eleceiceline/t_eleceiceline_10",
            "cc.SpriteFrame",
            1
        ],
        "2bOFmd45tCK5uBc3iuejya": [
            "Resources/G57_FX/FX_Texture/t_eleceiceline/t_eleceiceline_11",
            "cc.SpriteFrame",
            1
        ],
        "f4eerT6+xHT4SzV159otXH": [
            "Resources/G57_FX/FX_Texture/t_eleceiceline/t_eleceiceline_12",
            "cc.SpriteFrame",
            1
        ],
        "bcYifuys1F/pyjOLxL0KYH": [
            "Resources/G57_FX/FX_Texture/t_eleceiceline/t_eleceiceline_13",
            "cc.SpriteFrame",
            1
        ],
        "47nfuv1eRL1rlJp6wv07ox": [
            "Resources/G57_FX/FX_Texture/t_eleceiceline/t_eleceiceline_14",
            "cc.SpriteFrame",
            1
        ],
        "0aJ6aUhMVDH7xqKKGMYhZ+": [
            "Resources/G57_FX/FX_Texture/t_eleceiceline/t_eleceiceline_15",
            "cc.SpriteFrame",
            1
        ],
        "b5jnTbZtBJJIrfIJq5SsPF": [
            "Resources/G57_FX/FX_Texture/t_fg_01",
            "cc.SpriteFrame",
            1
        ],
        "aaiDplHlBJAoKjANLAYL6o": [
            "Resources/G57_FX/FX_Texture/t_fg_02",
            "cc.SpriteFrame",
            1
        ],
        "a6MHacOMdGMZn2jZJuFPMO": [
            "Resources/G57_FX/FX_Texture/t_li_53",
            "cc.SpriteFrame",
            1
        ],
        "7fVqBh1h5AuYO/bHUJhryi": [
            "Resources/G57_FX/FX_Texture/t_light_01",
            "cc.Texture2D"
        ],
        "dblDRvz5JCors2AoEEm420": [
            "Resources/G57_FX/FX_Texture/t_light_01",
            "cc.SpriteFrame",
            1
        ],
        "9cp2llqOJJsoE5kbyq0arS": [
            "Resources/G57_FX/FX_Texture/t_light_02",
            "cc.Texture2D"
        ],
        "fdLvJ1ZuZHSY3ukrfUo3wx": [
            "Resources/G57_FX/FX_Texture/t_light_02",
            "cc.SpriteFrame",
            1
        ],
        "58qH2ksjhDJYdGqU+KbcZZ": [
            "Resources/G57_FX/FX_Texture/t_light_03",
            "cc.SpriteFrame",
            1
        ],
        "a9MX2tF8NBKbtEbfzXkzQT": [
            "Resources/G57_FX/FX_Texture/t_line_light_01",
            "cc.SpriteFrame",
            1
        ],
        "76i3Y2K79O2JvMU6hfHkD2": [
            "Resources/G57_FX/FX_Texture/t_linelight_01",
            "cc.SpriteFrame",
            1
        ],
        "ccLr6/cxtEx6vCwyyBXNKl": [
            "Resources/G57_FX/FX_Texture/t_linelight_01",
            "cc.Texture2D"
        ],
        "aaDl0cQ2JKJ7ewb0SdgB4y": [
            "Resources/G57_FX/FX_Texture/t_logo_word",
            "cc.SpriteFrame",
            1
        ],
        "3fAA7ayhNJ/r56B/kwL9YR": [
            "Resources/G57_FX/FX_Texture/t_mg_01",
            "cc.SpriteFrame",
            1
        ],
        "00hTTPxxhPEogWnTWuua0e": [
            "Resources/G57_FX/FX_Texture/t_mg_02",
            "cc.SpriteFrame",
            1
        ],
        "42xKzxOPJP5ZYS7P4L0Tqq": [
            "Resources/G57_FX/FX_Texture/t_mg_light",
            "cc.SpriteFrame",
            1
        ],
        "1eW8HAE1lMd5ZEiVSqlhnz": [
            "Resources/G57_FX/FX_Texture/t_music_01",
            "cc.Texture2D"
        ],
        "e0pZ/zKR1Iro+Cm2VZx7/p": [
            "Resources/G57_FX/FX_Texture/t_music_01",
            "cc.SpriteFrame",
            1
        ],
        "45vOcdVzREopXBjPxX5YbH": [
            "Resources/G57_FX/FX_Texture/t_o_01",
            "cc.Texture2D"
        ],
        "eevv3kAlRFzby3PQNzMzP8": [
            "Resources/G57_FX/FX_Texture/t_o_01",
            "cc.SpriteFrame",
            1
        ],
        "c7BCOcYWdCL51zc1OpbC7D": [
            "Resources/G57_FX/FX_Texture/t_o_02",
            "cc.SpriteFrame",
            1
        ],
        "137JLOmmxAw4vNbsdtFWPf": [
            "Resources/G57_FX/FX_Texture/t_o_03",
            "cc.SpriteFrame",
            1
        ],
        "8evGhPgF9IxZQpex3qN5ad": [
            "Resources/G57_FX/FX_Texture/t_o_04",
            "cc.SpriteFrame",
            1
        ],
        "8bK+XWPFNL46Ch2G4WEgf/": [
            "Resources/G57_FX/FX_Texture/t_o_05",
            "cc.Texture2D"
        ],
        "aa32iT7PZDuqh5bWPCP1HU": [
            "Resources/G57_FX/FX_Texture/t_o_05",
            "cc.SpriteFrame",
            1
        ],
        "7ffj0dC8hBiq9tYyOcdvJ4": [
            "Resources/G57_FX/FX_Texture/t_o_06",
            "cc.Texture2D"
        ],
        "c3c/djp01LNKwa8kRjq1OI": [
            "Resources/G57_FX/FX_Texture/t_o_06",
            "cc.SpriteFrame",
            1
        ],
        "4aR7gwBgNAbJ1Qs5MSywXG": [
            "Resources/G57_FX/FX_Texture/t_o_07",
            "cc.SpriteFrame",
            1
        ],
        "18QptTYEVEL7ZCdmskBZ+N": [
            "Resources/G57_FX/FX_Texture/t_o_09",
            "cc.SpriteFrame",
            1
        ],
        "3bmJYAvjhNSYbmExqhEVlK": [
            "Resources/G57_FX/FX_Texture/t_o_09",
            "cc.Texture2D"
        ],
        "bb/0taSTlBZpLbro8+3QZY": [
            "Resources/G57_FX/FX_Texture/t_obj_01",
            "cc.SpriteFrame",
            1
        ],
        "ba8Vjv8qxEZbz7BfeJ9Ft3": [
            "Resources/G57_FX/FX_Texture/t_smoke_01",
            "cc.SpriteFrame",
            1
        ],
        "bf4Bj295lGRqx+szG3Yp66": [
            "Resources/G57_FX/FX_Texture/t_smoke_01",
            "cc.Texture2D"
        ],
        "4a6eEGualMZaUUt+uEuGln": [
            "Resources/G57_FX/FX_Texture/t_sn_225",
            "cc.Texture2D"
        ],
        "66BnbrwYhD9IT1YYYcXtMS": [
            "Resources/G57_FX/FX_Texture/t_sn_225",
            "cc.SpriteFrame",
            1
        ],
        "97W7nGNVdEyZBLnLEmq19E": [
            "Resources/G57_FX/FX_Texture/t_spotlight_01",
            "cc.Texture2D"
        ],
        "d1G+PuHNhNw5+Dr0gcRBDD": [
            "Resources/G57_FX/FX_Texture/t_spotlight_01",
            "cc.SpriteFrame",
            1
        ],
        "f9TBkCa1lDsriLK6ju8JvM": [
            "Resources/G57_FX/FX_Texture/t_spotlight_02",
            "cc.SpriteFrame",
            1
        ],
        "8cY/iK0zdB/q4R4TTvw41E": [
            "Resources/G57_FX/FX_Texture/t_star_02",
            "cc.SpriteFrame",
            1
        ],
        "benhwCq1ZEPqUoS3ID9R+/": [
            "Resources/G57_FX/FX_Texture/t_star_02",
            "cc.Texture2D"
        ],
        "51/IBIXUFDR7WDXOt93gvh": [
            "Resources/G57_FX/FX_Texture/t_ui_01",
            "cc.SpriteFrame",
            1
        ],
        "c5lzfAU4tAr6MzfxHmzFNw": [
            "Resources/G57_FX/FX_Texture/t_ui_01",
            "cc.Texture2D"
        ],
        "b1xHFxuhhLu6wdeI1i5gqo": [
            "Resources/G57_FX/FX_Texture/t_ui_02",
            "cc.SpriteFrame",
            1
        ],
        "06/Isl+fNHC5Z/LucGEoCy": [
            "Resources/G57_FX/FX_Texture/t_ui_02_h",
            "cc.SpriteFrame",
            1
        ],
        "31N8QbiSRDnZj/vBPmPZs5": [
            "Resources/G57_FX/FX_Texture/t_ui_03_01",
            "cc.SpriteFrame",
            1
        ],
        "04lCjxwj1Ob4N3uBFWKsAn": [
            "Resources/G57_FX/FX_Texture/t_ui_03_02",
            "cc.SpriteFrame",
            1
        ],
        "8bIFE/1RJOJIkNeAlqLis9": [
            "Resources/G57_FX/FX_Texture/t_ui_04",
            "cc.SpriteFrame",
            1
        ],
        "468ZiGRo5KOanoj4dtT5Lg": [
            "Resources/G57_FX/FX_Texture/t_ui_04_h",
            "cc.SpriteFrame",
            1
        ],
        "56YnNHoHpN5LHcqqpSArHo": [
            "Resources/G57_FX/FX_Texture/t_ui_05",
            "cc.SpriteFrame",
            1
        ],
        "a56q98Z3pEIJP6t1jMi+f0": [
            "Resources/G57_FX/FX_Texture/t_ui_06",
            "cc.SpriteFrame",
            1
        ],
        "49g4txqv5IoY6Z4c8z4P7P": [
            "Resources/G57_FX/FX_Texture/t_ui_07",
            "cc.Texture2D"
        ],
        "b7PYdrVlxO0pgIsZWAxFij": [
            "Resources/G57_FX/FX_Texture/t_ui_07",
            "cc.SpriteFrame",
            1
        ],
        "43a9QDSZRJhb7IWWruChBz": [
            "Resources/G57_FX/FX_Texture/t_ui_08",
            "cc.SpriteFrame",
            1
        ],
        "d3C82lpVlKWrQPGPDds5hx": [
            "Resources/G57_FX/FX_Texture/t_ui_09",
            "cc.Texture2D"
        ],
        "eb74cwjB9EP5Qa43EuVwl4": [
            "Resources/G57_FX/FX_Texture/t_ui_09",
            "cc.SpriteFrame",
            1
        ],
        "6ffbFsql1Lq5qZc+DWSEfP": [
            "Resources/G57_FX/FX_Texture/t_ui_glow_01",
            "cc.SpriteFrame",
            1
        ],
        "07N2XJww5BAoM+fQWnsMQv": [
            "Resources/G57_FX/FX_Texture/t_wave_01",
            "cc.SpriteFrame",
            1
        ],
        "a3cgHZ/gBAlLNIo582kqsC": [
            "Resources/G57_FX/FX_Texture/t_wave_01",
            "cc.Texture2D"
        ],
        "a8l9MPD8NJCpYOXhAaNNdB": [
            "Resources/G57_FX/FX_Texture/t_x",
            "cc.SpriteFrame",
            1
        ],
        "5cr23GD89F9IkO2qcEhACz": [
            "Resources/G57_FX/other/t_bg_end_h",
            "cc.Texture2D"
        ],
        "d0bOFM7ARMuqARYf/a9raM": [
            "Resources/G57_FX/other/t_bg_end_h",
            "cc.SpriteFrame",
            1
        ],
        "22n3XqnDVBCLeehsNCICyd": [
            "Resources/G57_FX/other/t_bg_end_v",
            "cc.SpriteFrame",
            1
        ],
        "3bk8BrVCdNlKOIv1lIXE30": [
            "Resources/G57_FX/other/t_bg_end_v",
            "cc.Texture2D"
        ],
        "cbG79A++lBw7o1Awo0wZB1": [
            "Resources/G57_FX/other/t_bg_loading_h",
            "cc.Texture2D"
        ],
        "ccUmhRYHJJGYZPLoZlbbUl": [
            "Resources/G57_FX/other/t_bg_loading_h",
            "cc.SpriteFrame",
            1
        ],
        "23kw5UyIBJPIKIjXjlz9pX": [
            "Resources/G57_FX/other/t_bg_loading_v",
            "cc.Texture2D"
        ],
        "6fLtJqk4xPEYZTlOFie/0h": [
            "Resources/G57_FX/other/t_bg_loading_v",
            "cc.SpriteFrame",
            1
        ],
        "27QLgeRxRDxpfYvWlC/R/F": [
            "Resources/G57_FX/other/t_line_01",
            "cc.SpriteFrame",
            1
        ],
        "909l+G+91OCqJ3T9324fR1": [
            "Resources/G57_FX/other/t_line_01",
            "cc.Texture2D"
        ],
        "56vTkPV5hI3oJdy0L501fZ": [
            "Resources/G57_FX/other/t_logo_01",
            "cc.Texture2D"
        ],
        "631IrSvV1BVJ5+wyKSgWwi": [
            "Resources/G57_FX/other/t_logo_01",
            "cc.SpriteFrame",
            1
        ],
        "0a2Jr3+pRIB4U2zuRgeMag": [
            "Resources/Image/AutoAtlas",
            "cc.SpriteAtlas"
        ],
        "a7CrOUTBhCQKc3OGjztnWS": [
            "Resources/Image/G57_mg_btn_17",
            "cc.SpriteFrame",
            1
        ],
        "5bt+y11FdJxI1IwMuA9GXD": [
            "Resources/Image/G57_mg_btn_17_1",
            "cc.SpriteFrame",
            1
        ],
        "21t9+0iX9BWYRbK4Vba7Xb": [
            "Resources/Image/G57_mg_btn_18",
            "cc.SpriteFrame",
            1
        ],
        "56Rn9IEEtJtr6z2VziNR8t": [
            "Resources/Image/G57_mg_btn_19",
            "cc.SpriteFrame",
            1
        ],
        "b8uFrwCThGELag5KTra4sc": [
            "Resources/Image/G57_mg_btn_20",
            "cc.SpriteFrame",
            1
        ],
        "bdrHTY81dAh6Y5LmaJvT4e": [
            "Resources/Image/G57_mg_btn_21",
            "cc.SpriteFrame",
            1
        ],
        "11Wcc8XU5BcLIClpS/j7T0": [
            "Resources/Image/G57_mg_btn_22",
            "cc.SpriteFrame",
            1
        ],
        "b4BK1nZqZJAqDAosMMnPdG": [
            "Resources/Image/G57_mg_btn_23",
            "cc.SpriteFrame",
            1
        ],
        "58HVNLlVNHjYqrYwTA1z9x": [
            "Resources/Image/G57_mg_btn_24",
            "cc.SpriteFrame",
            1
        ],
        "15wgT6OmxDE6DNbNS24ZBw": [
            "Resources/Image/G57_mg_btn_25",
            "cc.SpriteFrame",
            1
        ],
        "3dAyRxGJJIEJkQ1Hp8oiQg": [
            "Resources/Image/G57_mg_btn_26",
            "cc.SpriteFrame",
            1
        ],
        "55K/+7CvNPvpd1NY3ZKm3P": [
            "Resources/Image/G57_mg_img_1",
            "cc.SpriteFrame",
            1
        ],
        "e8rcrM8ZhBMKA7z4N8GXn1": [
            "Resources/Image/H1",
            "cc.SpriteFrame",
            1
        ],
        "8dQWkJjEhD0Ke2As4RMi0H": [
            "Resources/Image/H2",
            "cc.SpriteFrame",
            1
        ],
        "8dHCNicl1HS50YYz5MdyN8": [
            "Resources/Image/H3_",
            "cc.SpriteFrame",
            1
        ],
        "06acO+LshLj5aQk6R+IOIM": [
            "Resources/Image/H4",
            "cc.SpriteFrame",
            1
        ],
        "9ck2S6nKZIV7x92O0vPRtq": [
            "Resources/Image/N1",
            "cc.SpriteFrame",
            1
        ],
        "1csVnjN1BGyY8fe0ElgJSM": [
            "Resources/Image/N2",
            "cc.SpriteFrame",
            1
        ],
        "dcyE3NPqVK5JaGKcE2n0nu": [
            "Resources/Image/N3",
            "cc.SpriteFrame",
            1
        ],
        "38ALVRtdlIublFNbFCtSNd": [
            "Resources/Image/N4",
            "cc.SpriteFrame",
            1
        ],
        "c0yWp1fwdPlZpyZszIpOc3": [
            "Resources/Image/Rule/AutoAtlas",
            "cc.SpriteAtlas"
        ],
        "1cDjBAd7tIaq4USfWVT8Ki": [
            "Resources/Image/Rule/g57_ru_btn_01",
            "cc.SpriteFrame",
            1
        ],
        "76yJv8/r1DH6S9wYv+f/WP": [
            "Resources/Image/Rule/g57_ru_img_01",
            "cc.SpriteFrame",
            1
        ],
        "187AboFK5Lq7m9BfKx+vBt": [
            "Resources/Image/Rule/g57_ru_img_02",
            "cc.SpriteFrame",
            1
        ],
        "02Hn8O80hLypq9CvoLxK1u": [
            "Resources/Image/Rule/g57_ru_img_03",
            "cc.SpriteFrame",
            1
        ],
        "cbWcldG+9D5ZNG30mRTT1I": [
            "Resources/Image/Rule/g57_ru_img_04",
            "cc.SpriteFrame",
            1
        ],
        "88V/SYispIYKkjcIL9xxra": [
            "Resources/Image/Rule/g57_ru_img_05",
            "cc.SpriteFrame",
            1
        ],
        "a6jJn3VWRF8pGOFWKWRihe": [
            "Resources/Image/Rule/g57_ru_word_01",
            "cc.SpriteFrame",
            1
        ],
        "7ef4oCZeVIWKlcqXwDEpZZ": [
            "Resources/Image/Rule/g57_ru_word_02",
            "cc.SpriteFrame",
            1
        ],
        "43+i/BOmFMB5oglK/Vs//z": [
            "Resources/Image/Rule/g57_ru_word_03",
            "cc.SpriteFrame",
            1
        ],
        "b8yjY8A3JPhIDP046STyZn": [
            "Resources/Image/Rule/g57_ru_word_04",
            "cc.SpriteFrame",
            1
        ],
        "145EdLJQVDYYRk4UuYO6gp": [
            "Resources/Image/Rule/g57_ru_word_05",
            "cc.SpriteFrame",
            1
        ],
        "c1cT6BaQNNjYUcawuLk+6w": [
            "Resources/Image/Rule/g57_ru_word_06",
            "cc.SpriteFrame",
            1
        ],
        "90Ob5szTZDLJfrzpqzIFhX": [
            "Resources/Image/Rule/g57_ru_word_07_H",
            "cc.SpriteFrame",
            1
        ],
        "a7Xku+dutEw7fm9CrVPtVS": [
            "Resources/Image/Rule/g57_ru_word_07_V",
            "cc.SpriteFrame",
            1
        ],
        "e0JFvLEc1GLZj9cRB03sxE": [
            "Resources/Image/Rule/g57_ru_word_08",
            "cc.SpriteFrame",
            1
        ],
        "43cd+yyapKkKsYKnkLjicl": [
            "Resources/Image/WILD",
            "cc.SpriteFrame",
            1
        ],
        "e5f24E23RLaIGd/84jZEcP": [
            "Resources/Image/White",
            "cc.SpriteFrame",
            1
        ],
        "28UngrW+VIwJj4Hc2xXgeK": [
            "Resources/Image/behind_table",
            "cc.SpriteFrame",
            1
        ],
        "12nM/pAUZGUrjAEQDbGi0X": [
            "Resources/Image/btn_10",
            "cc.SpriteFrame",
            1
        ],
        "2fH5j1iHdBB4RlsuRFuUpv": [
            "Resources/Image/btn_14",
            "cc.SpriteFrame",
            1
        ],
        "aeHf7L3JlIR7iTDD86dgBG": [
            "Resources/Image/btn_15",
            "cc.SpriteFrame",
            1
        ],
        "30FVSkIIRCdIDxaqDzEUSr": [
            "Resources/Image/btn_19",
            "cc.SpriteFrame",
            1
        ],
        "8e3yqyMj9NxYmzjvhAPCT7": [
            "Resources/Image/btn_20",
            "cc.SpriteFrame",
            1
        ],
        "40AjMCCr9IboPgSMARofi8": [
            "Resources/Image/btn_21",
            "cc.SpriteFrame",
            1
        ],
        "16LInpeyJEKZPyHggD6Lur": [
            "Resources/Image/btn_22",
            "cc.SpriteFrame",
            1
        ],
        "91Wbalc3dIVoV4LjtbJkmV": [
            "Resources/Image/btn_9",
            "cc.SpriteFrame",
            1
        ],
        "21eHOQAlRAnq9P3axByXOG": [
            "Resources/Image/g0_fm_img_13",
            "cc.SpriteFrame",
            1
        ],
        "a4mN7kVI5FG7abmixD1sTG": [
            "Resources/Image/g57_com_btn_01",
            "cc.SpriteFrame",
            1
        ],
        "543DM0rBlIOaA4e4b86OI2": [
            "Resources/Image/g57_com_btn_02",
            "cc.SpriteFrame",
            1
        ],
        "85PVil2LxFY4AWEsi+xVQb": [
            "Resources/Image/g57_com_img_01",
            "cc.SpriteFrame",
            1
        ],
        "86DyvczZdMyKUHTji0HUB0": [
            "Resources/Image/g57_com_pl_01",
            "cc.SpriteFrame",
            1
        ],
        "a9OmQvHpZM4YfZ8Szt2AvL": [
            "Resources/Image/g57_com_word_01",
            "cc.SpriteFrame",
            1
        ],
        "edxgu+3MlGuJ/714vDLNzy": [
            "Resources/Image/g57_fg_pl_01",
            "cc.SpriteFrame",
            1
        ],
        "2ctj0p9eNHVL7prA7wZKS6": [
            "Resources/Image/g57_fg_pl_03",
            "cc.SpriteFrame",
            1
        ],
        "c3kAeHKrhHuomnFtYeIcGH": [
            "Resources/Image/g57_fg_pl_04",
            "cc.SpriteFrame",
            1
        ],
        "1fgtQrtNxDmYc86a8gg3d2": [
            "Resources/Image/g57_fg_pl_05",
            "cc.SpriteFrame",
            1
        ],
        "6cuh/sfedAvYiIYbkWVLZF": [
            "Resources/Image/g57_fg_pl_06",
            "cc.SpriteFrame",
            1
        ],
        "b56ZfglIlLiK5rIZpEkjUD": [
            "Resources/Image/g57_fg_word_01",
            "cc.SpriteFrame",
            1
        ],
        "79/w3QtJtGx46SASmaMfoU": [
            "Resources/Image/g57_fg_word_02",
            "cc.SpriteFrame",
            1
        ],
        "bcedGZdEtGMKdVDiPgsD4/": [
            "Resources/Image/g57_fg_word_03",
            "cc.SpriteFrame",
            1
        ],
        "58HU8TrJBDBb9IXceU/q0R": [
            "Resources/Image/g57_fg_word_04",
            "cc.SpriteFrame",
            1
        ],
        "2cr72kUeVLkbQM+NE//9yX": [
            "Resources/Image/g57_fg_word_05",
            "cc.SpriteFrame",
            1
        ],
        "9b6OQb+0JEu5fVGR+udP/5": [
            "Resources/Image/g57_ld_img_01",
            "cc.SpriteFrame",
            1
        ],
        "adV1r7rxdPqbUb6ZKW341n": [
            "Resources/Image/g57_ld_img_02",
            "cc.SpriteFrame",
            1
        ],
        "57ULpq+FpD+rlewnfNM/i5": [
            "Resources/Image/g57_maq_word_01",
            "cc.SpriteFrame",
            1
        ],
        "05rvuIS2pPT679T2kh7crR": [
            "Resources/Image/g57_maq_word_02",
            "cc.SpriteFrame",
            1
        ],
        "b9m+kNvuZLpJ5Hs4GwY+kw": [
            "Resources/Image/g57_maq_word_03",
            "cc.SpriteFrame",
            1
        ],
        "dal0lR8EFOxbw+TRNBE7Dx": [
            "Resources/Image/g57_maq_word_04",
            "cc.SpriteFrame",
            1
        ],
        "ebbqNguExE9Kh/VBDojTLW": [
            "Resources/Image/g57_maq_word_05",
            "cc.SpriteFrame",
            1
        ],
        "6f0SwLNdpHjaB3soNzluMV": [
            "Resources/Image/g57_mg_btn_01",
            "cc.SpriteFrame",
            1
        ],
        "30iSu2STJCYLwH41HZizlF": [
            "Resources/Image/g57_mg_btn_02",
            "cc.SpriteFrame",
            1
        ],
        "74YBxHRZJKTKWkxG1z+Ci7": [
            "Resources/Image/g57_mg_btn_03_off",
            "cc.SpriteFrame",
            1
        ],
        "894s7sRuVE3JdsPkE0vc0y": [
            "Resources/Image/g57_mg_btn_03_on",
            "cc.SpriteFrame",
            1
        ],
        "16PVHoJ9JIo6X1yfubWhtS": [
            "Resources/Image/g57_mg_btn_04_off",
            "cc.SpriteFrame",
            1
        ],
        "c8gD1M6KhIdbGeoZnFtv5M": [
            "Resources/Image/g57_mg_btn_04_on",
            "cc.SpriteFrame",
            1
        ],
        "abFVghBMVMsp5TBfwSWTKs": [
            "Resources/Image/g57_mg_btn_05",
            "cc.SpriteFrame",
            1
        ],
        "c7p/g4MLxDQJ6MQCShwf5G": [
            "Resources/Image/g57_mg_btn_06",
            "cc.SpriteFrame",
            1
        ],
        "7bAhIWbTpD66d+hzZqrbGS": [
            "Resources/Image/g57_mg_btn_07",
            "cc.SpriteFrame",
            1
        ],
        "88LK/cDdlOy6gz9r8gyoFB": [
            "Resources/Image/g57_mg_btn_08",
            "cc.SpriteFrame",
            1
        ],
        "b6cwkBcRlA05vk5L3okU7e": [
            "Resources/Image/g57_mg_btn_09",
            "cc.SpriteFrame",
            1
        ],
        "b9eeuVhkRJ0576MIfiSbS8": [
            "Resources/Image/g57_mg_btn_11_arrow",
            "cc.SpriteFrame",
            1
        ],
        "9fJAlKr6dAZahwElO1RQWE": [
            "Resources/Image/g57_mg_btn_11_auto",
            "cc.SpriteFrame",
            1
        ],
        "11AaTB3T9Kdb+wiyw+vIwA": [
            "Resources/Image/g57_mg_btn_12_off",
            "cc.SpriteFrame",
            1
        ],
        "2b92vH3HhKrZLlOpXktNhI": [
            "Resources/Image/g57_mg_btn_12_on",
            "cc.SpriteFrame",
            1
        ],
        "2cp1BbycBNrqYrnu9ESrZb": [
            "Resources/Image/g57_mg_btn_13",
            "cc.SpriteFrame",
            1
        ],
        "f3w8BXuttNQIyTXyJ+R+a8": [
            "Resources/Image/g57_mg_btn_14_arrow",
            "cc.SpriteFrame",
            1
        ],
        "26WSBLozBOzpTFIrKEOL1t": [
            "Resources/Image/g57_mg_btn_14_auto",
            "cc.SpriteFrame",
            1
        ],
        "36phFYL8pAFrHrXs+NlY6i": [
            "Resources/Image/g57_mg_btn_14_base",
            "cc.SpriteFrame",
            1
        ],
        "f0AXzpHqxM1bBDXfADUYy9": [
            "Resources/Image/g57_mg_btn_15_off",
            "cc.SpriteFrame",
            1
        ],
        "e2gHxAhkZAo7mer55Nm243": [
            "Resources/Image/g57_mg_btn_15_on",
            "cc.SpriteFrame",
            1
        ],
        "8eTJUEw0BECIFTeiPgfkmU": [
            "Resources/Image/g57_mg_btn_16",
            "cc.SpriteFrame",
            1
        ],
        "46hI5nwrFNfYj1wZakntUc": [
            "Resources/Image/g57_mg_pl_01",
            "cc.SpriteFrame",
            1
        ],
        "cceckwKVVGe4/rc++5IxGZ": [
            "Resources/Image/g57_mg_pl_03",
            "cc.SpriteFrame",
            1
        ],
        "20WT9XC4NKu5YGDjJQhy0W": [
            "Resources/Image/g57_mg_pl_04",
            "cc.SpriteFrame",
            1
        ],
        "10nvHsQJtCJK4TNL8P7LKc": [
            "Resources/Image/g57_mg_pl_05",
            "cc.SpriteFrame",
            1
        ],
        "d6DylX3GFCuYohVdDjKCqG": [
            "Resources/Image/g57_mg_pl_06",
            "cc.SpriteFrame",
            1
        ],
        "bbF3wwn4dOVrRMgSCKMWdo": [
            "Resources/Image/g57_mg_pl_07",
            "cc.SpriteFrame",
            1
        ],
        "9cUKkkPfVMkaOB5ScrbkCz": [
            "Resources/Image/g57_mg_word_01",
            "cc.SpriteFrame",
            1
        ],
        "22my74GpRO14qJR9EG1Ah0": [
            "Resources/Image/g57_mg_word_02",
            "cc.SpriteFrame",
            1
        ],
        "deqb2qoMVJLrtIOjO57i3Y": [
            "Resources/Image/g57_mg_word_03",
            "cc.SpriteFrame",
            1
        ],
        "390R+BWxZFjpVVUfhap2sm": [
            "Resources/Image/g6_com_word_2",
            "cc.SpriteFrame",
            1
        ],
        "13M4ubGaJGqIyOflXxDNO8": [
            "Resources/Image/g76_ts_img_1",
            "cc.SpriteFrame",
            1
        ],
        "08AJFqZcpAcJ9kPk6c6IdM": [
            "Resources/Image/g76_ts_img_2",
            "cc.SpriteFrame",
            1
        ],
        "59fTIqdjtEULYOCDur8KhB": [
            "Resources/Image/g9_mg_btn_20",
            "cc.SpriteFrame",
            1
        ],
        "7bRwx55vFLAbp681IuKVLa": [
            "Resources/Image/img_10",
            "cc.SpriteFrame",
            1
        ],
        "9bvZFDu2xCEbYXOJgPaaVi": [
            "Resources/Image/img_11",
            "cc.SpriteFrame",
            1
        ],
        "6aWz2+XGxFObB16lcNtDnU": [
            "Resources/Image/img_2",
            "cc.SpriteFrame",
            1
        ],
        "eb9bAslmdHSL965NMRIMys": [
            "Resources/Image/img_3",
            "cc.SpriteFrame",
            1
        ],
        "3aJexRyXpJA4f/eUfURX58": [
            "Resources/Image/img_4",
            "cc.SpriteFrame",
            1
        ],
        "d2Yqa71XtJ1qX+6n87BqtA": [
            "Resources/Image/img_5",
            "cc.SpriteFrame",
            1
        ],
        "8a7eQYRPtLYqvzTrn+7PGF": [
            "Resources/Image/img_7",
            "cc.SpriteFrame",
            1
        ],
        "e8n157XhNFmrc3wq7584Uz": [
            "Resources/Image/img_8",
            "cc.SpriteFrame",
            1
        ],
        "cacr198eJJcIcYgBH3Jq4h": [
            "Resources/Image/img_9",
            "cc.SpriteFrame",
            1
        ],
        "6b8A//3PFM9YrAQfj1/NgL": [
            "Resources/Image/scatter",
            "cc.SpriteFrame",
            1
        ],
        "26eLqAJu1JG4+WC5KuKEas": [
            "Resources/Localize/zh-cn/image/README",
            "cc.TextAsset"
        ],
        "26AbzPYlVHzrq4riukqk26": [
            "Resources/Localize/zh-tw/image/README",
            "cc.TextAsset"
        ],
        "e9V270DXZFeZx2kcms2SyA": [
            "Resources/music/G57_bgm_coindrop_4win",
            "cc.AudioClip"
        ],
        "21LzKOmGpEErN+OFGjwhV5": [
            "Resources/music/G57_bgm_coindrop_end",
            "cc.AudioClip"
        ],
        "df5aeGLj5L/o7J1GTObt40": [
            "Resources/music/G57_bgm_coindrop_win",
            "cc.AudioClip"
        ],
        "95D9wvXt1A3pvYhLUvdazV": [
            "Resources/music/G57_bgm_freegame",
            "cc.AudioClip"
        ],
        "3f09h1TslDZ6ViY7qTiFIR": [
            "Resources/music/G57_bgm_freegame_page",
            "cc.AudioClip"
        ],
        "a9zByqDtRKp7muGf/1xSRj": [
            "Resources/music/G57_bgm_main",
            "cc.AudioClip"
        ],
        "c40Xa8ZfxAjZ/vgTKur6VR": [
            "Resources/prefab/DialogBox/Confirm System Msg DialogBox",
            "cc.Prefab"
        ],
        "7flPorl25Ph7qR0B59CCzu": [
            "Resources/prefab/DialogBox/Connect Waiting DialogBox",
            "cc.Prefab"
        ],
        "7e8F/MFBNEvL4F+JetjHZs": [
            "Resources/prefab/DialogBox/YN System Msg DialogBox",
            "cc.Prefab"
        ],
        "37k+v/wrtMyLMxU83qKjlV": [
            "Resources/sound/G57_ef_boom_coins",
            "cc.AudioClip"
        ],
        "98Z+3eVVZK0L36JhbGLMH8": [
            "Resources/sound/G57_ef_card_matching",
            "cc.AudioClip"
        ],
        "75BcIflJ5BxosPliqjkHxL": [
            "Resources/sound/G57_ef_card_matching_02",
            "cc.AudioClip"
        ],
        "55fP6yjShOgZQU3DSKaxjV": [
            "Resources/sound/G57_ef_click",
            "cc.AudioClip"
        ],
        "d11smL0alHR6k1vXGOna03": [
            "Resources/sound/G57_ef_click_end",
            "cc.AudioClip"
        ],
        "9cpSDmFgFIlLzgom+92nyL": [
            "Resources/sound/G57_ef_coindrop_boom_big",
            "cc.AudioClip"
        ],
        "44MkbuOr5MdYV7gry2vPGm": [
            "Resources/sound/G57_ef_coindrop_boom_mega",
            "cc.AudioClip"
        ],
        "50YcDyjx9EBpFD/j3iOB3i": [
            "Resources/sound/G57_ef_coindrop_boom_super",
            "cc.AudioClip"
        ],
        "45FnJT/HhCP4gsv+AbYSXJ": [
            "Resources/sound/G57_ef_coindrop_loop",
            "cc.AudioClip"
        ],
        "18g2BHAT9AibyVwqe33bvo": [
            "Resources/sound/G57_ef_coindrop_score_loop",
            "cc.AudioClip"
        ],
        "32HBqGf99NuY5qYp3G9BSR": [
            "Resources/sound/G57_ef_coindrop_win",
            "cc.AudioClip"
        ],
        "09MGiUdu1COr+LzQe6Xs7C": [
            "Resources/sound/G57_ef_countdown",
            "cc.AudioClip"
        ],
        "aaYCD/JtZApqxV8QINxgD4": [
            "Resources/sound/G57_ef_fg_multiples",
            "cc.AudioClip"
        ],
        "92pUfyEKhBj7Jc28+pc4Wg": [
            "Resources/sound/G57_ef_fg_page_laser_04",
            "cc.AudioClip"
        ],
        "14uBS/qlhH26BCMic4sU5C": [
            "Resources/sound/G57_ef_fg_page_select",
            "cc.AudioClip"
        ],
        "fc6lcVKOdKOY5sCh7/vKfC": [
            "Resources/sound/G57_ef_fg_page_turn",
            "cc.AudioClip"
        ],
        "8bbDwCDaNDTZcbNc/Z3CFS": [
            "Resources/sound/G57_ef_free_match",
            "cc.AudioClip"
        ],
        "aadiexPOdMBaK+DcUqJvkc": [
            "Resources/sound/G57_ef_free_match_01",
            "cc.AudioClip"
        ],
        "92z11DlERLqK2JyAviAx8a": [
            "Resources/sound/G57_ef_got_free_game",
            "cc.AudioClip"
        ],
        "07tWHPi9xCVIB7o6pG7PbR": [
            "Resources/sound/G57_ef_got_free_game_01",
            "cc.AudioClip"
        ],
        "dbsdZF1R5HFJTphEYey24O": [
            "Resources/sound/G57_ef_got_free_game_cheers",
            "cc.AudioClip"
        ],
        "efzh/O6PtCgZNaPRzU80I2": [
            "Resources/sound/G57_ef_main_match",
            "cc.AudioClip"
        ],
        "51zqmQV/FBDZk1j/50qQ1i": [
            "Resources/sound/G57_ef_main_match_01",
            "cc.AudioClip"
        ],
        "97TzyzymNBHZa5jXvxb44k": [
            "Resources/sound/G57_ef_oneline",
            "cc.AudioClip"
        ],
        "d5cXz63yVKK4MuPKKd3PKY": [
            "Resources/sound/G57_ef_orb_fly",
            "cc.AudioClip"
        ],
        "3a1KxsOYZGVJfLT85NOfVW": [
            "Resources/sound/G57_ef_orb_land",
            "cc.AudioClip"
        ],
        "d3TQ0mp1dJbYDOruhodw3j": [
            "Resources/sound/G57_ef_reel_stop",
            "cc.AudioClip"
        ],
        "47BjVqgi9A3LQFBO8ZDbY9": [
            "Resources/sound/G57_ef_rolling",
            "cc.AudioClip"
        ],
        "2aEFysqOFOtp45jby9nj27": [
            "Resources/sound/G57_ef_scatter",
            "cc.AudioClip"
        ],
        "6eCMfZsZ1JBpo9mKXq19dJ": [
            "Resources/sound/G57_ef_score_jp",
            "cc.AudioClip"
        ],
        "c4mmQZK6JNQrcPd8ZEb5Jm": [
            "Resources/sound/G57_ef_spin_button_01",
            "cc.AudioClip"
        ],
        "8d0d6Pc3JNk7dfB1okJGmj": [
            "Resources/sound/G57_ef_wild",
            "cc.AudioClip"
        ]
    },
    "uuids": [
        "00hTTPxxhPEogWnTWuua0e",
        "01vQRhPrVOtIDJplk7VKMu",
        "02Hn8O80hLypq9CvoLxK1u",
        "03epfEtrNJy4bv68jvvyOl",
        "03ur2V7KhBPYZobSMwk2oy",
        "04lCjxwj1Ob4N3uBFWKsAn",
        "05ic8RLD9JMqm9p2wf3kBM",
        "05rvuIS2pPT679T2kh7crR",
        "06acO+LshLj5aQk6R+IOIM",
        "06/Isl+fNHC5Z/LucGEoCy",
        "07N2XJww5BAoM+fQWnsMQv",
        "07tWHPi9xCVIB7o6pG7PbR",
        "08AJFqZcpAcJ9kPk6c6IdM",
        "080sFVSmFBPZUP4tCG+5MI",
        "09MGiUdu1COr+LzQe6Xs7C",
        "09ziPkaSFBWY4ZY5zjwu9f",
        "0aJ6aUhMVDH7xqKKGMYhZ+",
        "0a2Jr3+pRIB4U2zuRgeMag",
        "0cF0OSRnhI9LwZ9SMl2ut9",
        "0dcjkpgUFG0KL1ICy4i9Bl",
        "0dr4LyFFZHmYO5yafBlrGH",
        "0fPsNkPqBJd6TgHxpvXjm/",
        "0fR4XDUZ9NO4ILjvxdDuD/",
        "0fSdR4kwVM+q0sojP7Xkvd",
        "0fyAlg+RhOlKqdt7ZlGai5",
        "10nvHsQJtCJK4TNL8P7LKc",
        "11AaTB3T9Kdb+wiyw+vIwA",
        "11Wcc8XU5BcLIClpS/j7T0",
        "12nM/pAUZGUrjAEQDbGi0X",
        "13M4ubGaJGqIyOflXxDNO8",
        "1353d28bf",
        "13oF44pA9Gequ6UT3sftsp",
        "137JLOmmxAw4vNbsdtFWPf",
        "14uBS/qlhH26BCMic4sU5C",
        "140yAL5BVEfY0XKtxBE7He",
        "145EdLJQVDYYRk4UuYO6gp",
        "15wgT6OmxDE6DNbNS24ZBw",
        "16LInpeyJEKZPyHggD6Lur",
        "16PVHoJ9JIo6X1yfubWhtS",
        "16P6WiUQxJB7cHDIR4DGcx",
        "16yyzpEVtEdbaCnxmzS6kI",
        "173249e0a",
        "17qvfdqO5MHJ6O5WkLYKUE",
        "17b076ef1",
        "171o/zfJ1JY6ADZLPLb9yO",
        "18QptTYEVEL7ZCdmskBZ+N",
        "185beb125",
        "18g2BHAT9AibyVwqe33bvo",
        "18qu2v0CFHdrqxAtfcuQpP",
        "187AboFK5Lq7m9BfKx+vBt",
        "19x5/yDPdCOYgfieKRigYy",
        "1a76e40f8",
        "1a8ee551d",
        "1cDjBAd7tIaq4USfWVT8Ki",
        "1cULuehUFOiKv/1m8X1avx",
        "1csVnjN1BGyY8fe0ElgJSM",
        "1ePzTqLQVHWLtRdTtGqg6H",
        "1eW8HAE1lMd5ZEiVSqlhnz",
        "1et1ASx/pECa+lmvmC+6K3",
        "1fOLOANapJo49cvSicD2Kx",
        "1fgtQrtNxDmYc86a8gg3d2",
        "20HQ0QlkRD/rfy+1hfyCWE",
        "20WT9XC4NKu5YGDjJQhy0W",
        "21LzKOmGpEErN+OFGjwhV5",
        "21eHOQAlRAnq9P3axByXOG",
        "21kMgw+OZBv44IGd+iuu/i",
        "21t9+0iX9BWYRbK4Vba7Xb",
        "22my74GpRO14qJR9EG1Ah0",
        "22n3XqnDVBCLeehsNCICyd",
        "22qavUJbVCF6AjSBVDtGDz",
        "23kw5UyIBJPIKIjXjlz9pX",
        "26AbzPYlVHzrq4riukqk26",
        "26WSBLozBOzpTFIrKEOL1t",
        "26eLqAJu1JG4+WC5KuKEas",
        "2682sRt7VKgpSw0r/cqEA4",
        "27QLgeRxRDxpfYvWlC/R/F",
        "28UngrW+VIwJj4Hc2xXgeK",
        "28iC7SbJlEVqaCHyS+6oRV",
        "29FYIk+N1GYaeWH/q1NxQO",
        "29MlVBTJVPQ43zrPtBuprL",
        "29Xv2fH6tDmY1SJWKce1h+",
        "2aEFysqOFOtp45jby9nj27",
        "2a38OXUcBAhquYlDzKGqsH",
        "2bGmzxuvdMnoASNMwNeFYQ",
        "2bOFmd45tCK5uBc3iuejya",
        "2bYkwpmbRJFIeNHCbVefHj",
        "2b92vH3HhKrZLlOpXktNhI",
        "2ccL0W2DpEq5UbZZcUHo6M",
        "2cp1BbycBNrqYrnu9ESrZb",
        "2cr72kUeVLkbQM+NE//9yX",
        "2ctj0p9eNHVL7prA7wZKS6",
        "2deRNfJKtNuLAxTku0Y2+O",
        "2eSUFf7EhEI5CKpgjjhhKH",
        "2eTPYa8c9A/pBa4FdjKKmq",
        "2fH5j1iHdBB4RlsuRFuUpv",
        "30FVSkIIRCdIDxaqDzEUSr",
        "30HO3c9FZF/5+IDfDz5Ukk",
        "30iSu2STJCYLwH41HZizlF",
        "31N8QbiSRDnZj/vBPmPZs5",
        "31wCWjYIdFNb9yQ5G+m6R/",
        "32HBqGf99NuY5qYp3G9BSR",
        "33FznvPS1Dr5YY3i7SklJ3",
        "33zGfERC5NvKT2imqEJqS7",
        "34S3boNnpDrqYkgUKb/yGW",
        "347gKiaRtF0qj5MJHlR9jh",
        "35YOyKc5FEDK5wfwk41aHH",
        "36Lfm8uZ5KMYRob+05nAQx",
        "36ne9J4vpGKq7RvW1g7GdW",
        "36phFYL8pAFrHrXs+NlY6i",
        "37EbWrQ0hAHqfoe9aBLl1r",
        "37k+v/wrtMyLMxU83qKjlV",
        "38ALVRtdlIublFNbFCtSNd",
        "38orXI8b5NqI6ap8iaDEjh",
        "39QnoxDQxJB48iba9MZUG1",
        "390R+BWxZFjpVVUfhap2sm",
        "399o+RGgZLM7KlnArQDdxm",
        "3aJexRyXpJA4f/eUfURX58",
        "3a1KxsOYZGVJfLT85NOfVW",
        "3bk8BrVCdNlKOIv1lIXE30",
        "3bmJYAvjhNSYbmExqhEVlK",
        "3dAyRxGJJIEJkQ1Hp8oiQg",
        "3fAA7ayhNJ/r56B/kwL9YR",
        "3f09h1TslDZ6ViY7qTiFIR",
        "40AjMCCr9IboPgSMARofi8",
        "42xKzxOPJP5ZYS7P4L0Tqq",
        "43ERlSnGtOXpPc/XG2swtt",
        "43a9QDSZRJhb7IWWruChBz",
        "43cd+yyapKkKsYKnkLjicl",
        "43jdAalShNc489S4zR81jx",
        "43l64nvntFvYZ81qPDk75c",
        "43mQ9s8gtIwqq2cvTPjis6",
        "43+i/BOmFMB5oglK/Vs//z",
        "44MkbuOr5MdYV7gry2vPGm",
        "45FnJT/HhCP4gsv+AbYSXJ",
        "45YZf9181HeJn/8gXYYIRk",
        "45vOcdVzREopXBjPxX5YbH",
        "46bU+b5fROqIXVPG6aZWWK",
        "46hI5nwrFNfYj1wZakntUc",
        "468ZiGRo5KOanoj4dtT5Lg",
        "469GVYh3JI452UfptdpY6o",
        "47BjVqgi9A3LQFBO8ZDbY9",
        "47nfuv1eRL1rlJp6wv07ox",
        "481ncEZsVDgZld9SHUoua6",
        "49E3bC50xL5qTFtYD6ZrVq",
        "49g4txqv5IoY6Z4c8z4P7P",
        "4aR7gwBgNAbJ1Qs5MSywXG",
        "4a6eEGualMZaUUt+uEuGln",
        "4bhlk9ciBEUqkSVdpKPyS2",
        "4fXogrx7RN47H6wlfO5Cir",
        "4f7HhP5y5IEZe5NH926wyo",
        "50YcDyjx9EBpFD/j3iOB3i",
        "50xsgCpihOQ5OMRBQn0c82",
        "51zqmQV/FBDZk1j/50qQ1i",
        "51/IBIXUFDR7WDXOt93gvh",
        "52z37d5ChBhrTOhWYrw0LJ",
        "533Aa47JRPoJeoUvMCefbL",
        "543DM0rBlIOaA4e4b86OI2",
        "55K/+7CvNPvpd1NY3ZKm3P",
        "55fP6yjShOgZQU3DSKaxjV",
        "556AUCTg1dwIeCNOG4wP2W",
        "56Rn9IEEtJtr6z2VziNR8t",
        "56YnNHoHpN5LHcqqpSArHo",
        "56vTkPV5hI3oJdy0L501fZ",
        "57ULpq+FpD+rlewnfNM/i5",
        "58HU8TrJBDBb9IXceU/q0R",
        "58HVNLlVNHjYqrYwTA1z9x",
        "58SuE9nOZL0b97gPGNkkwM",
        "58qH2ksjhDJYdGqU+KbcZZ",
        "59TxNjW/xC55RbKDk0vlE0",
        "59fTIqdjtEULYOCDur8KhB",
        "5a9SmMXmBDzKQn7bzK7hYC",
        "5btZE5jM5Ks5cvxWrVxEO0",
        "5bt+y11FdJxI1IwMuA9GXD",
        "5b/1WjEw1MsrEmhb8Ig/XK",
        "5cO7kybDxGj4ipyMYdRYZB",
        "5cr23GD89F9IkO2qcEhACz",
        "5c+fEwrP1BSbiAsJIS6nGG",
        "5fVxeMYb5EWbEJdG1cDAHc",
        "5f5dyqtRNNxaFmVzYns6FZ",
        "6023DI8cRBi5msHf/ZJVii",
        "631IrSvV1BVJ5+wyKSgWwi",
        "65Lbz1u9pF15MPZ7gxMDXF",
        "65UUzJWBJKgrh/uED8fnW5",
        "65kjPKlRtGHLYRWu0GBaPH",
        "651oeZN8REy6BiwFLqPTd8",
        "66BnbrwYhD9IT1YYYcXtMS",
        "67E1Xf5RdN8LWPX8DFm+lE",
        "6aLDx84utIiKqhNq+X0Jd6",
        "6aWz2+XGxFObB16lcNtDnU",
        "6auRJwh4lKFpYi0/vwRQ77",
        "6a2n+RnSNJUItZM6vxPyFL",
        "6b8A//3PFM9YrAQfj1/NgL",
        "6csbKRqjFHE6DGmINdc5eC",
        "6cuh/sfedAvYiIYbkWVLZF",
        "6eCMfZsZ1JBpo9mKXq19dJ",
        "6eQCh3TAREi79+wORe3+tM",
        "6fLtJqk4xPEYZTlOFie/0h",
        "6ffbFsql1Lq5qZc+DWSEfP",
        "6f0SwLNdpHjaB3soNzluMV",
        "6f3iyFcedAYqRb4tST1evp",
        "70gberBwxCq7dd6E1hKzIi",
        "74XHTkAzlPpqQF2mbqO8ls",
        "74YBxHRZJKTKWkxG1z+Ci7",
        "749i5cqmlPOJd32YRdt42N",
        "75BcIflJ5BxosPliqjkHxL",
        "75DIg/zgtOZ6Z1pX1J33cW",
        "75XMyZ9tVDsYgT8WKujDbZ",
        "76i3Y2K79O2JvMU6hfHkD2",
        "76k/zYxeVMeL9zVSmI+JL6",
        "76yJv8/r1DH6S9wYv+f/WP",
        "779unbn8BHQbSV+ENtlJMH",
        "79xa05T/1F8bJk3B/i8V3s",
        "79/w3QtJtGx46SASmaMfoU",
        "7a/QZLET9IDreTiBfRn2PD",
        "7bAhIWbTpD66d+hzZqrbGS",
        "7bI23P9idC6LOi+Sx5Me9K",
        "7bRwx55vFLAbp681IuKVLa",
        "7cFOor0XFB/LKBGb7epdgV",
        "7eJ1ZyhxxEzbtuHyF9INaL",
        "7eU5vGoPJOo5YSHUeTuebr",
        "7eY6cO0I5CYKgQtMCJuwmO",
        "7ef4oCZeVIWKlcqXwDEpZZ",
        "7euxOUv4xJEqb7VHlcxl0f",
        "7e8F/MFBNEvL4F+JetjHZs",
        "7e+PdiS5JKpa/rwNEC/Dxt",
        "7fRfroN+dGuY0MCQa/2tuV",
        "7fVqBh1h5AuYO/bHUJhryi",
        "7ffj0dC8hBiq9tYyOcdvJ4",
        "7flPorl25Ph7qR0B59CCzu",
        "7fzcQCPftOwYr5u3e8v1DA",
        "809SDjQWFPe7UqWoj9xB2U",
        "82migssElAGb04Ws6NimQX",
        "82riyrh5pDqaIfZNR8J0ga",
        "85PVil2LxFY4AWEsi+xVQb",
        "86DyvczZdMyKUHTji0HUB0",
        "86oJNxFNxBvJHSa+StWcys",
        "8667yNFcBGfrNaLFRBjdFl",
        "87eKJTHLRKeZpGdgPyon+z",
        "88LK/cDdlOy6gz9r8gyoFB",
        "88V/SYispIYKkjcIL9xxra",
        "89X9lqzblOAJfuboqGW0om",
        "894s7sRuVE3JdsPkE0vc0y",
        "8aNqONMnlHAoY7n1JblB5A",
        "8airH6BFhOx6oNz5iHwCuV",
        "8a1Mf4b8lDXKyIY3p1/NXV",
        "8a7eQYRPtLYqvzTrn+7PGF",
        "8bIFE/1RJOJIkNeAlqLis9",
        "8bK+XWPFNL46Ch2G4WEgf/",
        "8bLuQNzb9MwZIuUOApE45v",
        "8bTi4xyp1ETaj9xMM4xPRZ",
        "8bbDwCDaNDTZcbNc/Z3CFS",
        "8cY/iK0zdB/q4R4TTvw41E",
        "8dBJp7B+FBNJHmxKEJ08HS",
        "8dHCNicl1HS50YYz5MdyN8",
        "8dQWkJjEhD0Ke2As4RMi0H",
        "8d0d6Pc3JNk7dfB1okJGmj",
        "8d25wLSFpGjaXeonXBotxx",
        "8d9Ehv39dJCoIVm3uphvha",
        "8eTJUEw0BECIFTeiPgfkmU",
        "8eZXn5cp9GaKp6ywAEP++V",
        "8evGhPgF9IxZQpex3qN5ad",
        "8e3yqyMj9NxYmzjvhAPCT7",
        "8fXfAP7zxAeIO6Dp1I/YD6",
        "90EOibT5tCnrF56Y74oV7c",
        "90G6VYTcpKK6ovHJ5wfG3s",
        "90Ob5szTZDLJfrzpqzIFhX",
        "90XvJbfsVFWp1A5E49/0R7",
        "90yp6EUp5HGb4Zb8x1qdsw",
        "902MSRCy5Ol6KYxLENGgh2",
        "909l+G+91OCqJ3T9324fR1",
        "91T2bOafpB7rYgXCRctT0f",
        "91Wbalc3dIVoV4LjtbJkmV",
        "92pUfyEKhBj7Jc28+pc4Wg",
        "92z11DlERLqK2JyAviAx8a",
        "925qeHM75GZ4ufTuqgGZ6/",
        "94V+3X6M5JZ7C3P+rjnZpT",
        "94aXYVWCJOfaq6K9KWj29U",
        "95D9wvXt1A3pvYhLUvdazV",
        "97TzyzymNBHZa5jXvxb44k",
        "97W7nGNVdEyZBLnLEmq19E",
        "98Z+3eVVZK0L36JhbGLMH8",
        "98sN3IDwNJX6SR4+ef9tyi",
        "99mqisYdpMIK1tgexKtc91",
        "9aJitOkABCgbTXvN/k21F7",
        "9aivFGyiRBH7wuAwkOSLMJ",
        "9akyG4o4pBdKT7RLFER76Z",
        "9bvZFDu2xCEbYXOJgPaaVi",
        "9bvaMerUlDyary99mJa6xp",
        "9b6OQb+0JEu5fVGR+udP/5",
        "9cNvRvyD1I1orkskQrqMat",
        "9cUKkkPfVMkaOB5ScrbkCz",
        "9ck2S6nKZIV7x92O0vPRtq",
        "9cpSDmFgFIlLzgom+92nyL",
        "9cp2llqOJJsoE5kbyq0arS",
        "9da9jHcOZF9Y6mFWkRsDBk",
        "9fJAlKr6dAZahwElO1RQWE",
        "a0JgAot+ZDTItZXb7pckyk",
        "a0NhYt0LFOOpdpc+hBFSd7",
        "a0lkbc3eZP26kxXC4G8u88",
        "a1HwP9eQBKX5ngfnSJ5xyE",
        "a18tN0BrVCM7bNEaE9AJVi",
        "a2MjXRFdtLlYQ5ouAFv/+R",
        "a3cgHZ/gBAlLNIo582kqsC",
        "a4gvqLfgtEsYTY/qHZjjND",
        "a4mN7kVI5FG7abmixD1sTG",
        "a4pcTwgUxBOIqRTHMKej/K",
        "a56q98Z3pEIJP6t1jMi+f0",
        "a6MHacOMdGMZn2jZJuFPMO",
        "a6jJn3VWRF8pGOFWKWRihe",
        "a7CrOUTBhCQKc3OGjztnWS",
        "a7JCBdfqNJzpK+N4iXH94M",
        "a7Xku+dutEw7fm9CrVPtVS",
        "a8l9MPD8NJCpYOXhAaNNdB",
        "a9MX2tF8NBKbtEbfzXkzQT",
        "a9OmQvHpZM4YfZ8Szt2AvL",
        "a9zByqDtRKp7muGf/1xSRj",
        "aaDl0cQ2JKJ7ewb0SdgB4y",
        "aaYCD/JtZApqxV8QINxgD4",
        "aadiexPOdMBaK+DcUqJvkc",
        "aaiDplHlBJAoKjANLAYL6o",
        "aa32iT7PZDuqh5bWPCP1HU",
        "abFVghBMVMsp5TBfwSWTKs",
        "ab0UOV0wlNwJV9UpLwC0hG",
        "ac3RkONC9MfIjAAYuEk/dJ",
        "adRhV1ipRM1ZGQqUtKmZeB",
        "adV1r7rxdPqbUb6ZKW341n",
        "aeHf7L3JlIR7iTDD86dgBG",
        "aeft4DKklJ16MyM5xM5mW1",
        "b1xHFxuhhLu6wdeI1i5gqo",
        "b2NIcDNSJMra5tqABDtT7R",
        "b4BK1nZqZJAqDAosMMnPdG",
        "b4wIahfP1IlKhYOgOMt5Bp",
        "b5jnTbZtBJJIrfIJq5SsPF",
        "b56ZfglIlLiK5rIZpEkjUD",
        "b6cwkBcRlA05vk5L3okU7e",
        "b7PYdrVlxO0pgIsZWAxFij",
        "b8HojNPj9HzoB18+lRhjZE",
        "b8fCRjsMNGRIEHCmF3W7Mi",
        "b8uFrwCThGELag5KTra4sc",
        "b8yjY8A3JPhIDP046STyZn",
        "b9eeuVhkRJ0576MIfiSbS8",
        "b9m+kNvuZLpJ5Hs4GwY+kw",
        "ba8Vjv8qxEZbz7BfeJ9Ft3",
        "ba9idBiItBT4C/5sC2BPIt",
        "bbBePVhvJIJbdgIZNLk5yD",
        "bbF3wwn4dOVrRMgSCKMWdo",
        "bb/0taSTlBZpLbro8+3QZY",
        "bcYifuys1F/pyjOLxL0KYH",
        "bcedGZdEtGMKdVDiPgsD4/",
        "bcxTbV//pIUaHFeE3stioP",
        "bdrHTY81dAh6Y5LmaJvT4e",
        "benhwCq1ZEPqUoS3ID9R+/",
        "be/RuoQy5Dr4NpiEH8JPIC",
        "bf4Bj295lGRqx+szG3Yp66",
        "c0yWp1fwdPlZpyZszIpOc3",
        "c1cT6BaQNNjYUcawuLk+6w",
        "c3c/djp01LNKwa8kRjq1OI",
        "c3kAeHKrhHuomnFtYeIcGH",
        "c4SXNIKB1KwJWjdHSjWVWX",
        "c4mmQZK6JNQrcPd8ZEb5Jm",
        "c4rZElS2tGPpEe5RKeic7l",
        "c40Xa8ZfxAjZ/vgTKur6VR",
        "c5lzfAU4tAr6MzfxHmzFNw",
        "c7BCOcYWdCL51zc1OpbC7D",
        "c7Fz/F3DZM6oFDqZ5lC7cu",
        "c7Orwm5AdLoalhxEUH35XM",
        "c7p/g4MLxDQJ6MQCShwf5G",
        "c8RkdnO9tNEKvfNSjncs1Y",
        "c8gD1M6KhIdbGeoZnFtv5M",
        "caAVVgiORAZ62JqVN0Yrtr",
        "cacr198eJJcIcYgBH3Jq4h",
        "cadvS9vIhKboSXJTVKkZVU",
        "cbG79A++lBw7o1Awo0wZB1",
        "cbWcldG+9D5ZNG30mRTT1I",
        "ccLr6/cxtEx6vCwyyBXNKl",
        "ccUmhRYHJJGYZPLoZlbbUl",
        "cceckwKVVGe4/rc++5IxGZ",
        "cdfI3qs1FAVbvVntkNoMIf",
        "cd2c6TcoZCC74ibO/9IgXm",
        "ceLgef2xJDgpYGPbEp2MCi",
        "cecbcsouxIVavzch1xwemR",
        "cfhMVR07BNuKmW7/QQsqwP",
        "d0bOFM7ARMuqARYf/a9raM",
        "d03NIYREFI+pwS+cMeIOU1",
        "d1G+PuHNhNw5+Dr0gcRBDD",
        "d11smL0alHR6k1vXGOna03",
        "d16Y/hkwFHh4xqnuTPcer4",
        "d2OuAKheNPWpsXIdWNPztR",
        "d2Yqa71XtJ1qX+6n87BqtA",
        "d3C82lpVlKWrQPGPDds5hx",
        "d3TQ0mp1dJbYDOruhodw3j",
        "d3r+XJlLZI3JJcoea7MBuC",
        "d4ujSV5OlCeJeOD0ZQTGQp",
        "d5cXz63yVKK4MuPKKd3PKY",
        "d5fI/UMgNEDpIGjk+UZMQe",
        "d6DylX3GFCuYohVdDjKCqG",
        "d6vBBAe+dN9quILZruZEuF",
        "d8ei9jLM1I+osTI9PCbtFG",
        "d9b3WioNRMKIzK2QR2ISRF",
        "daHjIKRD1BR4u6uV1LPxI5",
        "daSTaLt29CELGuFqQb+qEu",
        "dal0lR8EFOxbw+TRNBE7Dx",
        "dblDRvz5JCors2AoEEm420",
        "dbsdZF1R5HFJTphEYey24O",
        "dcyE3NPqVK5JaGKcE2n0nu",
        "ddoFONJQhJoow1c+ZGH2Pe",
        "deOotEUAtINpNfmhZSggf/",
        "deT0Q6YMdCaa9l47nlCS6m",
        "deqb2qoMVJLrtIOjO57i3Y",
        "dfeck7QvpCjpZso4Xdxrb8",
        "df1D4fwhRJx6gYSvNf/d9I",
        "df5aeGLj5L/o7J1GTObt40",
        "e0JFvLEc1GLZj9cRB03sxE",
        "e0pZ/zKR1Iro+Cm2VZx7/p",
        "e2gHxAhkZAo7mer55Nm243",
        "e4gXMQVUpPk5yNkd08BA3N",
        "e5f24E23RLaIGd/84jZEcP",
        "e6iboTifBH+KQAuTNn8Zy1",
        "e7q6FL+VZEgLJUjVeDLic/",
        "e8DiiuN9xHwq8XmMObw/DD",
        "e8n157XhNFmrc3wq7584Uz",
        "e8rcrM8ZhBMKA7z4N8GXn1",
        "e9V270DXZFeZx2kcms2SyA",
        "e9xpgg/t5BrL/q3zoDL4TW",
        "e97GVMl6JHh5Ml5qEDdSGa",
        "eaILqBNd9Hrp1rFk/YA4AK",
        "eae7nUj7ZGWq707riwGRuI",
        "ebEBdHZjhM4q13Ku3RFhrX",
        "ebGJ0OFqxMwJ450B07QVcu",
        "ebbqNguExE9Kh/VBDojTLW",
        "eb74cwjB9EP5Qa43EuVwl4",
        "eb9bAslmdHSL965NMRIMys",
        "ecpdLyjvZBwrvm+cedCcQy",
        "ecw/g8qSdB27q64+rXOIzS",
        "edvAUILzxBRJ0GG5nIUmcL",
        "edxgu+3MlGuJ/714vDLNzy",
        "eeRexBAepEAIsI3EB2XhKT",
        "eegCNb9dpIX7jsJgVOduB0",
        "eevv3kAlRFzby3PQNzMzP8",
        "efw4aZEVdN7q13PAPbZClP",
        "efzh/O6PtCgZNaPRzU80I2",
        "f0AXzpHqxM1bBDXfADUYy9",
        "f0BIwQ8D5Ml7nTNQbh1YlS",
        "f2RW9OghBLDq3LYR7VLrb+",
        "f2tFj5xSZGPY88hXUNVGR+",
        "f3iIU/uHBJmZGKXbyhlT58",
        "f3w8BXuttNQIyTXyJ+R+a8",
        "f4WjBUtOxE2Jqv1bXFpkDm",
        "f4eerT6+xHT4SzV159otXH",
        "f6wcIfEIFEjaVEW1sqjnQA",
        "f8bB1MptBF+qMfL4HJKRqP",
        "f9TBkCa1lDsriLK6ju8JvM",
        "fadqJDWIxD/rQmXcb5mxCB",
        "fb7UsrhEZFhIlzr8YdV7rN",
        "fc6lcVKOdKOY5sCh7/vKfC",
        "fdLvJ1ZuZHSY3ukrfUo3wx",
        "ffBkWw4ytFHa6K7Xh4uW4b"
    ],
    "scenes": {
        "db://assets/G57/Game/G57_Game.fire": "36ne9J4vpGKq7RvW1g7GdW",
        "db://assets/G57/Loading/G57_Loading.fire": "b2NIcDNSJMra5tqABDtT7R",
        "db://assets/G57/Lobby/G57_Lobby.fire": "20HQ0QlkRD/rfy+1hfyCWE"
    },
    "redirect": [
        "16P6WiUQxJB7cHDIR4DGcx",
        0,
        "17qvfdqO5MHJ6O5WkLYKUE",
        0,
        "171o/zfJ1JY6ADZLPLb9yO",
        0,
        "28iC7SbJlEVqaCHyS+6oRV",
        0,
        "29FYIk+N1GYaeWH/q1NxQO",
        1,
        "2bGmzxuvdMnoASNMwNeFYQ",
        0,
        "2ccL0W2DpEq5UbZZcUHo6M",
        0,
        "35YOyKc5FEDK5wfwk41aHH",
        0,
        "399o+RGgZLM7KlnArQDdxm",
        0,
        "43mQ9s8gtIwqq2cvTPjis6",
        0,
        "46bU+b5fROqIXVPG6aZWWK",
        2,
        "469GVYh3JI452UfptdpY6o",
        0,
        "5a9SmMXmBDzKQn7bzK7hYC",
        0,
        "5cO7kybDxGj4ipyMYdRYZB",
        3,
        "5f5dyqtRNNxaFmVzYns6FZ",
        3,
        "6023DI8cRBi5msHf/ZJVii",
        0,
        "651oeZN8REy6BiwFLqPTd8",
        1,
        "7a/QZLET9IDreTiBfRn2PD",
        2,
        "7eY6cO0I5CYKgQtMCJuwmO",
        0,
        "7e+PdiS5JKpa/rwNEC/Dxt",
        0,
        "82migssElAGb04Ws6NimQX",
        2,
        "8airH6BFhOx6oNz5iHwCuV",
        0,
        "8bLuQNzb9MwZIuUOApE45v",
        0,
        "8d9Ehv39dJCoIVm3uphvha",
        0,
        "8eZXn5cp9GaKp6ywAEP++V",
        0,
        "90G6VYTcpKK6ovHJ5wfG3s",
        0,
        "94V+3X6M5JZ7C3P+rjnZpT",
        0,
        "9aJitOkABCgbTXvN/k21F7",
        3,
        "9bvaMerUlDyary99mJa6xp",
        3,
        "a0NhYt0LFOOpdpc+hBFSd7",
        0,
        "a1HwP9eQBKX5ngfnSJ5xyE",
        0,
        "a2MjXRFdtLlYQ5ouAFv/+R",
        3,
        "a7JCBdfqNJzpK+N4iXH94M",
        0,
        "ab0UOV0wlNwJV9UpLwC0hG",
        0,
        "b8HojNPj9HzoB18+lRhjZE",
        0,
        "bbBePVhvJIJbdgIZNLk5yD",
        0,
        "bcxTbV//pIUaHFeE3stioP",
        0,
        "be/RuoQy5Dr4NpiEH8JPIC",
        0,
        "c8RkdnO9tNEKvfNSjncs1Y",
        0,
        "cecbcsouxIVavzch1xwemR",
        0,
        "d16Y/hkwFHh4xqnuTPcer4",
        0,
        "d2OuAKheNPWpsXIdWNPztR",
        0,
        "d9b3WioNRMKIzK2QR2ISRF",
        0,
        "e7q6FL+VZEgLJUjVeDLic/",
        3,
        "e8DiiuN9xHwq8XmMObw/DD",
        0,
        "e9xpgg/t5BrL/q3zoDL4TW",
        0,
        "e97GVMl6JHh5Ml5qEDdSGa",
        1,
        "eaILqBNd9Hrp1rFk/YA4AK",
        0,
        "eae7nUj7ZGWq707riwGRuI",
        0,
        "ecpdLyjvZBwrvm+cedCcQy",
        2,
        "efw4aZEVdN7q13PAPbZClP",
        0,
        "f0BIwQ8D5Ml7nTNQbh1YlS",
        1,
        "f2tFj5xSZGPY88hXUNVGR+",
        0,
        "f3iIU/uHBJmZGKXbyhlT58",
        0,
        "fadqJDWIxD/rQmXcb5mxCB",
        0,
        "fb7UsrhEZFhIlzr8YdV7rN",
        0,
        "ffBkWw4ytFHa6K7Xh4uW4b",
        0
    ],
    "deps": [
        "SlotFramework",
        "Common",
        "internal",
        "CommonResources"
    ],
    "packs": {
        "077b2cd99": [
            "00hTTPxxhPEogWnTWuua0e",
            "01vQRhPrVOtIDJplk7VKMu",
            "02Hn8O80hLypq9CvoLxK1u",
            "03epfEtrNJy4bv68jvvyOl",
            "03ur2V7KhBPYZobSMwk2oy",
            "04lCjxwj1Ob4N3uBFWKsAn",
            "05ic8RLD9JMqm9p2wf3kBM",
            "05rvuIS2pPT679T2kh7crR",
            "06acO+LshLj5aQk6R+IOIM",
            "06/Isl+fNHC5Z/LucGEoCy",
            "07N2XJww5BAoM+fQWnsMQv",
            "07tWHPi9xCVIB7o6pG7PbR",
            "08AJFqZcpAcJ9kPk6c6IdM",
            "080sFVSmFBPZUP4tCG+5MI",
            "09MGiUdu1COr+LzQe6Xs7C",
            "09ziPkaSFBWY4ZY5zjwu9f",
            "0aJ6aUhMVDH7xqKKGMYhZ+",
            "0a2Jr3+pRIB4U2zuRgeMag",
            "0cF0OSRnhI9LwZ9SMl2ut9",
            "0dcjkpgUFG0KL1ICy4i9Bl",
            "0dr4LyFFZHmYO5yafBlrGH",
            "0fPsNkPqBJd6TgHxpvXjm/",
            "0fR4XDUZ9NO4ILjvxdDuD/",
            "0fSdR4kwVM+q0sojP7Xkvd",
            "0fyAlg+RhOlKqdt7ZlGai5",
            "10nvHsQJtCJK4TNL8P7LKc",
            "11AaTB3T9Kdb+wiyw+vIwA",
            "11Wcc8XU5BcLIClpS/j7T0",
            "12nM/pAUZGUrjAEQDbGi0X",
            "13M4ubGaJGqIyOflXxDNO8",
            "1353d28bf",
            "13oF44pA9Gequ6UT3sftsp",
            "137JLOmmxAw4vNbsdtFWPf",
            "14uBS/qlhH26BCMic4sU5C",
            "140yAL5BVEfY0XKtxBE7He",
            "145EdLJQVDYYRk4UuYO6gp",
            "15wgT6OmxDE6DNbNS24ZBw",
            "16LInpeyJEKZPyHggD6Lur",
            "16PVHoJ9JIo6X1yfubWhtS",
            "16yyzpEVtEdbaCnxmzS6kI",
            "173249e0a",
            "17b076ef1",
            "18QptTYEVEL7ZCdmskBZ+N",
            "185beb125",
            "18g2BHAT9AibyVwqe33bvo",
            "18qu2v0CFHdrqxAtfcuQpP",
            "187AboFK5Lq7m9BfKx+vBt",
            "19x5/yDPdCOYgfieKRigYy",
            "1a76e40f8",
            "1a8ee551d",
            "1cDjBAd7tIaq4USfWVT8Ki",
            "1cULuehUFOiKv/1m8X1avx",
            "1csVnjN1BGyY8fe0ElgJSM",
            "1ePzTqLQVHWLtRdTtGqg6H",
            "1eW8HAE1lMd5ZEiVSqlhnz",
            "1et1ASx/pECa+lmvmC+6K3",
            "1fOLOANapJo49cvSicD2Kx",
            "1fgtQrtNxDmYc86a8gg3d2",
            "20HQ0QlkRD/rfy+1hfyCWE",
            "20WT9XC4NKu5YGDjJQhy0W",
            "21LzKOmGpEErN+OFGjwhV5",
            "21eHOQAlRAnq9P3axByXOG",
            "21kMgw+OZBv44IGd+iuu/i",
            "21t9+0iX9BWYRbK4Vba7Xb",
            "22my74GpRO14qJR9EG1Ah0",
            "22n3XqnDVBCLeehsNCICyd",
            "22qavUJbVCF6AjSBVDtGDz",
            "23kw5UyIBJPIKIjXjlz9pX",
            "26AbzPYlVHzrq4riukqk26",
            "26WSBLozBOzpTFIrKEOL1t",
            "26eLqAJu1JG4+WC5KuKEas",
            "2682sRt7VKgpSw0r/cqEA4",
            "27QLgeRxRDxpfYvWlC/R/F",
            "28UngrW+VIwJj4Hc2xXgeK",
            "29MlVBTJVPQ43zrPtBuprL",
            "29Xv2fH6tDmY1SJWKce1h+",
            "2aEFysqOFOtp45jby9nj27",
            "2a38OXUcBAhquYlDzKGqsH",
            "2bOFmd45tCK5uBc3iuejya",
            "2bYkwpmbRJFIeNHCbVefHj",
            "2b92vH3HhKrZLlOpXktNhI",
            "2cp1BbycBNrqYrnu9ESrZb",
            "2cr72kUeVLkbQM+NE//9yX",
            "2ctj0p9eNHVL7prA7wZKS6",
            "2deRNfJKtNuLAxTku0Y2+O",
            "2eSUFf7EhEI5CKpgjjhhKH",
            "2eTPYa8c9A/pBa4FdjKKmq",
            "2fH5j1iHdBB4RlsuRFuUpv",
            "30FVSkIIRCdIDxaqDzEUSr",
            "30HO3c9FZF/5+IDfDz5Ukk",
            "30iSu2STJCYLwH41HZizlF",
            "31N8QbiSRDnZj/vBPmPZs5",
            "31wCWjYIdFNb9yQ5G+m6R/",
            "32HBqGf99NuY5qYp3G9BSR",
            "33FznvPS1Dr5YY3i7SklJ3",
            "33zGfERC5NvKT2imqEJqS7",
            "34S3boNnpDrqYkgUKb/yGW",
            "347gKiaRtF0qj5MJHlR9jh",
            "36Lfm8uZ5KMYRob+05nAQx",
            "36ne9J4vpGKq7RvW1g7GdW",
            "36phFYL8pAFrHrXs+NlY6i",
            "37EbWrQ0hAHqfoe9aBLl1r",
            "37k+v/wrtMyLMxU83qKjlV",
            "38ALVRtdlIublFNbFCtSNd",
            "38orXI8b5NqI6ap8iaDEjh",
            "39QnoxDQxJB48iba9MZUG1",
            "390R+BWxZFjpVVUfhap2sm",
            "3aJexRyXpJA4f/eUfURX58",
            "3a1KxsOYZGVJfLT85NOfVW",
            "3bk8BrVCdNlKOIv1lIXE30",
            "3bmJYAvjhNSYbmExqhEVlK",
            "3dAyRxGJJIEJkQ1Hp8oiQg",
            "3fAA7ayhNJ/r56B/kwL9YR",
            "3f09h1TslDZ6ViY7qTiFIR",
            "40AjMCCr9IboPgSMARofi8",
            "42xKzxOPJP5ZYS7P4L0Tqq",
            "43ERlSnGtOXpPc/XG2swtt",
            "43a9QDSZRJhb7IWWruChBz",
            "43cd+yyapKkKsYKnkLjicl",
            "43jdAalShNc489S4zR81jx",
            "43l64nvntFvYZ81qPDk75c",
            "43+i/BOmFMB5oglK/Vs//z",
            "44MkbuOr5MdYV7gry2vPGm",
            "45FnJT/HhCP4gsv+AbYSXJ",
            "45YZf9181HeJn/8gXYYIRk",
            "45vOcdVzREopXBjPxX5YbH",
            "46hI5nwrFNfYj1wZakntUc",
            "468ZiGRo5KOanoj4dtT5Lg",
            "47BjVqgi9A3LQFBO8ZDbY9",
            "47nfuv1eRL1rlJp6wv07ox",
            "481ncEZsVDgZld9SHUoua6",
            "49E3bC50xL5qTFtYD6ZrVq",
            "49g4txqv5IoY6Z4c8z4P7P",
            "4aR7gwBgNAbJ1Qs5MSywXG",
            "4a6eEGualMZaUUt+uEuGln",
            "4bhlk9ciBEUqkSVdpKPyS2",
            "4fXogrx7RN47H6wlfO5Cir",
            "4f7HhP5y5IEZe5NH926wyo",
            "50YcDyjx9EBpFD/j3iOB3i",
            "50xsgCpihOQ5OMRBQn0c82",
            "51zqmQV/FBDZk1j/50qQ1i",
            "51/IBIXUFDR7WDXOt93gvh",
            "52z37d5ChBhrTOhWYrw0LJ",
            "533Aa47JRPoJeoUvMCefbL",
            "543DM0rBlIOaA4e4b86OI2",
            "55K/+7CvNPvpd1NY3ZKm3P",
            "55fP6yjShOgZQU3DSKaxjV",
            "556AUCTg1dwIeCNOG4wP2W",
            "56Rn9IEEtJtr6z2VziNR8t",
            "56YnNHoHpN5LHcqqpSArHo",
            "56vTkPV5hI3oJdy0L501fZ",
            "57ULpq+FpD+rlewnfNM/i5",
            "58HU8TrJBDBb9IXceU/q0R",
            "58HVNLlVNHjYqrYwTA1z9x",
            "58SuE9nOZL0b97gPGNkkwM",
            "58qH2ksjhDJYdGqU+KbcZZ",
            "59TxNjW/xC55RbKDk0vlE0",
            "59fTIqdjtEULYOCDur8KhB",
            "5btZE5jM5Ks5cvxWrVxEO0",
            "5bt+y11FdJxI1IwMuA9GXD",
            "5b/1WjEw1MsrEmhb8Ig/XK",
            "5cr23GD89F9IkO2qcEhACz",
            "5c+fEwrP1BSbiAsJIS6nGG",
            "5fVxeMYb5EWbEJdG1cDAHc",
            "631IrSvV1BVJ5+wyKSgWwi",
            "65Lbz1u9pF15MPZ7gxMDXF",
            "65UUzJWBJKgrh/uED8fnW5",
            "65kjPKlRtGHLYRWu0GBaPH",
            "66BnbrwYhD9IT1YYYcXtMS",
            "67E1Xf5RdN8LWPX8DFm+lE",
            "6aLDx84utIiKqhNq+X0Jd6",
            "6aWz2+XGxFObB16lcNtDnU",
            "6auRJwh4lKFpYi0/vwRQ77",
            "6a2n+RnSNJUItZM6vxPyFL",
            "6b8A//3PFM9YrAQfj1/NgL",
            "6csbKRqjFHE6DGmINdc5eC",
            "6cuh/sfedAvYiIYbkWVLZF",
            "6eCMfZsZ1JBpo9mKXq19dJ",
            "6eQCh3TAREi79+wORe3+tM",
            "6fLtJqk4xPEYZTlOFie/0h",
            "6ffbFsql1Lq5qZc+DWSEfP",
            "6f0SwLNdpHjaB3soNzluMV",
            "6f3iyFcedAYqRb4tST1evp",
            "70gberBwxCq7dd6E1hKzIi",
            "74XHTkAzlPpqQF2mbqO8ls",
            "74YBxHRZJKTKWkxG1z+Ci7",
            "749i5cqmlPOJd32YRdt42N",
            "75BcIflJ5BxosPliqjkHxL",
            "75DIg/zgtOZ6Z1pX1J33cW",
            "75XMyZ9tVDsYgT8WKujDbZ",
            "76i3Y2K79O2JvMU6hfHkD2",
            "76k/zYxeVMeL9zVSmI+JL6",
            "76yJv8/r1DH6S9wYv+f/WP",
            "779unbn8BHQbSV+ENtlJMH",
            "79xa05T/1F8bJk3B/i8V3s",
            "79/w3QtJtGx46SASmaMfoU",
            "7bAhIWbTpD66d+hzZqrbGS",
            "7bI23P9idC6LOi+Sx5Me9K",
            "7bRwx55vFLAbp681IuKVLa",
            "7cFOor0XFB/LKBGb7epdgV",
            "7eJ1ZyhxxEzbtuHyF9INaL",
            "7eU5vGoPJOo5YSHUeTuebr",
            "7ef4oCZeVIWKlcqXwDEpZZ",
            "7euxOUv4xJEqb7VHlcxl0f",
            "7e8F/MFBNEvL4F+JetjHZs",
            "7fRfroN+dGuY0MCQa/2tuV",
            "7fVqBh1h5AuYO/bHUJhryi",
            "7ffj0dC8hBiq9tYyOcdvJ4",
            "7flPorl25Ph7qR0B59CCzu",
            "7fzcQCPftOwYr5u3e8v1DA",
            "809SDjQWFPe7UqWoj9xB2U",
            "82riyrh5pDqaIfZNR8J0ga",
            "85PVil2LxFY4AWEsi+xVQb",
            "86DyvczZdMyKUHTji0HUB0",
            "86oJNxFNxBvJHSa+StWcys",
            "8667yNFcBGfrNaLFRBjdFl",
            "87eKJTHLRKeZpGdgPyon+z",
            "88LK/cDdlOy6gz9r8gyoFB",
            "88V/SYispIYKkjcIL9xxra",
            "89X9lqzblOAJfuboqGW0om",
            "894s7sRuVE3JdsPkE0vc0y",
            "8aNqONMnlHAoY7n1JblB5A",
            "8a1Mf4b8lDXKyIY3p1/NXV",
            "8a7eQYRPtLYqvzTrn+7PGF",
            "8bIFE/1RJOJIkNeAlqLis9",
            "8bK+XWPFNL46Ch2G4WEgf/",
            "8bTi4xyp1ETaj9xMM4xPRZ",
            "8bbDwCDaNDTZcbNc/Z3CFS",
            "8cY/iK0zdB/q4R4TTvw41E",
            "8dBJp7B+FBNJHmxKEJ08HS",
            "8dHCNicl1HS50YYz5MdyN8",
            "8dQWkJjEhD0Ke2As4RMi0H",
            "8d0d6Pc3JNk7dfB1okJGmj",
            "8d25wLSFpGjaXeonXBotxx",
            "8eTJUEw0BECIFTeiPgfkmU",
            "8evGhPgF9IxZQpex3qN5ad",
            "8e3yqyMj9NxYmzjvhAPCT7",
            "8fXfAP7zxAeIO6Dp1I/YD6",
            "90EOibT5tCnrF56Y74oV7c",
            "90Ob5szTZDLJfrzpqzIFhX",
            "90XvJbfsVFWp1A5E49/0R7",
            "90yp6EUp5HGb4Zb8x1qdsw",
            "902MSRCy5Ol6KYxLENGgh2",
            "909l+G+91OCqJ3T9324fR1",
            "91T2bOafpB7rYgXCRctT0f",
            "91Wbalc3dIVoV4LjtbJkmV",
            "92pUfyEKhBj7Jc28+pc4Wg",
            "92z11DlERLqK2JyAviAx8a",
            "925qeHM75GZ4ufTuqgGZ6/",
            "94aXYVWCJOfaq6K9KWj29U",
            "95D9wvXt1A3pvYhLUvdazV",
            "97TzyzymNBHZa5jXvxb44k",
            "97W7nGNVdEyZBLnLEmq19E",
            "98Z+3eVVZK0L36JhbGLMH8",
            "98sN3IDwNJX6SR4+ef9tyi",
            "99mqisYdpMIK1tgexKtc91",
            "9aivFGyiRBH7wuAwkOSLMJ",
            "9akyG4o4pBdKT7RLFER76Z",
            "9bvZFDu2xCEbYXOJgPaaVi",
            "9b6OQb+0JEu5fVGR+udP/5",
            "9cNvRvyD1I1orkskQrqMat",
            "9cUKkkPfVMkaOB5ScrbkCz",
            "9ck2S6nKZIV7x92O0vPRtq",
            "9cpSDmFgFIlLzgom+92nyL",
            "9cp2llqOJJsoE5kbyq0arS",
            "9da9jHcOZF9Y6mFWkRsDBk",
            "9fJAlKr6dAZahwElO1RQWE",
            "a0JgAot+ZDTItZXb7pckyk",
            "a0lkbc3eZP26kxXC4G8u88",
            "a18tN0BrVCM7bNEaE9AJVi",
            "a3cgHZ/gBAlLNIo582kqsC",
            "a4gvqLfgtEsYTY/qHZjjND",
            "a4mN7kVI5FG7abmixD1sTG",
            "a4pcTwgUxBOIqRTHMKej/K",
            "a56q98Z3pEIJP6t1jMi+f0",
            "a6MHacOMdGMZn2jZJuFPMO",
            "a6jJn3VWRF8pGOFWKWRihe",
            "a7CrOUTBhCQKc3OGjztnWS",
            "a7Xku+dutEw7fm9CrVPtVS",
            "a8l9MPD8NJCpYOXhAaNNdB",
            "a9MX2tF8NBKbtEbfzXkzQT",
            "a9OmQvHpZM4YfZ8Szt2AvL",
            "a9zByqDtRKp7muGf/1xSRj",
            "aaDl0cQ2JKJ7ewb0SdgB4y",
            "aaYCD/JtZApqxV8QINxgD4",
            "aadiexPOdMBaK+DcUqJvkc",
            "aaiDplHlBJAoKjANLAYL6o",
            "aa32iT7PZDuqh5bWPCP1HU",
            "abFVghBMVMsp5TBfwSWTKs",
            "ac3RkONC9MfIjAAYuEk/dJ",
            "adRhV1ipRM1ZGQqUtKmZeB",
            "adV1r7rxdPqbUb6ZKW341n",
            "aeHf7L3JlIR7iTDD86dgBG",
            "aeft4DKklJ16MyM5xM5mW1",
            "b1xHFxuhhLu6wdeI1i5gqo",
            "b2NIcDNSJMra5tqABDtT7R",
            "b4BK1nZqZJAqDAosMMnPdG",
            "b4wIahfP1IlKhYOgOMt5Bp",
            "b5jnTbZtBJJIrfIJq5SsPF",
            "b56ZfglIlLiK5rIZpEkjUD",
            "b6cwkBcRlA05vk5L3okU7e",
            "b7PYdrVlxO0pgIsZWAxFij",
            "b8fCRjsMNGRIEHCmF3W7Mi",
            "b8uFrwCThGELag5KTra4sc",
            "b8yjY8A3JPhIDP046STyZn",
            "b9eeuVhkRJ0576MIfiSbS8",
            "b9m+kNvuZLpJ5Hs4GwY+kw",
            "ba8Vjv8qxEZbz7BfeJ9Ft3",
            "ba9idBiItBT4C/5sC2BPIt",
            "bbF3wwn4dOVrRMgSCKMWdo",
            "bb/0taSTlBZpLbro8+3QZY",
            "bcYifuys1F/pyjOLxL0KYH",
            "bcedGZdEtGMKdVDiPgsD4/",
            "bdrHTY81dAh6Y5LmaJvT4e",
            "benhwCq1ZEPqUoS3ID9R+/",
            "bf4Bj295lGRqx+szG3Yp66",
            "c0yWp1fwdPlZpyZszIpOc3",
            "c1cT6BaQNNjYUcawuLk+6w",
            "c3c/djp01LNKwa8kRjq1OI",
            "c3kAeHKrhHuomnFtYeIcGH",
            "c4SXNIKB1KwJWjdHSjWVWX",
            "c4mmQZK6JNQrcPd8ZEb5Jm",
            "c4rZElS2tGPpEe5RKeic7l",
            "c40Xa8ZfxAjZ/vgTKur6VR",
            "c5lzfAU4tAr6MzfxHmzFNw",
            "c7BCOcYWdCL51zc1OpbC7D",
            "c7Fz/F3DZM6oFDqZ5lC7cu",
            "c7Orwm5AdLoalhxEUH35XM",
            "c7p/g4MLxDQJ6MQCShwf5G",
            "c8gD1M6KhIdbGeoZnFtv5M",
            "caAVVgiORAZ62JqVN0Yrtr",
            "cacr198eJJcIcYgBH3Jq4h",
            "cadvS9vIhKboSXJTVKkZVU",
            "cbG79A++lBw7o1Awo0wZB1",
            "cbWcldG+9D5ZNG30mRTT1I",
            "ccLr6/cxtEx6vCwyyBXNKl",
            "ccUmhRYHJJGYZPLoZlbbUl",
            "cceckwKVVGe4/rc++5IxGZ",
            "cdfI3qs1FAVbvVntkNoMIf",
            "cd2c6TcoZCC74ibO/9IgXm",
            "ceLgef2xJDgpYGPbEp2MCi",
            "cfhMVR07BNuKmW7/QQsqwP",
            "d0bOFM7ARMuqARYf/a9raM",
            "d03NIYREFI+pwS+cMeIOU1",
            "d1G+PuHNhNw5+Dr0gcRBDD",
            "d11smL0alHR6k1vXGOna03",
            "d2Yqa71XtJ1qX+6n87BqtA",
            "d3C82lpVlKWrQPGPDds5hx",
            "d3TQ0mp1dJbYDOruhodw3j",
            "d3r+XJlLZI3JJcoea7MBuC",
            "d4ujSV5OlCeJeOD0ZQTGQp",
            "d5cXz63yVKK4MuPKKd3PKY",
            "d5fI/UMgNEDpIGjk+UZMQe",
            "d6DylX3GFCuYohVdDjKCqG",
            "d6vBBAe+dN9quILZruZEuF",
            "d8ei9jLM1I+osTI9PCbtFG",
            "daHjIKRD1BR4u6uV1LPxI5",
            "daSTaLt29CELGuFqQb+qEu",
            "dal0lR8EFOxbw+TRNBE7Dx",
            "dblDRvz5JCors2AoEEm420",
            "dbsdZF1R5HFJTphEYey24O",
            "dcyE3NPqVK5JaGKcE2n0nu",
            "ddoFONJQhJoow1c+ZGH2Pe",
            "deOotEUAtINpNfmhZSggf/",
            "deT0Q6YMdCaa9l47nlCS6m",
            "deqb2qoMVJLrtIOjO57i3Y",
            "dfeck7QvpCjpZso4Xdxrb8",
            "df1D4fwhRJx6gYSvNf/d9I",
            "df5aeGLj5L/o7J1GTObt40",
            "e0JFvLEc1GLZj9cRB03sxE",
            "e0pZ/zKR1Iro+Cm2VZx7/p",
            "e2gHxAhkZAo7mer55Nm243",
            "e4gXMQVUpPk5yNkd08BA3N",
            "e5f24E23RLaIGd/84jZEcP",
            "e6iboTifBH+KQAuTNn8Zy1",
            "e8n157XhNFmrc3wq7584Uz",
            "e8rcrM8ZhBMKA7z4N8GXn1",
            "e9V270DXZFeZx2kcms2SyA",
            "ebEBdHZjhM4q13Ku3RFhrX",
            "ebGJ0OFqxMwJ450B07QVcu",
            "ebbqNguExE9Kh/VBDojTLW",
            "eb74cwjB9EP5Qa43EuVwl4",
            "eb9bAslmdHSL965NMRIMys",
            "ecw/g8qSdB27q64+rXOIzS",
            "edvAUILzxBRJ0GG5nIUmcL",
            "edxgu+3MlGuJ/714vDLNzy",
            "eeRexBAepEAIsI3EB2XhKT",
            "eegCNb9dpIX7jsJgVOduB0",
            "eevv3kAlRFzby3PQNzMzP8",
            "efzh/O6PtCgZNaPRzU80I2",
            "f0AXzpHqxM1bBDXfADUYy9",
            "f2RW9OghBLDq3LYR7VLrb+",
            "f3w8BXuttNQIyTXyJ+R+a8",
            "f4WjBUtOxE2Jqv1bXFpkDm",
            "f4eerT6+xHT4SzV159otXH",
            "f6wcIfEIFEjaVEW1sqjnQA",
            "f8bB1MptBF+qMfL4HJKRqP",
            "f9TBkCa1lDsriLK6ju8JvM",
            "fc6lcVKOdKOY5sCh7/vKfC",
            "fdLvJ1ZuZHSY3ukrfUo3wx"
        ]
    },
    "name": "G57",
    "importBase": "import",
    "nativeBase": "native",
    "debug": true,
    "isZip": false,
    "encrypted": false,
    "versions": {
        "import": [
            "077b2cd99",
            "378ba"
        ],
        "native": [
            "07tWHPi9xCVIB7o6pG7PbR",
            "6653c",
            "09MGiUdu1COr+LzQe6Xs7C",
            "6f2f3",
            "0dcjkpgUFG0KL1ICy4i9Bl",
            "a9332",
            "1353d28bf",
            "1f1d5",
            "13oF44pA9Gequ6UT3sftsp",
            "abb9e",
            "14uBS/qlhH26BCMic4sU5C",
            "5991b",
            "173249e0a",
            "5f47b",
            "17b076ef1",
            "d70b2",
            "185beb125",
            "234c6",
            "18g2BHAT9AibyVwqe33bvo",
            "deda0",
            "1a76e40f8",
            "600de",
            "1a8ee551d",
            "27355",
            "1eW8HAE1lMd5ZEiVSqlhnz",
            "337d8",
            "1et1ASx/pECa+lmvmC+6K3",
            "ccfb0",
            "21LzKOmGpEErN+OFGjwhV5",
            "57d2d",
            "23kw5UyIBJPIKIjXjlz9pX",
            "e7e91",
            "29MlVBTJVPQ43zrPtBuprL",
            "2cf02",
            "2aEFysqOFOtp45jby9nj27",
            "75934",
            "2eSUFf7EhEI5CKpgjjhhKH",
            "244aa",
            "32HBqGf99NuY5qYp3G9BSR",
            "63a06",
            "33zGfERC5NvKT2imqEJqS7",
            "d9754",
            "34S3boNnpDrqYkgUKb/yGW",
            "e84ca",
            "37k+v/wrtMyLMxU83qKjlV",
            "6844a",
            "3a1KxsOYZGVJfLT85NOfVW",
            "bfd7d",
            "3bk8BrVCdNlKOIv1lIXE30",
            "305c6",
            "3bmJYAvjhNSYbmExqhEVlK",
            "d96bd",
            "3f09h1TslDZ6ViY7qTiFIR",
            "45cc6",
            "43ERlSnGtOXpPc/XG2swtt",
            "4480a",
            "44MkbuOr5MdYV7gry2vPGm",
            "4b604",
            "45FnJT/HhCP4gsv+AbYSXJ",
            "e9b7f",
            "45vOcdVzREopXBjPxX5YbH",
            "fa83d",
            "47BjVqgi9A3LQFBO8ZDbY9",
            "f562f",
            "49g4txqv5IoY6Z4c8z4P7P",
            "8958b",
            "4a6eEGualMZaUUt+uEuGln",
            "bab78",
            "4bhlk9ciBEUqkSVdpKPyS2",
            "2bc96",
            "4fXogrx7RN47H6wlfO5Cir",
            "731db",
            "50YcDyjx9EBpFD/j3iOB3i",
            "60918",
            "51zqmQV/FBDZk1j/50qQ1i",
            "1fd41",
            "55fP6yjShOgZQU3DSKaxjV",
            "1b638",
            "56vTkPV5hI3oJdy0L501fZ",
            "31680",
            "5cr23GD89F9IkO2qcEhACz",
            "ef291",
            "65UUzJWBJKgrh/uED8fnW5",
            "74177",
            "6eCMfZsZ1JBpo9mKXq19dJ",
            "66398",
            "75BcIflJ5BxosPliqjkHxL",
            "f1fdf",
            "7fVqBh1h5AuYO/bHUJhryi",
            "e3d1b",
            "7ffj0dC8hBiq9tYyOcdvJ4",
            "0dcff",
            "8667yNFcBGfrNaLFRBjdFl",
            "ecc27",
            "8bK+XWPFNL46Ch2G4WEgf/",
            "4aff4",
            "8bbDwCDaNDTZcbNc/Z3CFS",
            "eed3d",
            "8dBJp7B+FBNJHmxKEJ08HS",
            "6f1cd",
            "8d0d6Pc3JNk7dfB1okJGmj",
            "9c741",
            "90yp6EUp5HGb4Zb8x1qdsw",
            "19084",
            "909l+G+91OCqJ3T9324fR1",
            "134e6",
            "92pUfyEKhBj7Jc28+pc4Wg",
            "80302",
            "92z11DlERLqK2JyAviAx8a",
            "70d3d",
            "95D9wvXt1A3pvYhLUvdazV",
            "71297",
            "97TzyzymNBHZa5jXvxb44k",
            "8417b",
            "97W7nGNVdEyZBLnLEmq19E",
            "bcb2b",
            "98Z+3eVVZK0L36JhbGLMH8",
            "b1994",
            "99mqisYdpMIK1tgexKtc91",
            "2963a",
            "9cNvRvyD1I1orkskQrqMat",
            "f1410",
            "9cpSDmFgFIlLzgom+92nyL",
            "bd55b",
            "9cp2llqOJJsoE5kbyq0arS",
            "54d45",
            "a18tN0BrVCM7bNEaE9AJVi",
            "c3db1",
            "a3cgHZ/gBAlLNIo582kqsC",
            "f5c82",
            "a9zByqDtRKp7muGf/1xSRj",
            "c8306",
            "aaYCD/JtZApqxV8QINxgD4",
            "e2cb4",
            "aadiexPOdMBaK+DcUqJvkc",
            "c9fdb",
            "benhwCq1ZEPqUoS3ID9R+/",
            "5faad",
            "bf4Bj295lGRqx+szG3Yp66",
            "6c1a8",
            "c4mmQZK6JNQrcPd8ZEb5Jm",
            "0b769",
            "c5lzfAU4tAr6MzfxHmzFNw",
            "cc786",
            "cbG79A++lBw7o1Awo0wZB1",
            "c4bb7",
            "ccLr6/cxtEx6vCwyyBXNKl",
            "f5468",
            "d11smL0alHR6k1vXGOna03",
            "e65cb",
            "d3C82lpVlKWrQPGPDds5hx",
            "5cd8f",
            "d3TQ0mp1dJbYDOruhodw3j",
            "5c381",
            "d5cXz63yVKK4MuPKKd3PKY",
            "2b4d7",
            "dbsdZF1R5HFJTphEYey24O",
            "0be14",
            "deOotEUAtINpNfmhZSggf/",
            "ac420",
            "df5aeGLj5L/o7J1GTObt40",
            "25888",
            "e4gXMQVUpPk5yNkd08BA3N",
            "0efb5",
            "e9V270DXZFeZx2kcms2SyA",
            "04067",
            "efzh/O6PtCgZNaPRzU80I2",
            "01aaf",
            "fc6lcVKOdKOY5sCh7/vKfC",
            "ed568"
        ]
    }
}