[
  1,
  [
    "1150545bc",
    "ecpdLyjvZBwrvm+cedCcQy",
    "f0BIwQ8D5Ml7nTNQbh1YlS",
    "dcn+RIjhFNII9RiefBpaDe",
    "7aoSmEQIZEK40uZa/pDrMO",
    "91XjPVhX1OcaIhtrYsH0XZ",
    "31/JNzTBFKNrE1+bGRcEGI",
    "eani5wyOxDEYOiwF/ttZlr",
    "6bB8373ipMeIAMZyci3az3",
    "66XUB5FdNNBK7yz8xdE0aJ",
    "86gPhvLHtL46sGdrKdq8Pt",
    "e97GVMl6JHh5Ml5qEDdSGa",
    "29FYIk+N1GYaeWH/q1NxQO",
    "71VhFCTINJM6/Ky3oX9nBT",
    "808vtr9kBKD4NTHI5n/evT",
    "b7dU+aiWNCebjMvETVzBG1",
    "44ym0wTdRFaKbw7WwxcwvK",
    "cbwLFylpVAUrzqqlhW9lpd",
    "08V3AFW8lCVKhJ1eXdDFtx",
    "165b6LfJhEwoVsXYuUz+Ox",
    "22sB651exJpq5QymFv8yhO",
    "cfoabLq+VJpq5XwzauWzPJ",
    "ffrWLyx7hIup7VGkCK+8UW",
    "b4P/PCArtIdIH38t6mlw8Y",
    "e8Ueib+qJEhL6mXAHdnwbi"
  ],
  [
    "_textureSetter",
    "node",
    "_spriteFrame",
    "root",
    "_parent",
    "_effectAsset",
    "data",
    "target",
    "scene",
    "_N$normalSprite",
    "_N$pressedSprite",
    "_N$hoverSprite",
    "_N$disabledSprite",
    "signal",
    "delayTime",
    "connection3",
    "connection2",
    "connection5",
    "connection4",
    "connection1",
    "img_connection3",
    "connection_frame",
    "img_connection4",
    "img_connection2",
    "img_connection1"
  ],
  [
    "cc.SpriteFrame",
    [
      "cc.Node",
      [
        "_name",
        "_objFlags",
        "_id",
        "_is3DNode",
        "_components",
        "_contentSize",
        "_children",
        "_prefab",
        "_parent",
        "_trs",
        "_color"
      ],
      -1,
      9,
      5,
      2,
      4,
      1,
      7,
      5
    ],
    "cc.Texture2D",
    [
      "cc.PrefabInfo",
      [
        "fileId",
        "root",
        "asset"
      ],
      2,
      1,
      1
    ],
    [
      "cc.Sprite",
      [
        "_sizeMode",
        "_type",
        "_name",
        "_isTrimmedMode",
        "node",
        "_materials",
        "_spriteFrame"
      ],
      -1,
      1,
      3,
      6
    ],
    [
      "cc.Node",
      [
        "_name",
        "_parent",
        "_components",
        "_contentSize",
        "_trs",
        "_children",
        "_prefab",
        "_color",
        "_anchorPoint"
      ],
      2,
      1,
      12,
      5,
      7,
      2,
      4,
      5,
      5
    ],
    [
      "74bd6jf9CdIV7aPyKeN8yCX",
      [
        "openSpeed",
        "openDir",
        "node"
      ],
      1,
      1
    ],
    [
      "cc.Label",
      [
        "_string",
        "_fontSize",
        "_N$horizontalAlign",
        "_N$verticalAlign",
        "_enableWrapText",
        "_N$overflow",
        "_N$cacheMode",
        "_name",
        "_lineHeight",
        "node",
        "_materials"
      ],
      -6,
      1,
      3
    ],
    [
      "cc.TextAsset",
      [
        "_name",
        "text"
      ],
      1
    ],
    [
      "cc.SceneAsset",
      [
        "_name",
        "asyncLoadAssets"
      ],
      1
    ],
    [
      "cc.Node",
      [
        "_name",
        "_parent",
        "_components",
        "_prefab",
        "_contentSize",
        "_trs"
      ],
      2,
      1,
      2,
      4,
      5,
      7
    ],
    [
      "cc.Canvas",
      [
        "node"
      ],
      3,
      1
    ],
    [
      "cc.Widget",
      [
        "alignMode",
        "_alignFlags",
        "_originalWidth",
        "_originalHeight",
        "node"
      ],
      -1,
      1
    ],
    [
      "cc.Button",
      [
        "_N$transition",
        "node",
        "clickEvents",
        "_N$normalColor",
        "_N$pressedColor",
        "_N$disabledColor",
        "_N$target",
        "_N$normalSprite",
        "_N$pressedSprite",
        "_N$hoverSprite",
        "_N$disabledSprite"
      ],
      2,
      1,
      9,
      5,
      5,
      5,
      1,
      6,
      6,
      6,
      6
    ],
    [
      "cc.ClickEvent",
      [
        "_componentId",
        "handler",
        "target"
      ],
      1,
      1
    ],
    [
      "cc.Scene",
      [
        "_name",
        "_children",
        "_anchorPoint",
        "_trs"
      ],
      2,
      2,
      5,
      7
    ],
    [
      "cc.Camera",
      [
        "_clearFlags",
        "_depth",
        "node"
      ],
      1,
      1
    ],
    [
      "cc.Material",
      [
        "_name",
        "_techniqueData"
      ],
      1
    ],
    [
      "cc.EffectAsset",
      [
        "_name",
        "shaders",
        "techniques"
      ],
      0
    ],
    [
      "cc.Prefab",
      [
        "_name"
      ],
      2
    ],
    [
      "459a6YHlm9DC6PDceiW00fC",
      [
        "signalRange",
        "node",
        "delayTime",
        "signal",
        "signalSpriteFrame"
      ],
      2,
      1,
      1,
      1,
      3
    ],
    [
      "cc.LabelOutline",
      [
        "node",
        "_color"
      ],
      3,
      1,
      5
    ],
    [
      "cc.SpriteAtlas",
      [
        "_spriteFrames"
      ],
      3,
      11
    ]
  ],
  [
    [
      8,
      0,
      1,
      3
    ],
    [
      3,
      0,
      1,
      2
    ],
    [
      4,
      0,
      3,
      4,
      5,
      6,
      3
    ],
    [
      1,
      0,
      6,
      4,
      7,
      5,
      2
    ],
    [
      1,
      0,
      3,
      8,
      6,
      4,
      7,
      5,
      3
    ],
    [
      1,
      0,
      8,
      4,
      7,
      5,
      2
    ],
    [
      3,
      0,
      1,
      2,
      2
    ],
    [
      17,
      0,
      1,
      3
    ],
    [
      18,
      0,
      1,
      2,
      4
    ],
    [
      19,
      0,
      2
    ],
    [
      9,
      0,
      1,
      3
    ],
    [
      1,
      0,
      2,
      6,
      4,
      5,
      9,
      3
    ],
    [
      1,
      0,
      1,
      6,
      4,
      5,
      3
    ],
    [
      1,
      0,
      8,
      4,
      9,
      2
    ],
    [
      1,
      0,
      1,
      8,
      4,
      10,
      5,
      3
    ],
    [
      1,
      0,
      6,
      4,
      7,
      2
    ],
    [
      1,
      0,
      8,
      4,
      7,
      5,
      9,
      2
    ],
    [
      5,
      0,
      1,
      5,
      2,
      3,
      4,
      2
    ],
    [
      5,
      0,
      1,
      2,
      6,
      7,
      3,
      8,
      4,
      2
    ],
    [
      10,
      0,
      1,
      2,
      3,
      4,
      5,
      2
    ],
    [
      6,
      1,
      0,
      2,
      3
    ],
    [
      6,
      0,
      2,
      2
    ],
    [
      3,
      1,
      1
    ],
    [
      3,
      1,
      2,
      1
    ],
    [
      11,
      0,
      1
    ],
    [
      4,
      1,
      0,
      4,
      5,
      6,
      3
    ],
    [
      4,
      2,
      1,
      0,
      4,
      5,
      6,
      4
    ],
    [
      4,
      2,
      4,
      5,
      2
    ],
    [
      12,
      0,
      1,
      2,
      3,
      4,
      5
    ],
    [
      13,
      0,
      1,
      2,
      3,
      4,
      5,
      6,
      7,
      8,
      9,
      10,
      2
    ],
    [
      14,
      0,
      1,
      2,
      3
    ],
    [
      15,
      0,
      1,
      2,
      3,
      2
    ],
    [
      16,
      0,
      1,
      2,
      3
    ],
    [
      7,
      0,
      1,
      4,
      2,
      3,
      5,
      6,
      9,
      10,
      8
    ],
    [
      7,
      7,
      0,
      1,
      8,
      2,
      3,
      9,
      10,
      7
    ],
    [
      20,
      0,
      1,
      2,
      3,
      4,
      2
    ],
    [
      21,
      0,
      1,
      1
    ],
    [
      22,
      0,
      1
    ]
  ],
  [
    [
      [
        [
          0,
          "ErrorCode.d",
          "declare namespace GameClient {\r\n    /** 伺服器錯誤 */\r\n    export class ServerError extends Error {\r\n        /**\r\n         * 伺服器錯誤\r\n         * @param message 錯誤訊息\r\n         * @param code 錯誤代碼\r\n         * @param logInfo log\r\n         */\r\n        constructor(code: number, message?: string, logInfo?: string);\r\n\r\n        /** 錯誤代碼 */\r\n        public code: number;\r\n    }\r\n\r\n    /** 取得錯誤代碼的Key */\r\n    export function getErrorMessage(code: number): string;\r\n\r\n    /** 錯誤代碼 */\r\n    export var errCode: {\r\n        // 1: 系統級錯誤 關閉遊戲\r\n        /** Token 驗證失敗 */\r\n        AUTH_FAIL: 1001;\r\n        /** 玩家強制驅離 */\r\n        USER_BANNED: 1003;\r\n        /** 玩家資料異常 */\r\n        API_GATEWAY_PLAYER_DATA_ERROR: 1004;\r\n        /** Token失效 */\r\n        TOKEN_TIME_OUT: 1006;\r\n        /** 玩家不存在 */\r\n        PLAYER_NON_EXIST: 1007;\r\n        /** grpc 連線失敗 */\r\n        GRPC_CONNECTION_FAIL: 1008;\r\n        /** NATS 連線失敗 */\r\n        NATS_CONNECTION_FAIL: 1009;\r\n        /** 伺服器维修 */\r\n        SERVER_MAINTAIN: 1010;\r\n        /** 太久沒下注請離房間 */\r\n        IDLE_TIMEOUT: 1011;\r\n\r\n        // 2: 連線級錯誤 重新建立連線\r\n        /** Server 回應超時  */\r\n        RESPONSE_TIMED_OUT: 2001;\r\n        /** 連線逾時 */\r\n        CONNECTION_TIMED_OUT: 2002;\r\n        /** socket斷線 */\r\n        WEBSOCKET_OFFLINE: 2003;\r\n        /** Server 三次無回應 */\r\n        SERVER_NOT_RESPONSE: 2004;\r\n        /** Connect 失敗 */\r\n        CONNECT_FAIL: 2005;\r\n        /** 伺服器三次無回應 for 登入 */\r\n        WEBSOCKET_OPENED: 2006;\r\n        /** 伺服器三次無回應 for 登入 */\r\n        WEBSOCKET_OPENING: 2007;\r\n        /** 前端請求時，Socket已經斷線 */\r\n        REQ_SOCKET_CLOSE: 2008;\r\n\r\n        // 3: 遊戲級錯誤 依照各類型作相對應處理\r\n        /** 成功 */\r\n        SUCCESS: 0;\r\n        /** 操作錯誤 */\r\n        INVALID_OPERATION: 3001;\r\n        /** 不允許離開 */\r\n        INVALID_LEAVE: 3002;\r\n        /** 持有金額不足 */\r\n        INSUFFICIENT_BALANCE: 3003;\r\n        /** 倍率錯誤 */\r\n        ODDS_ERROR: 3004;\r\n        /** 狀態錯誤 */\r\n        STAGE_ERROR: 3005;\r\n        /** 加入廳失敗 */\r\n        JOIN_THEME_FAIL: 3006;\r\n        /** 持有金額超過上限 */\r\n        BALANCE_EXCEEDS_LIMIT: 3007;\r\n        /** 下注莊家錯誤 */\r\n        BET_BANKER_FAIL: 3008;\r\n        /**  加入房間失敗  */\r\n        JOIN_ROOM_FAIL: 3009;\r\n        /** 建立房間失敗  */\r\n        CREATE_ROOM_FAIL: 3010;\r\n        /** 操作失敗 */\r\n        OPERATION_FAIL: 3011;\r\n        /** 不合法api */\r\n        API_NON_EXISTS: 3012;\r\n        /** 取得廳表資料 失敗 */\r\n        GET_THEME_DATA_FAIL: 3013;\r\n        /** 進房間失敗 失敗 */\r\n        PLUS_ROOM_FAIL: 3014;\r\n        /** 好友房 開始遊戲時 有任意玩家未準備 */\r\n        ROUTINE_STARTGAME_SOMEONE_NOTREADY: 3015;\r\n        /** 好友房 開始遊戲時 有任意玩家未準備 */\r\n        SLOT_INSUFFICIENT_BALANCE: 3016;\r\n        /** 搶莊完成失敗 */\r\n        GRAB_BANKER_READY_FAIL: 3017;\r\n        /** 搶莊失敗 */\r\n        GRAB_BANKER_FAIL: 3018;\r\n        /** 下注完成失敗 */\r\n        BET_READY_FAIL: 3019;\r\n        /** 下注失敗 */\r\n        BET_FAIL: 3020;\r\n        /** 攤牌失敗 */\r\n        FACE_FAIL: 3021;\r\n        /** 結算失敗 */\r\n        BALANCE_READY_FAIL: 3022;\r\n        /** 修改玩家頭像失敗 */\r\n        CHANGE_PLAYER_ICON_FAIL: 3023;\r\n        /** 反饋失敗 */\r\n        FEEDBACK_FAIL: 3024;\r\n        /** 投票解散時,再發一次投票 */\r\n        DOUBLE_VOTE_DISBAND: 3025;\r\n        /** 找不到遊戲結算資料 */\r\n        NOT_FOUND_SETTLEMENT_DATA: 3026;\r\n        /** 房間人數已滿 */\r\n        ROOM_PLAYER_BE_FULL: 3028;\r\n        /** 房主不能踢自己 */\r\n        HOST_NOT_KICK_SELF: 3030;\r\n        /** 變更房間設定失敗 */\r\n        SETTING_ROOM_FAIL: 3031;\r\n        /** 玩家已不在房間內 */\r\n        NOT_IN_THE_ROOM: 3034;\r\n        /** 創建等候室失敗 */\r\n        CREATE_ROUTINE_FAIL: 3035;\r\n        /** 加入等候室失敗 */\r\n        JOIN_ROUTINE_FAIL: 3036;\r\n        /** 加入等候室時 玩家已經在房間內 */\r\n        PLAYER_ARLEADY_INSIDE: 3039;\r\n        /** 創建自訂房間失敗(等候室: 開始遊戲) */\r\n        CREATE_CUSTOM_ROOM_FAIL: 3040;\r\n        /** 玩家餘額不足(等候室) */\r\n        ROUTINE_INSUFFICIENT_BALANCE: 3041;\r\n        /** 搜尋不到玩家 */\r\n        CANT_FIND_PLAYER: 3043;\r\n        /** 好友人數超過上限 */\r\n        FRIEND_OVER: 3044;\r\n        /** 玩家已達加入俱樂部上限 */\r\n        PLAYER_REACH_CLUB_LIMITAION: 3050;\r\n        /** 玩家已經在該俱樂部 */\r\n        PLAYER_WAS_IN_THE_CLUB: 3051;\r\n        /** 玩家不是俱樂部管理者 */\r\n        PLAYER_IS_NOT_CLUB_OWNER: 3052;\r\n        /** 該俱樂部已被刪除 */\r\n        CLUB_WAS_DELETED: 3053;\r\n        /** 俱樂部餘額不足 */\r\n        CLUB_BALANCE_IS_NOT_ENOUGH: 3054;\r\n        /** 不合法的輸入參數 提款請求金額小於等於 0 */\r\n        INVALID_INPUT: 3055;\r\n        /** 俱樂部玩家不能把自己踢出俱樂部 */\r\n        CLUB_MEMBER_CANNOT_REMOVE_HIMSELF: 3056;\r\n        /** 該玩家不是俱樂部成員 */\r\n        PLAYER_NOT_CLUB_MEMBER: 3057;\r\n        /** 俱樂部已達人數上限 */\r\n        CLUBMEMBER_FULL: 3058;\r\n        /** 俱樂部房數已滿 */\r\n        CLUB_TABLE_FULL: 3059;\r\n        /** 俱樂部名稱已經被使用 */\r\n        CLUBNAME_BE_USED: 3060;\r\n        /** 不在限紅範圍 */\r\n        BET_OVER_RANGE: 3063;\r\n        /** 阻擋試玩帳號進入好友房，俱樂部，比賽房 */\r\n        TRIAL_PLAYER_NOT_ALLOW: 3065;\r\n        /** 取得錢包失敗 失敗 */\r\n        GET_WALLET_AMOUNT_FAIL: 3996;\r\n        /** 取得聊天室 token 失敗 */\r\n        GET_CHATROOM_TOKEN_FAIL: 3997;\r\n        /** 操作失敗，不需要顯示訊息 */\r\n        NO_MESSAGE_FAIL: 3998;\r\n        /** 未知的錯誤 */\r\n        UNKNOWN_ERROR: 3999;\r\n\r\n        // 4: SDK Error 依照各類型作相對應處理\r\n        /** 請求回應 opCode異常 */\r\n        RESPONSE_OPERATION_CODE_ERROR: 4001;\r\n        /** 請求回應 請求ID異常 */\r\n        RESPONSE_REQUEST_ID_NOT_MATCHED: 4002;\r\n        /** 請求回應 伺服器事件類型異常 */\r\n        RESPONSE_SERVER_EVENT_TYPE_ERROR: 4003;\r\n        /** 請求參數型態錯誤 */\r\n        REQUEST_DATA_TYPE_ERROR: 4004;\r\n        /** 請求未知錯誤 */\r\n        REQUEST_CATCH_UNKNOWN_ERROR: 4005;\r\n        /** 登入未知錯誤 */\r\n        LOGIN_CATCH_UNKNOWN_ERROR: 4006;\r\n    };\r\n}\r\n"
        ]
      ],
      0,
      0,
      [],
      [],
      []
    ],
    [
      [
        {
          "name": "connection3",
          "rect": [
            3,
            3,
            65,
            63
          ],
          "offset": [
            0,
            0
          ],
          "originalSize": [
            65,
            63
          ],
          "capInsets": [
            0,
            0,
            0,
            0
          ]
        }
      ],
      [
        0
      ],
      0,
      [
        0
      ],
      [
        0
      ],
      [
        0
      ]
    ],
    [
      [
        [
          10,
          "MiCard",
          null
        ],
        [
          3,
          "Card",
          [
            -3
          ],
          [
            [
              20,
              2,
              1,
              -2
            ]
          ],
          [
            22,
            -1
          ],
          [
            5,
            250,
            350
          ]
        ],
        [
          11,
          "Canvas",
          "61khiwEFtCJqqoJFlyrg1b",
          [
            -5,
            1,
            -6
          ],
          [
            [
              24,
              -4
            ]
          ],
          [
            5,
            960,
            640
          ],
          [
            480,
            320,
            0,
            0,
            0,
            0,
            1,
            1,
            1,
            1
          ]
        ],
        [
          12,
          "BG",
          512,
          [
            -9
          ],
          [
            [
              25,
              1,
              0,
              -7,
              [
                6
              ],
              7
            ],
            [
              28,
              0,
              45,
              100,
              40,
              -8
            ]
          ],
          [
            5,
            100,
            40
          ]
        ],
        [
          17,
          "Btn",
          2,
          [
            3
          ],
          [
            [
              [
                29,
                2,
                -11,
                [
                  [
                    30,
                    "3846bZ8u9FHZZdiJhWCE/cx",
                    "onBtnClick",
                    -10
                  ]
                ],
                [
                  4,
                  4293322470
                ],
                [
                  4,
                  4291348680
                ],
                [
                  4,
                  3363338360
                ],
                3,
                8,
                9,
                10,
                11
              ],
              null
            ],
            4,
            0
          ],
          [
            5,
            100,
            40
          ],
          [
            250,
            250,
            0,
            0,
            0,
            0,
            1,
            1,
            1,
            1
          ]
        ],
        [
          4,
          "Back",
          true,
          1,
          [
            -13
          ],
          [
            [
              2,
              2,
              false,
              -12,
              [
                3
              ],
              4
            ]
          ],
          [
            1,
            "81yz6L+xVEVqSIce1d3kxg",
            1
          ],
          [
            5,
            216,
            300
          ]
        ],
        [
          31,
          "New Node",
          [
            2
          ],
          [
            0,
            0,
            0
          ],
          [
            0,
            0,
            0,
            0,
            0,
            0,
            1,
            1,
            1,
            1
          ]
        ],
        [
          13,
          "Main Camera",
          2,
          [
            [
              32,
              7,
              -1,
              -14
            ]
          ],
          [
            0,
            0,
            474.86608585948915,
            0,
            0,
            0,
            1,
            1,
            1,
            1
          ]
        ],
        [
          5,
          "Face",
          5,
          [
            [
              2,
              2,
              false,
              -15,
              [
                0,
                1
              ],
              2
            ]
          ],
          [
            1,
            "1b0qhwaV5KUY9iaX2ySe0O",
            1
          ],
          [
            5,
            216,
            300
          ]
        ],
        [
          14,
          "Lab",
          512,
          3,
          [
            [
              33,
              "重置",
              20,
              false,
              1,
              1,
              1,
              1,
              -16,
              [
                5
              ]
            ]
          ],
          [
            4,
            4278190080
          ],
          [
            5,
            100,
            40
          ]
        ]
      ],
      0,
      [
        0,
        3,
        1,
        0,
        1,
        1,
        0,
        -1,
        5,
        0,
        1,
        2,
        0,
        -1,
        7,
        0,
        -3,
        4,
        0,
        1,
        3,
        0,
        1,
        3,
        0,
        -1,
        9,
        0,
        7,
        4,
        0,
        1,
        4,
        0,
        1,
        5,
        0,
        -1,
        8,
        0,
        1,
        7,
        0,
        1,
        8,
        0,
        1,
        9,
        0,
        8,
        6,
        1,
        4,
        2,
        2,
        4,
        6,
        3,
        4,
        4,
        16
      ],
      [
        0,
        0,
        0,
        0,
        0,
        0,
        0,
        0,
        0,
        0,
        0,
        0
      ],
      [
        -1,
        -2,
        2,
        -1,
        2,
        -1,
        -1,
        2,
        9,
        10,
        11,
        12
      ],
      [
        4,
        1,
        5,
        1,
        6,
        1,
        1,
        2,
        2,
        11,
        2,
        12
      ]
    ],
    [
      [
        "4,9729,9729,33071,33071,0,0,0",
        -1
      ],
      [
        2
      ],
      0,
      [],
      [],
      []
    ],
    [
      [
        {
          "name": "connection2",
          "rect": [
            3,
            72,
            65,
            63
          ],
          "offset": [
            0,
            0
          ],
          "originalSize": [
            65,
            63
          ],
          "capInsets": [
            0,
            0,
            0,
            0
          ]
        }
      ],
      [
        0
      ],
      0,
      [
        0
      ],
      [
        0
      ],
      [
        0
      ]
    ],
    [
      [
        [
          0,
          "BufferPlus.d",
          "/**\n * \n */\ndeclare namespace GameClient.BufferPlus {\n\n    /**\n     * \n     * @param name \n     * @param schema \n     */\n    export function createSchema(name: string, schema: Object);\n}"
        ]
      ],
      0,
      0,
      [],
      [],
      []
    ],
    [
      [
        {
          "name": "connection5",
          "rect": [
            3,
            141,
            65,
            63
          ],
          "offset": [
            0,
            0
          ],
          "originalSize": [
            65,
            63
          ],
          "capInsets": [
            0,
            0,
            0,
            0
          ]
        }
      ],
      [
        0
      ],
      0,
      [
        0
      ],
      [
        0
      ],
      [
        0
      ]
    ],
    [
      [
        {
          "name": "default_btn_disabled",
          "rect": [
            0,
            0,
            40,
            40
          ],
          "offset": [
            0,
            0
          ],
          "originalSize": [
            40,
            40
          ],
          "capInsets": [
            12,
            12,
            12,
            12
          ]
        }
      ],
      [
        0
      ],
      0,
      [
        0
      ],
      [
        0
      ],
      [
        13
      ]
    ],
    [
      [
        [
          7,
          "micardMaterial",
          {
            "0": {
              "defines": {
                "USE_TEXTURE": false
              }
            }
          }
        ]
      ],
      0,
      0,
      [
        0
      ],
      [
        5
      ],
      [
        14
      ]
    ],
    [
      [
        {
          "name": "card-back",
          "rect": [
            1,
            1,
            214,
            299
          ],
          "offset": [
            0,
            -0.5
          ],
          "originalSize": [
            216,
            300
          ],
          "capInsets": [
            0,
            0,
            0,
            0
          ]
        }
      ],
      [
        0
      ],
      0,
      [
        0
      ],
      [
        0
      ],
      [
        15
      ]
    ],
    [
      [
        [
          0,
          "README",
          "# 可選工具"
        ]
      ],
      0,
      0,
      [],
      [],
      []
    ],
    [
      [
        [
          8,
          "micardNum",
          [
            {
              "hash": 3792415650,
              "record": null,
              "name": "micardNum|vs|fs",
              "glsl3": {
                "vert": "\nprecision highp float;\nuniform CCGlobal {\n  mat4 cc_matView;\n  mat4 cc_matViewInv;\n  mat4 cc_matProj;\n  mat4 cc_matProjInv;\n  mat4 cc_matViewProj;\n  mat4 cc_matViewProjInv;\n  vec4 cc_cameraPos;\n  vec4 cc_time;\n  mediump vec4 cc_screenSize;\n  mediump vec4 cc_screenScale;\n};\nuniform CCLocal {\n  mat4 cc_matWorld;\n  mat4 cc_matWorldIT;\n};\nin vec3 a_position;\nin vec4 a_color;\nout vec4 v_color;\nout vec4 v_thisPos;\nout vec4 v_sytrPos;\n#if USE_TEXTURE\nin vec2 a_uv0;\nout vec2 v_uv0;\n#endif\nuniform PointData {\n  vec2 firstPos;\n  vec2 secondPos;\n  float shadowDis;\n};\nvec2 getSymmetricPos(vec2 sp, vec2 pos1, vec2 pos2) {\n  float disX = pos2.x - pos1.x;\n  float disY = pos2.y - pos1.y;\n  float k1 = disY / disX;\n  float y = (sp.y * k1 * k1  + sp.x * k1 + k1 * sp.x - k1 * pos1.x * 2.0 + pos1.y * 2.0 - sp.y) / (1.0 + k1 * k1);\n  float x = (y - sp.y) / (-1.0 / k1) + sp.x;\n  return vec2(x, y);\n}\nvoid main() {\n  vec4 pos = vec4(a_position, 1.0);\n  v_thisPos = vec4(pos);\n  vec2 pos1 = vec2(firstPos.x + (secondPos.x - firstPos.x) * 0.5 , firstPos.y + (secondPos.y - firstPos.y) * 0.5);\n  vec2 sp = vec2(pos.x , pos.y);\n  if (secondPos.y - firstPos.y == 0.0) {\n    float x = pos1.x - sp.x + pos1.x;\n    if (sp.x > pos1.x) {\n      x = pos1.x - (sp.x - pos1.x);\n    }\n    pos.x = x;\n    pos.y = sp.y;\n  }\n  else{\n    float k = (secondPos.y - firstPos.y) / (secondPos.x - firstPos.x);\n    k = -1.0/k;\n    float b = pos1.y - k * pos1.x;\n    vec2 pos2 = vec2(0, b);\n    vec2 symmetricPos = getSymmetricPos(sp, pos1, pos2);\n    pos.x = symmetricPos.x;\n    pos.y = symmetricPos.y;\n  }\n  v_sytrPos = vec4(pos);\n  if (secondPos.y  < firstPos.y) {\n      pos.y = pos.y + 1.0;\n  }\n  else if (secondPos.y > firstPos.y) {\n      pos.y = pos.y - 1.0;\n  }\n  #if CC_USE_MODEL\n  pos = cc_matViewProj * cc_matWorld * pos;\n  #else\n  pos = cc_matViewProj * pos;\n  #endif\n  #if USE_TEXTURE\n  v_uv0 = a_uv0;\n  #endif\n  v_color = a_color;\n  gl_Position = pos ;\n}",
                "frag": "\nprecision highp float;\n#if USE_ALPHA_TEST\n  uniform ALPHA_TEST {\n    float alphaThreshold;\n  };\n#endif\nvoid ALPHA_TEST (in vec4 color) {\n  #if USE_ALPHA_TEST\n      if (color.a < alphaThreshold) discard;\n  #endif\n}\nvoid ALPHA_TEST (in float alpha) {\n  #if USE_ALPHA_TEST\n      if (alpha < alphaThreshold) discard;\n  #endif\n}\nin vec4 v_color;\nin vec4 v_thisPos;\nin vec4 v_sytrPos;\n#if USE_TEXTURE\nin vec2 v_uv0;\nuniform sampler2D texture;\n#endif\nuniform PointData {\n  vec2 firstPos;\n  vec2 secondPos;\n  float shadowDis;\n};\nbool isHide() {\n  if (secondPos.y == firstPos.y) {\n    float xw = (secondPos.x - firstPos.x) * 0.5;\n    if (xw > 0.0  && v_thisPos.x < xw + firstPos.x) {\n      return true;\n    }\n    else if (xw < 0.0  && v_thisPos.x > xw + firstPos.x) {\n      return true;\n    }\n  }\n  float k = (secondPos.y - firstPos.y) / (secondPos.x - firstPos.x);\n  k = -1.0 / k;\n  float b = (firstPos.y + (secondPos.y - firstPos.y) * 0.5) - k * (firstPos.x + (secondPos.x - firstPos.x) * 0.5);\n  float y = k * v_thisPos.x + b;\n  if (secondPos.y < firstPos.y && v_thisPos.y > y) {\n      return true;\n  }\n  else if (secondPos.y > firstPos.y && v_thisPos.y < y) {\n      return true;\n  }\n  return false;\n}\nvoid main() {\n  vec4 o = vec4(1, 1, 1, 1);\n  #if USE_TEXTURE\n  vec4 texture_tmp = texture(texture, v_uv0);\n  #if CC_USE_ALPHA_ATLAS_texture\n      texture_tmp.a *= texture(texture, v_uv0 + vec2(0, 0.5)).r;\n  #endif\n  #if INPUT_IS_GAMMA\n    o.rgb *= (texture_tmp.rgb * texture_tmp.rgb);\n    o.a *= texture_tmp.a;\n  #else\n    o *= texture_tmp;\n  #endif\n  #endif\n  o *= v_color;\n  float disX = v_sytrPos.x - v_thisPos.x;\n  float disY = v_sytrPos.y - v_thisPos.y;\n  float disTCur = sqrt(disX * disX + disY * disY) * 0.5;\n  if (disTCur < shadowDis) {\n    float rgbNum = 0.1;\n    rgbNum = rgbNum + (1.0 - rgbNum) * disTCur / shadowDis;\n    o = o * vec4(rgbNum, rgbNum, rgbNum, 1.0);\n  }\n  ALPHA_TEST(o);\n  if (!isHide()) {\n    o.a = 0.0;\n  }\n  gl_FragColor = o;\n}"
              },
              "glsl1": {
                "vert": "\nprecision highp float;\nuniform mat4 cc_matViewProj;\nuniform mat4 cc_matWorld;\nattribute vec3 a_position;\nattribute vec4 a_color;\nvarying vec4 v_color;\nvarying vec4 v_thisPos;\nvarying vec4 v_sytrPos;\n#if USE_TEXTURE\nattribute vec2 a_uv0;\nvarying vec2 v_uv0;\n#endif\nuniform vec2 firstPos;\nuniform vec2 secondPos;\nvec2 getSymmetricPos(vec2 sp, vec2 pos1, vec2 pos2) {\n  float disX = pos2.x - pos1.x;\n  float disY = pos2.y - pos1.y;\n  float k1 = disY / disX;\n  float y = (sp.y * k1 * k1  + sp.x * k1 + k1 * sp.x - k1 * pos1.x * 2.0 + pos1.y * 2.0 - sp.y) / (1.0 + k1 * k1);\n  float x = (y - sp.y) / (-1.0 / k1) + sp.x;\n  return vec2(x, y);\n}\nvoid main() {\n  vec4 pos = vec4(a_position, 1.0);\n  v_thisPos = vec4(pos);\n  vec2 pos1 = vec2(firstPos.x + (secondPos.x - firstPos.x) * 0.5 , firstPos.y + (secondPos.y - firstPos.y) * 0.5);\n  vec2 sp = vec2(pos.x , pos.y);\n  if (secondPos.y - firstPos.y == 0.0) {\n    float x = pos1.x - sp.x + pos1.x;\n    if (sp.x > pos1.x) {\n      x = pos1.x - (sp.x - pos1.x);\n    }\n    pos.x = x;\n    pos.y = sp.y;\n  }\n  else{\n    float k = (secondPos.y - firstPos.y) / (secondPos.x - firstPos.x);\n    k = -1.0/k;\n    float b = pos1.y - k * pos1.x;\n    vec2 pos2 = vec2(0, b);\n    vec2 symmetricPos = getSymmetricPos(sp, pos1, pos2);\n    pos.x = symmetricPos.x;\n    pos.y = symmetricPos.y;\n  }\n  v_sytrPos = vec4(pos);\n  if (secondPos.y  < firstPos.y) {\n      pos.y = pos.y + 1.0;\n  }\n  else if (secondPos.y > firstPos.y) {\n      pos.y = pos.y - 1.0;\n  }\n  #if CC_USE_MODEL\n  pos = cc_matViewProj * cc_matWorld * pos;\n  #else\n  pos = cc_matViewProj * pos;\n  #endif\n  #if USE_TEXTURE\n  v_uv0 = a_uv0;\n  #endif\n  v_color = a_color;\n  gl_Position = pos ;\n}",
                "frag": "\nprecision highp float;\n#if USE_ALPHA_TEST\n  uniform float alphaThreshold;\n#endif\nvoid ALPHA_TEST (in vec4 color) {\n  #if USE_ALPHA_TEST\n      if (color.a < alphaThreshold) discard;\n  #endif\n}\nvoid ALPHA_TEST (in float alpha) {\n  #if USE_ALPHA_TEST\n      if (alpha < alphaThreshold) discard;\n  #endif\n}\nvarying vec4 v_color;\nvarying vec4 v_thisPos;\nvarying vec4 v_sytrPos;\n#if USE_TEXTURE\nvarying vec2 v_uv0;\nuniform sampler2D texture;\n#endif\nuniform vec2 firstPos;\nuniform vec2 secondPos;\nuniform float shadowDis;\nbool isHide() {\n  if (secondPos.y == firstPos.y) {\n    float xw = (secondPos.x - firstPos.x) * 0.5;\n    if (xw > 0.0  && v_thisPos.x < xw + firstPos.x) {\n      return true;\n    }\n    else if (xw < 0.0  && v_thisPos.x > xw + firstPos.x) {\n      return true;\n    }\n  }\n  float k = (secondPos.y - firstPos.y) / (secondPos.x - firstPos.x);\n  k = -1.0 / k;\n  float b = (firstPos.y + (secondPos.y - firstPos.y) * 0.5) - k * (firstPos.x + (secondPos.x - firstPos.x) * 0.5);\n  float y = k * v_thisPos.x + b;\n  if (secondPos.y < firstPos.y && v_thisPos.y > y) {\n      return true;\n  }\n  else if (secondPos.y > firstPos.y && v_thisPos.y < y) {\n      return true;\n  }\n  return false;\n}\nvoid main() {\n  vec4 o = vec4(1, 1, 1, 1);\n  #if USE_TEXTURE\n  vec4 texture_tmp = texture2D(texture, v_uv0);\n  #if CC_USE_ALPHA_ATLAS_texture\n      texture_tmp.a *= texture2D(texture, v_uv0 + vec2(0, 0.5)).r;\n  #endif\n  #if INPUT_IS_GAMMA\n    o.rgb *= (texture_tmp.rgb * texture_tmp.rgb);\n    o.a *= texture_tmp.a;\n  #else\n    o *= texture_tmp;\n  #endif\n  #endif\n  o *= v_color;\n  float disX = v_sytrPos.x - v_thisPos.x;\n  float disY = v_sytrPos.y - v_thisPos.y;\n  float disTCur = sqrt(disX * disX + disY * disY) * 0.5;\n  if (disTCur < shadowDis) {\n    float rgbNum = 0.1;\n    rgbNum = rgbNum + (1.0 - rgbNum) * disTCur / shadowDis;\n    o = o * vec4(rgbNum, rgbNum, rgbNum, 1.0);\n  }\n  ALPHA_TEST(o);\n  if (!isHide()) {\n    o.a = 0.0;\n  }\n  gl_FragColor = o;\n}"
              },
              "builtins": {
                "globals": {
                  "blocks": [
                    {
                      "name": "CCGlobal",
                      "defines": []
                    }
                  ],
                  "samplers": []
                },
                "locals": {
                  "blocks": [
                    {
                      "name": "CCLocal",
                      "defines": []
                    }
                  ],
                  "samplers": []
                }
              },
              "defines": [
                {
                  "name": "USE_TEXTURE",
                  "type": "boolean",
                  "defines": []
                },
                {
                  "name": "CC_USE_MODEL",
                  "type": "boolean",
                  "defines": []
                },
                {
                  "name": "USE_ALPHA_TEST",
                  "type": "boolean",
                  "defines": []
                },
                {
                  "name": "CC_USE_ALPHA_ATLAS_texture",
                  "type": "boolean",
                  "defines": [
                    "USE_TEXTURE"
                  ]
                },
                {
                  "name": "INPUT_IS_GAMMA",
                  "type": "boolean",
                  "defines": [
                    "USE_TEXTURE"
                  ]
                }
              ],
              "blocks": [
                {
                  "name": "PointData",
                  "binding": 0,
                  "members": [
                    {
                      "name": "firstPos",
                      "type": 14,
                      "count": 1
                    },
                    {
                      "name": "secondPos",
                      "type": 14,
                      "count": 1
                    },
                    {
                      "name": "shadowDis",
                      "type": 13,
                      "count": 1
                    }
                  ],
                  "defines": []
                },
                {
                  "name": "ALPHA_TEST",
                  "binding": 1,
                  "members": [
                    {
                      "name": "alphaThreshold",
                      "type": 13,
                      "count": 1
                    }
                  ],
                  "defines": [
                    "USE_ALPHA_TEST"
                  ]
                }
              ],
              "samplers": [
                {
                  "name": "texture",
                  "type": 29,
                  "count": 1,
                  "binding": 30,
                  "defines": [
                    "USE_TEXTURE"
                  ]
                }
              ]
            }
          ],
          [
            {
              "passes": [
                {
                  "program": "micardNum|vs|fs",
                  "blendState": {
                    "targets": [
                      {
                        "blend": true
                      }
                    ]
                  },
                  "rasterizerState": {
                    "cullMode": 0
                  },
                  "properties": {
                    "texture": {
                      "value": "white",
                      "type": 29
                    },
                    "alphaThreshold": {
                      "type": 13,
                      "value": [
                        0.5
                      ]
                    }
                  }
                }
              ]
            }
          ]
        ]
      ],
      0,
      0,
      [],
      [],
      []
    ],
    [
      [
        [
          0,
          "README",
          "# Tools相關說明\r\n\r\n本資料夾為部門認定必要的共通工具，有認為應該是必要功能時請先找此項目\r\n\r\n## Base\r\n\r\n專案中的基礎物件。包含網路、起始頁、資料的基礎繼承項目\r\n\r\n    BaseDataManager:\r\n        * 繼承後使用，單例靜態.getInstance()取得實例。\r\n        資料管理器，用於儲存或處理專案全域的參數資料。\r\n        包含參數轉換功能，如:將伺服器分數轉換成本地金額。\r\n\r\n    BaseSocketManager:\r\n        * 繼承後使用，單例靜態.getInstance()取得實例。\r\n        連線管理器，用於處理與後端的連線。\r\n        需要各專案配合引入\"GameSDK\"、繼承後撰寫內容才能正常執行。\r\n\r\n    BaseLoading:\r\n        * 繼承後使用，掛載於Canvas上。\r\n        起始讀取頁，用於專案的起始進入點，初始化資料、網路、音效設定、log工具等等項目。\r\n\r\n    Singleton:\r\n        * 繼承後使用。\r\n        單例物件，用於需要單例的項目。\r\n        繼承後物件即擁有單例，使用靜態函式.getInstance()取得實例。\r\n\r\n    ExternalGameConfig.d:\r\n        * 不須特別做處理。\r\n        外部遊戲設定的結構描述，讓CICD帶入參數到專案，需要使用\"build-templates\"子模組。\r\n        參照路徑：\"/build-templates/web-mobile/conf.d/game.json\"\r\n\r\n## Socket\r\n連線相關資料，有連線Error清單與處理、連線\"GameSDK\"功能的描述檔等。\r\n\r\n    * 通常情況不用特別去看內容。\r\n    僅需要額外增加Error code才處理。\r\n\r\n## PlatformManager\r\n平台管理器，對裝置或網頁發送命令，如:關閉WebView返回平台。\r\n\r\n    * 單例靜態.getInstance()取得實例。\r\n    目前輸出專案形式APP端似乎不會串接此功能，但以防未來突然再度使用。\r\n\r\n## SoundManager\r\n聲音管理器，用於處理音樂音效的開關、音量、儲存設定。\r\n\r\n    * 單例靜態.getInstance()取得實例。\r\n    BaseLoading已做初始化處理，並設定於cc.audioEngine內，不用另外做讀取動作。\r\n    專案中可直接使用cc.audioEngine播放。\r\n\r\n## Query\r\n訪問網址列參數，用於取得url中的token等參數值。\r\n\r\n    * 靜態函式，直接呼叫使用。\r\n\r\n## ErudaLog\r\nlog工具，可以從裝置看log並輸入指令。\r\n\r\n    * 單例靜態.getInstance()取得實例。\r\n    BaseLoading已做初始化處理，只需在APP端的url輸入log=1，畫面就會出現\"齒輪\"圖開啟log視窗。\r\n\r\n## Localization\r\n多語系工具，依據語系替換文字、圖檔、音檔，需要使用\"packages\"子模組。\r\n\r\n    Localize\r\n        * 組件掛載自訂工具>多語系\r\n        自動計算路徑，並依照語系資料夾路徑自動替換圖檔或文字。\r\n        圖片資料路徑參考：\"resource/G1_XXXXX/localize/zh-cn/image\"\r\n\r\n    LocalizationManager\r\n        * import引用LocalizationManager\r\n        LocalizationManager.getInstance().get(\"名稱\")，取得語系文件csv對應字串\r\n        文件路徑參考：\"resource/G1_XXXXX/localize/Language - G1_XXXXX.csv\""
        ]
      ],
      0,
      0,
      [],
      [],
      []
    ],
    [
      [
        [
          0,
          "Schema.d",
          "declare namespace GameClient {\r\n    /** LoginRes 回應登入資料 */\r\n    export interface LoginRes {\r\n        /** 玩家ID */\r\n        playerId: string;\r\n        /** 遊戲ID */\r\n        gameId: number;\r\n        /** 暱稱 */\r\n        nickname: string;\r\n        /** 語言 */\r\n        language: string;\r\n        /** 登入時間 */\r\n        timestamp: number;\r\n        /** 玩家餘額 */\r\n        balance: number;\r\n        /** 斷線重連 廳別 */\r\n        themeType: number;\r\n        /** 頭像 */\r\n        icon?: number;\r\n        /** 頭像框 */\r\n        iconFrame?: number;\r\n        /** 是否在房間 */\r\n        isInTheRoom: boolean;\r\n        /** 是否有未查看結算 */\r\n        isUnsettlementData: boolean;\r\n        /** 是否被踢出等待室 */\r\n        isKickData: boolean;\r\n        /** 房間攜帶金額設定倍數 */\r\n        gameSetting: { carryAmounts: IRoomSetting[]; gameId: number };\r\n        /** 渠道授權資料 */\r\n        ecSiteAuthData: EcSiteAuthData;\r\n        /** 最近登入的遊戲 */\r\n        recentGamesLaunched: string[];\r\n        /** ecSiteId */\r\n        ecSiteId: number;\r\n        /** 遊戲ID顯示方式 1: 帳號 2: 暱稱 */\r\n        playerDisplayNameType: number;\r\n    }\r\n\r\n    export interface IAuthorizedGames {\r\n        gameId: string;\r\n        gameCategory: number;\r\n        gameTags: number[];\r\n        gameType: number;\r\n        gameActive: boolean;\r\n    }\r\n\r\n    export interface IAuthorizedLobbies {\r\n        lobbyId: string;\r\n        lobbyGameList: string[];\r\n    }\r\n\r\n    export interface GameTip {\r\n        reqGameId: number;\r\n        targetGameId: number;\r\n        IsSame: boolean;\r\n    }\r\n\r\n    export interface IRoomSetting {\r\n        themeId: string;\r\n        amount: number;\r\n        isOpen: boolean;\r\n    }\r\n\r\n    export interface ChatRoomToken {\r\n        token: string;\r\n    }\r\n\r\n    /** 取得當前進行中遊戲列表 */\r\n    export interface GetPlayerOnlineListRes {\r\n        /** 當前進行中遊戲列表 */\r\n        playerOnlineList: string[];\r\n    }\r\n\r\n    /** RestoreRes */\r\n    export interface RestoreRes {\r\n        /** url */\r\n        url: string;\r\n    }\r\n\r\n    /** 好友清單資料介面 */\r\n    export interface IFriendListData {\r\n        playerId: string;\r\n        nickName: string;\r\n        icon: number;\r\n        iconFrame: number;\r\n        remark: string;\r\n        status: number;\r\n        winScore: number;\r\n        lastSignOutTime: number;\r\n    }\r\n\r\n    /** 好友邀請清單資料介面 */\r\n    export interface IFriendApplyListData {\r\n        playerId: string;\r\n        nickName: string;\r\n        icon: number;\r\n    }\r\n\r\n    /** 好友推薦清單資料介面 */\r\n    export interface IFriendRecommendListData {\r\n        playerId: string;\r\n        nickName: string;\r\n        icon: number;\r\n        iconFrame: number;\r\n        isStrange: boolean;\r\n    }\r\n\r\n    /** 好友搜尋結果資料介面 */\r\n    export interface IFriendFindData {\r\n        playerId: string;\r\n        nickName: string;\r\n        icon: number;\r\n    }\r\n\r\n    /** 好友等待室邀請通知的資料 */\r\n    export interface IFriendInviteData {\r\n        nickname: string;\r\n        partyId: number;\r\n        routineId: string;\r\n        gameId: number;\r\n    }\r\n\r\n    export interface IFriendComfirmFriendData {\r\n        comfirmFriendList: IFriendListData[];\r\n        fullFriendPlayer: string[];\r\n    }\r\n\r\n    /** 俱樂部資料 */\r\n    export interface IClubInfo {\r\n        clubName: string;\r\n        clubId: string;\r\n        clubOwner: string;\r\n        memberNumber: number;\r\n        tableNumber: number;\r\n        permissionLevel: number;\r\n        onlineUserNumber: number;\r\n    }\r\n\r\n    /** 俱樂部成員資料 */\r\n    export interface IClubMemberInfo {\r\n        nickname: string;\r\n        lastLoginTime: number;\r\n        permissionLevel: number;\r\n        playerId: number;\r\n    }\r\n\r\n    export interface IClubRoutineList {\r\n        loungeId: string;\r\n        createTimestamp: number;\r\n        seatMaximum: number;\r\n        ante: number;\r\n        gameId: string;\r\n        loungeStatus: number;\r\n        playerInfos: {\r\n            icon: number;\r\n            iconFrame: number;\r\n        }[];\r\n    }\r\n\r\n    export interface EcSiteAuthData {\r\n        lobbySetting: lobbySetting[];\r\n    }\r\n\r\n    /** 大廳設定 */\r\n    export interface lobbySetting {\r\n        features: lobbyfeatures;\r\n        lobbyCategories: lobbyCategories;\r\n        lobbyId: string;\r\n    }\r\n\r\n    /** 大廳右上功能相關 */\r\n    export interface lobbyfeatures {\r\n        announcement: boolean;\r\n        feedback: boolean;\r\n        friends: boolean;\r\n        help: boolean;\r\n        history: boolean;\r\n        mailbox: boolean;\r\n        missions: boolean;\r\n        settings: boolean;\r\n        store: boolean;\r\n    }\r\n\r\n    /** 大廳類別相關 */\r\n    export interface lobbyCategories {\r\n        orderSetting: number[];\r\n        gamesOrder: number[];\r\n        visibilities: lobbyVisibilities[];\r\n    }\r\n\r\n    /** 大廳類別顯示 */\r\n    export interface lobbyVisibilities {\r\n        games: number[];\r\n        key: number;\r\n        show: boolean;\r\n    }\r\n\r\n    /** 取得公告通知 */\r\n    export interface IMarqueeCongratsData {\r\n        content: string[];\r\n    }\r\n\r\n    export interface IMarqueeBroadcastData {\r\n        content: string;\r\n        url: string;\r\n    }\r\n\r\n    /** 公告排序 */\r\n    export interface IRulePattern {\r\n        contentType: string;\r\n        index: number;\r\n    }\r\n}\r\n"
        ]
      ],
      0,
      0,
      [],
      [],
      []
    ],
    [
      [
        [
          9,
          "NetworkSignal"
        ],
        [
          15,
          "NetworkSignal",
          [
            -5,
            -6,
            -7
          ],
          [
            [
              35,
              [
                100,
                500,
                1000,
                5000
              ],
              -4,
              -3,
              -2,
              [
                4,
                5,
                6,
                7
              ]
            ]
          ],
          [
            1,
            "9a2mj8sBBAMIXH6PIhoFxV",
            -1
          ]
        ],
        [
          18,
          "DelayTime",
          1,
          [
            [
              -8,
              [
                36,
                -9,
                [
                  4,
                  4278206464
                ]
              ]
            ],
            1,
            4
          ],
          [
            1,
            "c1PFwU101HlYqTyhU6XmXF",
            1
          ],
          [
            4,
            4278255360
          ],
          [
            5,
            38.02,
            17.119999999999997
          ],
          [
            0,
            1,
            0.5
          ],
          [
            18,
            -30,
            0,
            0,
            0,
            0,
            1,
            0.9,
            0.9,
            1
          ]
        ],
        [
          16,
          "Background",
          1,
          [
            [
              26,
              "connection_frame<Sprite>",
              1,
              0,
              -10,
              [
                0
              ],
              1
            ]
          ],
          [
            1,
            "52u5myK9VLh5m7s/h8InEd",
            1
          ],
          [
            5,
            59,
            62
          ],
          [
            0,
            -11.8,
            0,
            0,
            0,
            0,
            1,
            0.9,
            0.9,
            1
          ]
        ],
        [
          19,
          "Singal",
          1,
          [
            -11
          ],
          [
            1,
            "7462aLZolAapoq7+EYxrtU",
            1
          ],
          [
            5,
            38,
            36
          ],
          [
            0,
            -4.923,
            0,
            0,
            0,
            0,
            1,
            0.9,
            0.9,
            1
          ]
        ],
        [
          27,
          "Singal<Sprite>",
          4,
          [
            2
          ]
        ],
        [
          34,
          "DelayTime<Label>",
          "600ms",
          12,
          12,
          2,
          1,
          2,
          [
            3
          ]
        ]
      ],
      0,
      [
        0,
        3,
        1,
        0,
        13,
        5,
        0,
        14,
        6,
        0,
        1,
        1,
        0,
        -1,
        3,
        0,
        -2,
        4,
        0,
        -3,
        2,
        0,
        -1,
        6,
        0,
        1,
        2,
        0,
        1,
        3,
        0,
        -1,
        5,
        0,
        6,
        1,
        11
      ],
      [
        0,
        0,
        0,
        0,
        0,
        0,
        0,
        0,
        5
      ],
      [
        -1,
        2,
        -1,
        -1,
        -1,
        -2,
        -3,
        -4,
        2
      ],
      [
        1,
        7,
        1,
        1,
        8,
        9,
        10,
        3,
        3
      ]
    ],
    [
      [
        {
          "name": "img_connection3",
          "rect": [
            3,
            348,
            38,
            36
          ],
          "offset": [
            -1,
            1
          ],
          "originalSize": [
            50,
            40
          ],
          "capInsets": [
            0,
            0,
            0,
            0
          ]
        }
      ],
      [
        0
      ],
      0,
      [
        0
      ],
      [
        0
      ],
      [
        0
      ]
    ],
    [
      [
        {
          "name": "img_connection4",
          "rect": [
            3,
            390,
            38,
            36
          ],
          "offset": [
            -1,
            1
          ],
          "originalSize": [
            50,
            40
          ],
          "capInsets": [
            0,
            0,
            0,
            0
          ]
        }
      ],
      [
        0
      ],
      0,
      [
        0
      ],
      [
        0
      ],
      [
        0
      ]
    ],
    [
      [
        [
          0,
          "Readme",
          "# I18N 使用說明\r\n\r\n### 資料夾路徑規範\r\n> {Bundle Folder}/Resources/Localize/{Language}/{Custom Path}.....\r\n\r\n路徑命名不可有任何不同，包含大小寫\r\n\r\n所有多語系資源的自訂路徑在不同的語系資料夾下必須相同\r\n\r\n- Bundle Folder: 各專案 Bundle 資料夾 -> G1、G2、...\r\n- Language: 語言，依照 Token 裡面後端給的語言作為依據 -> zh-cn、en-us\r\n- Custom Path: 資源自訂路徑，不同語系下的資源必須相同路徑\r\n\r\n----\r\n\r\n### 多國語系使用對象\r\n- cc.Label: 文字\r\n- cc.RichText: 富文字\r\n- cc.EditBox: 輸入框\r\n- sp.Skeleton: spine 物件\r\n- cc.Sprite: 圖片物件\r\n\r\n----\r\n\r\n### 多語系工具初始化流程\r\n在 SceneManager.changeScene 進行遊戲進入或跳轉的時候會在 Bundle 讀取後\r\n\r\n確認 Token 給的語言是什麼並初始化語言檔\r\n\r\n每次進行跳轉都會重新讀取 Common 的語言檔\r\n\r\n及讀取跳轉目標專案自有的語言檔\r\n\r\n----\r\n\r\n### 多語系文字語言檔(.csv)\r\n所有多語系文字依賴文字設定檔(.csv)\r\n\r\n在 Google Sheet 上面編輯再輸出為 csv 存放在 Cocos 專案內\r\n\r\n存放路徑為\r\n> {Bundle Folder}/Resources/Localize/{CSV File}\r\n\r\n- Bundle Folder: 各專案 Bundle 資料夾 -> G1、G2、...\r\n- CSV File: 檔案放置位置\r\n\r\n所有語言 csv 在 Google sheet 上面命名請以遊戲編號命名，如: G1、G2、...\r\n\r\n輸出到專案內檔名會是 Language - {GameID}\r\n\r\n若命名錯誤會造成文字檔初始化失敗\r\n\r\n這點務必注意\r\n\r\n----\r\n\r\n### 多語系插件使用方式\r\n1. 在目標物件上使用 Localize.ts 這個插件，可在 自訂工具 > 多語系 找到\r\n2. 選取物件類型: TEXT / IMAGE / SPINE\r\n3. 若資源放置位置正確，會自動設定好該物件使用的多語系資源路徑\r\n4. Spine 物件若需要預設 Animation 的播放，必須在 Editor 中選好，並且所有語系的 spine animation name 必須相同(這點務必注意並請美術配合)\r\n\r\n----\r\n\r\n### 注意事項\r\n- 在 MacOS 會把所有 Label 的 FontFamily 設定為 Arial，以避免字距寬度不同造成手動換行的異常\r\n- 資源路徑在不同語系資料夾下一定要相同，否則在依照語系替換資源的時候會有問題\r\n- 語言檔、資料夾及檔案命名務必注意大小寫及命名規則"
        ]
      ],
      0,
      0,
      [],
      [],
      []
    ],
    [
      [
        "0,9729,9729,33071,33071,0,0,1",
        -1
      ],
      [
        2
      ],
      0,
      [],
      [],
      []
    ],
    [
      [
        [
          7,
          "micardMaterialNum",
          {
            "0": {
              "defines": {}
            }
          }
        ]
      ],
      0,
      0,
      [
        0
      ],
      [
        5
      ],
      [
        16
      ]
    ],
    [
      [
        [
          9,
          "Card"
        ],
        [
          3,
          "Card",
          [
            -3
          ],
          [
            [
              21,
              1,
              -2
            ]
          ],
          [
            23,
            -1,
            0
          ],
          [
            5,
            250,
            350
          ]
        ],
        [
          4,
          "Back",
          true,
          1,
          [
            -5
          ],
          [
            [
              2,
              2,
              false,
              -4,
              [
                3
              ],
              4
            ]
          ],
          [
            6,
            "81yz6L+xVEVqSIce1d3kxg",
            1,
            0
          ],
          [
            5,
            216,
            300
          ]
        ],
        [
          5,
          "Face",
          2,
          [
            [
              2,
              2,
              false,
              -6,
              [
                0,
                1
              ],
              2
            ]
          ],
          [
            6,
            "1b0qhwaV5KUY9iaX2ySe0O",
            1,
            0
          ],
          [
            5,
            216,
            300
          ]
        ]
      ],
      0,
      [
        0,
        3,
        1,
        0,
        1,
        1,
        0,
        -1,
        2,
        0,
        1,
        2,
        0,
        -1,
        3,
        0,
        1,
        3,
        0,
        6,
        1,
        6
      ],
      [
        0,
        0,
        0,
        0,
        0
      ],
      [
        -1,
        -2,
        2,
        -1,
        2
      ],
      [
        4,
        1,
        5,
        1,
        6
      ]
    ],
    [
      [
        [
          8,
          "micard",
          [
            {
              "hash": 1246854976,
              "record": null,
              "name": "micard|vs|fs",
              "glsl3": {
                "vert": "\nprecision highp float;\nuniform CCGlobal {\n  mat4 cc_matView;\n  mat4 cc_matViewInv;\n  mat4 cc_matProj;\n  mat4 cc_matProjInv;\n  mat4 cc_matViewProj;\n  mat4 cc_matViewProjInv;\n  vec4 cc_cameraPos;\n  vec4 cc_time;\n  mediump vec4 cc_screenSize;\n  mediump vec4 cc_screenScale;\n};\nuniform CCLocal {\n  mat4 cc_matWorld;\n  mat4 cc_matWorldIT;\n};\nin vec3 a_position;\nin vec4 a_color;\nout vec4 v_color;\nout vec4 v_thisPos;\n#if USE_TEXTURE\nin vec2 a_uv0;\nout vec2 v_uv0;\n#endif\nuniform PointData {\n  vec2 firstPos;\n  vec2 secondPos;\n};\nvoid main() {\n  vec4 pos = vec4(a_position,1.0);\n  v_thisPos = vec4(pos);\n  #if CC_USE_MODEL\n  pos = cc_matViewProj * cc_matWorld * pos;\n  #else\n  pos = cc_matViewProj * pos;\n  #endif\n  #if USE_TEXTURE\n  v_uv0 = a_uv0;\n  #endif\n  v_color = a_color;\n  gl_Position = pos ;\n}",
                "frag": "\nprecision highp float;\n#if USE_ALPHA_TEST\n  uniform ALPHA_TEST {\n    float alphaThreshold;\n  };\n#endif\nvoid ALPHA_TEST (in vec4 color) {\n  #if USE_ALPHA_TEST\n      if (color.a < alphaThreshold) discard;\n  #endif\n}\nvoid ALPHA_TEST (in float alpha) {\n  #if USE_ALPHA_TEST\n      if (alpha < alphaThreshold) discard;\n  #endif\n}\nin vec4 v_color;\nin vec4 v_thisPos;\n#if USE_TEXTURE\nin vec2 v_uv0;\nuniform sampler2D texture;\n#endif\nuniform PointData {\n  vec2 firstPos;\n  vec2 secondPos;\n};\nbool isHide() {\n  if (secondPos.y == firstPos.y) {\n    float xw = (secondPos.x - firstPos.x) * 0.5;\n    if (xw > 0.0  && v_thisPos.x < xw + firstPos.x) {\n      return true;\n    }\n    else if (xw < 0.0  && v_thisPos.x > xw + firstPos.x) {\n      return true;\n    }\n  }\n  float k = (secondPos.y - firstPos.y) / (secondPos.x - firstPos.x);\n  k = -1.0 / k;\n  float b = (firstPos.y + (secondPos.y - firstPos.y) * 0.5) - k * (firstPos.x + (secondPos.x - firstPos.x) * 0.5);\n  float y = k * v_thisPos.x + b;\n  if (secondPos.y < firstPos.y && v_thisPos.y > y) {\n      return true;\n  }\n  else if (secondPos.y > firstPos.y && v_thisPos.y < y) {\n      return true;\n  }\n  return false;\n}\nvoid main() {\n  vec4 o = vec4(1, 1, 1, 1);\n  #if USE_TEXTURE\n  vec4 texture_tmp = texture(texture, v_uv0);\n  #if CC_USE_ALPHA_ATLAS_texture\n      texture_tmp.a *= texture(texture, v_uv0 + vec2(0, 0.5)).r;\n  #endif\n  #if INPUT_IS_GAMMA\n    o.rgb *= (texture_tmp.rgb * texture_tmp.rgb);\n    o.a *= texture_tmp.a;\n  #else\n    o *= texture_tmp;\n  #endif\n  #endif\n  o *= v_color;\n  ALPHA_TEST(o);\n  if (isHide()){\n    o.a = 0.0;\n  }\n  gl_FragColor = o;\n}"
              },
              "glsl1": {
                "vert": "\nprecision highp float;\nuniform mat4 cc_matViewProj;\nuniform mat4 cc_matWorld;\nattribute vec3 a_position;\nattribute vec4 a_color;\nvarying vec4 v_color;\nvarying vec4 v_thisPos;\n#if USE_TEXTURE\nattribute vec2 a_uv0;\nvarying vec2 v_uv0;\n#endif\nvoid main() {\n  vec4 pos = vec4(a_position,1.0);\n  v_thisPos = vec4(pos);\n  #if CC_USE_MODEL\n  pos = cc_matViewProj * cc_matWorld * pos;\n  #else\n  pos = cc_matViewProj * pos;\n  #endif\n  #if USE_TEXTURE\n  v_uv0 = a_uv0;\n  #endif\n  v_color = a_color;\n  gl_Position = pos ;\n}",
                "frag": "\nprecision highp float;\n#if USE_ALPHA_TEST\n  uniform float alphaThreshold;\n#endif\nvoid ALPHA_TEST (in vec4 color) {\n  #if USE_ALPHA_TEST\n      if (color.a < alphaThreshold) discard;\n  #endif\n}\nvoid ALPHA_TEST (in float alpha) {\n  #if USE_ALPHA_TEST\n      if (alpha < alphaThreshold) discard;\n  #endif\n}\nvarying vec4 v_color;\nvarying vec4 v_thisPos;\n#if USE_TEXTURE\nvarying vec2 v_uv0;\nuniform sampler2D texture;\n#endif\nuniform vec2 firstPos;\nuniform vec2 secondPos;\nbool isHide() {\n  if (secondPos.y == firstPos.y) {\n    float xw = (secondPos.x - firstPos.x) * 0.5;\n    if (xw > 0.0  && v_thisPos.x < xw + firstPos.x) {\n      return true;\n    }\n    else if (xw < 0.0  && v_thisPos.x > xw + firstPos.x) {\n      return true;\n    }\n  }\n  float k = (secondPos.y - firstPos.y) / (secondPos.x - firstPos.x);\n  k = -1.0 / k;\n  float b = (firstPos.y + (secondPos.y - firstPos.y) * 0.5) - k * (firstPos.x + (secondPos.x - firstPos.x) * 0.5);\n  float y = k * v_thisPos.x + b;\n  if (secondPos.y < firstPos.y && v_thisPos.y > y) {\n      return true;\n  }\n  else if (secondPos.y > firstPos.y && v_thisPos.y < y) {\n      return true;\n  }\n  return false;\n}\nvoid main() {\n  vec4 o = vec4(1, 1, 1, 1);\n  #if USE_TEXTURE\n  vec4 texture_tmp = texture2D(texture, v_uv0);\n  #if CC_USE_ALPHA_ATLAS_texture\n      texture_tmp.a *= texture2D(texture, v_uv0 + vec2(0, 0.5)).r;\n  #endif\n  #if INPUT_IS_GAMMA\n    o.rgb *= (texture_tmp.rgb * texture_tmp.rgb);\n    o.a *= texture_tmp.a;\n  #else\n    o *= texture_tmp;\n  #endif\n  #endif\n  o *= v_color;\n  ALPHA_TEST(o);\n  if (isHide()){\n    o.a = 0.0;\n  }\n  gl_FragColor = o;\n}"
              },
              "builtins": {
                "globals": {
                  "blocks": [
                    {
                      "name": "CCGlobal",
                      "defines": []
                    }
                  ],
                  "samplers": []
                },
                "locals": {
                  "blocks": [
                    {
                      "name": "CCLocal",
                      "defines": []
                    }
                  ],
                  "samplers": []
                }
              },
              "defines": [
                {
                  "name": "USE_TEXTURE",
                  "type": "boolean",
                  "defines": []
                },
                {
                  "name": "CC_USE_MODEL",
                  "type": "boolean",
                  "defines": []
                },
                {
                  "name": "USE_ALPHA_TEST",
                  "type": "boolean",
                  "defines": []
                },
                {
                  "name": "CC_USE_ALPHA_ATLAS_texture",
                  "type": "boolean",
                  "defines": [
                    "USE_TEXTURE"
                  ]
                },
                {
                  "name": "INPUT_IS_GAMMA",
                  "type": "boolean",
                  "defines": [
                    "USE_TEXTURE"
                  ]
                }
              ],
              "blocks": [
                {
                  "name": "PointData",
                  "binding": 0,
                  "members": [
                    {
                      "name": "firstPos",
                      "type": 14,
                      "count": 1
                    },
                    {
                      "name": "secondPos",
                      "type": 14,
                      "count": 1
                    }
                  ],
                  "defines": []
                },
                {
                  "name": "ALPHA_TEST",
                  "binding": 1,
                  "members": [
                    {
                      "name": "alphaThreshold",
                      "type": 13,
                      "count": 1
                    }
                  ],
                  "defines": [
                    "USE_ALPHA_TEST"
                  ]
                }
              ],
              "samplers": [
                {
                  "name": "texture",
                  "type": 29,
                  "count": 1,
                  "binding": 30,
                  "defines": [
                    "USE_TEXTURE"
                  ]
                }
              ]
            }
          ],
          [
            {
              "passes": [
                {
                  "program": "micard|vs|fs",
                  "blendState": {
                    "targets": [
                      {
                        "blend": true
                      }
                    ]
                  },
                  "rasterizerState": {
                    "cullMode": 0
                  },
                  "properties": {
                    "texture": {
                      "value": "white",
                      "type": 29
                    },
                    "alphaThreshold": {
                      "type": 13,
                      "value": [
                        0.5
                      ]
                    }
                  }
                }
              ]
            }
          ]
        ]
      ],
      0,
      0,
      [],
      [],
      []
    ],
    [
      [
        [
          0,
          "Tool.d",
          "\r\ndeclare namespace GameClient {\r\n    /**\r\n     * 時間格式化\r\n     * @param value UTC 13碼 時間\r\n     * @returns {string}string `{year}/{month}/{day} {hour}:{minute}:{second}`;\r\n     */\r\n    export function convertTimestamp(value: number): string;\r\n    /**\r\n     * 編碼遊戲紀錄序號\r\n     * @param encodeType 編碼方式 => hex: 16進位、dec: 10進位\r\n     * @param grid 記錄序號\r\n     */\r\n    export function encodeGRId(encodeType: string = 'hex', grid: string): string;\r\n\r\n    /** 獲取wager auth token response */\r\n    export type WagerTokenRes = {\r\n        /** 資料 */\r\n        data: {\r\n            /** 玩家注單金鑰 */\r\n            token: string,\r\n        }\r\n    }\r\n\r\n    /** 獲取注單列表 response */\r\n    export type WagersRes = {\r\n        /** 注單列表資料 */\r\n        data: WagersData,\r\n    }\r\n\r\n    /**\r\n     * 捕魚注單回傳\r\n     */\r\n    export type FishHistoryRes = {\r\n        data: {\r\n            /** 回傳代碼 */\r\n            statusCode: string;\r\n            /** 額外的訊息 */\r\n            message: string;\r\n            /** 紀錄總筆數 */\r\n            totalCounts: number;\r\n            /** 紀錄總頁數 */\r\n            totalPages: number;\r\n            /** 資料 */\r\n            data: FishHistoryItem[];\r\n        }\r\n    }\r\n\r\n    /** 捕魚注單子項目格式 */\r\n    export type FishHistoryItem = {\r\n        /** 關聯注單 Id */\r\n        mgrId: string;\r\n        /** 遊戲注單 Id */\r\n        grId: string;\r\n        /** 派彩金额 */\r\n        memberIncome: number;\r\n        /** 投注额 */\r\n        memberOutcome: number;\r\n        /** 盈利 */\r\n        profit: number;\r\n        /** 房間類型 */\r\n        themeId: string;\r\n        /** 遊戲結束時間 */\r\n        endTimestamp: number;\r\n        /** 關聯注單資訊 */\r\n        relatedGrIdDatas: {\r\n            grId: string,\r\n            srId: string,\r\n            timestamp: number\r\n        }[];\r\n        /** 注單詳細資訊 */\r\n        summary: {\r\n            /** 擊發數量 */\r\n            totalHitCount: number,\r\n            data: {\r\n                /** 砲彈金額 */\r\n                ante: number,\r\n                /** 捕獲數量 */\r\n                count: number,\r\n                /** 捕獲魚種 */\r\n                fishType: number,\r\n                /** 幸運輪 */\r\n                luckyMultiples: number[],\r\n                /** 盈虧 */\r\n                pay: number\r\n            }[]\r\n        };\r\n    }\r\n\r\n    /** 注單列表資料 */\r\n    export type WagersData = {\r\n        /** 紀錄總筆數 */\r\n        totalCounts: number,\r\n        /** 紀錄總頁數 */\r\n        totalPages: number,\r\n        /** 注單列表 */\r\n        items: {\r\n            /** 詳細注單的編號 */\r\n            wid: string,\r\n            /** 本紀錄下注金額 */\r\n            betAmount: number,\r\n            /** 遊戲名稱 */\r\n            gameName: string,\r\n            /** 本紀錄單總結果金額 */\r\n            result: number,\r\n            /** 單筆下注時間 */\r\n            betTimestamp: number,\r\n            /** 遊戲紀錄單號 */\r\n            gameRecordId: string,\r\n            /** 廳別編號 */\r\n            themeId: string,\r\n        }[],\r\n    };\r\n\r\n    /** 獲取注單列表 response */\r\n    export type MergedRecordsRes = {\r\n        /** 注單列表資料 */\r\n        data: MergedRecordsData,\r\n    }\r\n\r\n    /** 獲取注單列表 response */\r\n    export type MergedRecordsDetailRes = {\r\n        data: {\r\n            statusCode: string,\r\n            /** 注單列表資料 */\r\n            data: MergedRecordDetailData,\r\n        }\r\n    }\r\n\r\n    /** 獲取捕魚注單詳細資料 response */\r\n    export type FishMergedRecordsDetailRes = {\r\n        data: {\r\n            statusCode: string,\r\n            data: FishMergedRecordDetailData,\r\n        }\r\n    }\r\n\r\n    export type MergedRecordDetailData = {\r\n        \"hostJuiceAmount\": 0.1,\r\n        \"hostPlayerId\": string,\r\n        \"playerData\": MergedRecordPlayerData[]\r\n    }\r\n\r\n    export type FishMergedRecordDetailData = {\r\n        /** 派彩金額 */\r\n        memberIncome: number;\r\n        /** 投注額 */\r\n        memberOutcome: number;\r\n        /** 盈利 */\r\n        profit: number;\r\n        /** 關聯注單 */\r\n        relatedGrIdDatas: RelatedDetailData[];\r\n        summary: FishSummaryData;\r\n    }\r\n\r\n    /** 關聯注單 */\r\n    export type RelatedDetailData = {\r\n        /** game record id */\r\n        grId: string;\r\n        /** session record id */\r\n        srId: string;\r\n        /** time */\r\n        timestamp: number;\r\n    }\r\n\r\n    /** 捕魚詳細資料 */\r\n    export type FishSummaryData = {\r\n        /** 擊發數量 */\r\n        totalHitCount: number;\r\n        data: FishSummaryDetailData[]\r\n    }\r\n\r\n    /** 捕魚詳細子項目資料 */\r\n    export type FishSummaryDetailData = {\r\n        /** 砲彈金額 */\r\n        ante: number;\r\n        /** 捕獲數量 */\r\n        count: number;\r\n        /** 捕獲魚種 */\r\n        fishType: number;\r\n        /** 幸運輪 */\r\n        luckyMultiples: number[];\r\n        /** 金額 */\r\n        pay: number;\r\n    }\r\n\r\n    export type MergedRecordPlayerData = {\r\n        \"gameRecordId\": string,\r\n        \"gameId\": string,\r\n        \"themeId\": string,\r\n        \"roomId\": string,\r\n        \"gameType\": string,\r\n        \"startTimestamp\": number,\r\n        \"endTimestamp\": number,\r\n        \"mergedGRId\": string,\r\n        \"playersData\": MergedRecordPlayersData[]\r\n    }\r\n\r\n    export type MergedRecordPlayersData = {\r\n        \"playerId\": string,\r\n        \"nickname\": string,\r\n        \"icon\": string,\r\n        \"betAmount\": number,\r\n        \"validBetAmount\": number,\r\n        \"profit\": number,\r\n        \"payoutAmount\": number\r\n    }\r\n\r\n\r\n    /** 注單列表資料 */\r\n    export type MergedRecordsData = {\r\n        /** 紀錄總筆數 */\r\n        totalCounts: number,\r\n        /** 紀錄總頁數 */\r\n        totalPages: number,\r\n        /** 注單列表 */\r\n        data: MergedRecordsGameData[],\r\n    };\r\n\r\n    export type MergedRecordsGameData = {\r\n        /** 場號 */\r\n        mergedId: string,\r\n        /** 場號 */\r\n        gameId: string,\r\n        /** 幾局 */\r\n        round: number,\r\n        /** 幾局 */\r\n        shouldRounds: number,\r\n        /** 幾局 */\r\n        actualRounds: number,\r\n        /** 起始時間 UTC milseconds */\r\n        startTimestamp: number,\r\n        endTimestamp: number,\r\n        /** 玩家資料 */\r\n        playersData: MergedRecordsPlayerData[],\r\n        /** 房間類型 - -1是全部(搜尋時使用) 3是比賽房 4是好友房 5是俱樂部 */\r\n        gameType: number;\r\n    }\r\n\r\n    export type MergedRecordsPlayerData = {\r\n        /** user name */\r\n        nickname: string,\r\n        /** user icon */\r\n        icon: string,\r\n        /** user iconFrame */\r\n        iconFrame: string,\r\n        betAmount: number,\r\n        validBetAmount: number,\r\n        profit: number,\r\n        payoutAmount: number,\r\n    }\r\n\r\n    /** 比賽房注單資料 */\r\n    export type CompetitionRecordsData = {\r\n        /** 紀錄總筆數 */\r\n        totalCounts: number,\r\n        /** 紀錄總頁數 */\r\n        totalPages: number,\r\n        /** 注單列表 */\r\n        data: {\r\n            data: CompetitionMergeRecord[]\r\n        }\r\n    };\r\n\r\n    /** 比賽房注單物件 */\r\n    export type CompetitionMergeRecord = {\r\n        mgrId: string,\r\n        gameId: number,\r\n        gameName: string,\r\n        competitionType: number,\r\n        competitionName: string,\r\n        scoreType: number,\r\n        startTimestamp: number,\r\n        ante: number,\r\n        price: number,\r\n        rank: number,\r\n        reward: {\r\n            itemKey: string,\r\n            itemCount: number\r\n        }\r\n    }\r\n\r\n    /** 比賽房注單細項資料 */\r\n    export type CompetitionDetailMergeRecordData = {\r\n        /** 紀錄總筆數 */\r\n        totalCounts: number,\r\n        /** 紀錄總頁數 */\r\n        totalPages: number,\r\n        /** 注單列表 */\r\n        data: {\r\n            data: CompetitionDetailMergeRecord[]\r\n        }\r\n    };\r\n\r\n    /** 比賽房注單細項物件 */\r\n    export type CompetitionDetailMergeRecord = {\r\n        grId: string\r\n        competitionName: string,\r\n        endTimestamp: number,\r\n        payoutAmount: number,\r\n        score: number,\r\n        scoreType: number,\r\n        profit: number\r\n    }\r\n\r\n    /**\r\n     * 獲取wager auth token\r\n     * @param token `SR-xxxx-xxx-xx`格式的token\r\n     * @param startTimestamp UTC 13碼開始時間\r\n     * @param endTimestamp UTC 13碼結束時間\r\n     * @param apiServerUrl 網址 \r\n     */\r\n\r\n    export function getPlayerWagerToken(token: string, startTimestamp: string, endTimestamp: string, apiServerUrl: string): Promise<WagerTokenRes>;\r\n\r\n    /**\r\n     * 獲取注單列表\r\n     * @param wagerToken wager auth token\r\n     * @param apiServerUrl 網址\r\n     * @param page 第幾頁，預設為1\r\n     * @param limit 分頁數，預設20\r\n     */\r\n    export function getWagers(wagerToken: string, apiServerUrl: string, page: number = 1, limit: number = 20, gameId: number = null, lobbyCategory = null): Promise<WagersRes>;\r\n\r\n    /**\r\n     * 捕魚獲取注單列表\r\n     * @param wagerToken wager auth token\r\n     * @param apiServerUrl 網址\r\n     * @param page 第幾頁，預設為1\r\n     * @param limit 分頁數，預設20\r\n     */\r\n    export function getFishMergedRecordList(wagerToken: string, apiServerUrl: string, page: number = 1, limit: number = 20): Promise<FishHistoryRes>;\r\n\r\n    /**\r\n     * 獲取好友房注單列表\r\n     * @param wagerToken wager auth token\r\n     * @param apiServerUrl 網址\r\n     * @param page 第幾頁，預設為1\r\n     * @param limit 分頁數，預設20\r\n     * @param gameType 房間類型搜尋條件 -1是全部 3是比賽房 4是好友房 5是俱樂部\r\n     * @param gameId 遊戲編號\r\n     */\r\n    export function getMergedRecords(wagerToken: string, apiServerUrl: string, page: number = 1, limit: number = 20, gameType: number = -1, gameId: number = null): Promise<MergedRecordsRes>;\r\n\r\n    /**\r\n     * 獲取好友房注單小局列表\r\n     * @param wagerToken wager auth token\r\n     * @param apiServerUrl 網址\r\n     * @param wager_id id\r\n     */\r\n    export function getMergedRecordDetail(wagerToken: string, apiServerUrl: string, mrId: string): Promise<MergedRecordsDetailRes>;\r\n\r\n    /**\r\n     * 獲取捕魚注單列表(廢棄)\r\n     * @param wagerToken wager auth token\r\n     * @param apiServerUrl 網址\r\n     * @param wager_id id\r\n     */\r\n    export function getFishMergedRecordDetail(wagerToken: string, apiServerUrl: string, mrId: string): Promise<FishMergedRecordsDetailRes>;\r\n\r\n    /**\r\n     * 獲取比賽房注單列表\r\n     * @param wagerToken wager auth token\r\n     * @param apiServerUrl 網址\r\n     * @param page 第幾頁，預設為1\r\n     * @param limit 分頁數，預設20\r\n     */\r\n    export function getCompetitionRecords(wagerToken: string, apiServerUrl: string, page: number = 1, limit: number = 20): Promise<CompetitionRecordsData>;\r\n\r\n    /**\r\n     * 獲取比賽房注單小局列表\r\n     * @param wagerToken wager auth token\r\n     * @param apiServerUrl 網址\r\n     * @param page 第幾頁，預設為1\r\n     * @param limit 分頁數，預設20\r\n     */\r\n    export function getCompetitionDetailRecords(wagerToken: string, apiServerUrl: string, mrId: string, page: number = 1, limit: number = 20): Promise<CompetitionDetailMergeRecordData>;\r\n\r\n    /** 獲取好友房注單小局列表\r\n     * @param wagerToken wager auth token\r\n     * @param apiServerUrl 網址\r\n     * @param limit 分頁數，預設1000\r\n     * @param page 第幾頁，預設為1\r\n     * @param gameId 遊戲編號\r\n     * @param clubId 俱樂部編號\r\n     */\r\n    export function getClubRecords(wagerToken: string, apiServerUrl: string, page: number, limit: number, gameId?: number, clubId?: string, self?: boolean): Promise<MergedRecordsRes>;\r\n\r\n    /**\r\n     * 獲取注單列表\r\n     * @param wagerToken wager auth token\r\n     * @param apiServerUrl 網址\r\n     * @param wager_id id\r\n     */\r\n    export function getDetailWagers(wagerToken: string, apiServerUrl: string, wager_id: string): Promise<any>;\r\n\r\n    /** \r\n     * 取得網頁版注單金鑰 \r\n     * @param token `SR-xxxx-xxx-xx`格式的token\r\n     * @param startTimestamp UTC 13碼開始時間\r\n     * @param endTimestamp UTC 13碼結束時間\r\n     * @param apiUrl 網址\r\n     * @param lang 語言 default: zh-cn\r\n     */\r\n    export function getWebWagerToken(token: string, startTimestamp: string, endTimestamp: string, apiUrl?: string, lang?: string): Promise<WagerTokenRes>;\r\n\r\n    /** \r\n     * 取得回放資料 \r\n     * @param wagerToken 注單金鑰\r\n     * @param url 網址\r\n     * @param grId 細單的局號ID\r\n     */\r\n    export function getGameProcess(wagerToken: string, url?: string, grId: string): Promise<any>;\r\n\r\n    /**\r\n     * 聊天室創建房間\r\n     * @param wagerToken token\r\n     * @param apiServerUrl \r\n     * @param name 聊天室名稱\r\n     * @param displayName 聊天室顯示名稱\r\n     */\r\n    export function getChatroom(wagerToken: string, apiServerUrl: string, name: string, displayName: string): Promise<any>;\r\n\r\n    /**\r\n     * 聊天室 發言權限\r\n     * @param ecUserId \r\n     * @param ecSiteId \r\n     * @param groupId \r\n     * @param imUserId \r\n     */\r\n    export function getChatroomPermissions(apiServerUrl, ecUserId: string[], ecSiteId: string, groupId: string, imUserId: string): Promise<any>;\r\n\r\n    /**\r\n     * 聊天室 取得下注量\r\n     * @param apiServerUrl \r\n     * @param ecUserId \r\n     * @param ecSiteId \r\n     */\r\n     export function getPlayerAndEcSiteMsgCond(apiServerUrl, ecUserId, ecSiteId): Promise<any>;\r\n}"
        ]
      ],
      0,
      0,
      [],
      [],
      []
    ],
    [
      [
        {
          "name": "img_connection2",
          "rect": [
            3,
            432,
            38,
            36
          ],
          "offset": [
            -1,
            1
          ],
          "originalSize": [
            50,
            40
          ],
          "rotated": 1,
          "capInsets": [
            0,
            0,
            0,
            0
          ]
        }
      ],
      [
        0
      ],
      0,
      [
        0
      ],
      [
        0
      ],
      [
        0
      ]
    ],
    [
      [
        {
          "name": "club-10",
          "rect": [
            0,
            0,
            215,
            300
          ],
          "offset": [
            -0.5,
            0
          ],
          "originalSize": [
            216,
            300
          ],
          "capInsets": [
            0,
            0,
            0,
            0
          ]
        }
      ],
      [
        0
      ],
      0,
      [
        0
      ],
      [
        0
      ],
      [
        17
      ]
    ],
    [
      [
        "0,9729,9729,33071,33071,0,0,1",
        -1
      ],
      [
        2
      ],
      0,
      [],
      [],
      []
    ],
    [
      [
        "4,9729,9729,33071,33071,0,0,1",
        -1
      ],
      [
        2
      ],
      0,
      [],
      [],
      []
    ],
    [
      [
        "4,9729,9729,33071,33071,0,0,1",
        -1
      ],
      [
        2
      ],
      0,
      [],
      [],
      []
    ],
    [
      [
        {
          "name": "connection4",
          "rect": [
            3,
            210,
            65,
            63
          ],
          "offset": [
            0,
            0
          ],
          "originalSize": [
            65,
            63
          ],
          "capInsets": [
            0,
            0,
            0,
            0
          ]
        }
      ],
      [
        0
      ],
      0,
      [
        0
      ],
      [
        0
      ],
      [
        0
      ]
    ],
    [
      [
        {
          "name": "img_connection1",
          "rect": [
            45,
            432,
            38,
            36
          ],
          "offset": [
            -1,
            1
          ],
          "originalSize": [
            50,
            40
          ],
          "rotated": 1,
          "capInsets": [
            0,
            0,
            0,
            0
          ]
        }
      ],
      [
        0
      ],
      0,
      [
        0
      ],
      [
        0
      ],
      [
        0
      ]
    ],
    [
      [
        [
          37,
          [
            {},
            "connection3",
            6,
            0,
            "connection2",
            6,
            1,
            "connection5",
            6,
            2,
            "connection4",
            6,
            3,
            "connection1",
            6,
            4,
            "img_connection3",
            6,
            5,
            "connection_frame",
            6,
            6,
            "img_connection4",
            6,
            7,
            "img_connection2",
            6,
            8,
            "img_connection1",
            6,
            9
          ]
        ]
      ],
      0,
      0,
      [
        0,
        0,
        0,
        0,
        0,
        0,
        0,
        0,
        0,
        0
      ],
      [
        15,
        16,
        17,
        18,
        19,
        20,
        21,
        22,
        23,
        24
      ],
      [
        18,
        19,
        20,
        21,
        22,
        9,
        7,
        8,
        10,
        3
      ]
    ],
    [
      [
        "0,9729,9729,33071,33071,0,0,1",
        -1
      ],
      [
        2
      ],
      0,
      [],
      [],
      []
    ],
    [
      [
        {
          "name": "default_btn_pressed",
          "rect": [
            0,
            0,
            40,
            40
          ],
          "offset": [
            0,
            0
          ],
          "originalSize": [
            40,
            40
          ],
          "capInsets": [
            12,
            12,
            12,
            12
          ]
        }
      ],
      [
        0
      ],
      0,
      [
        0
      ],
      [
        0
      ],
      [
        23
      ]
    ],
    [
      [
        {
          "name": "connection_frame",
          "rect": [
            47,
            348,
            59,
            22
          ],
          "offset": [
            0,
            0
          ],
          "originalSize": [
            59,
            22
          ],
          "rotated": 1,
          "capInsets": [
            16,
            10,
            16,
            10
          ]
        }
      ],
      [
        0
      ],
      0,
      [
        0
      ],
      [
        0
      ],
      [
        0
      ]
    ],
    [
      [
        [
          0,
          "README",
          "# Common相關說明\r\n\r\n本資料夾為所有專案共用的ts檔，記得有更新時要把其他專案一起更新\r\n\r\n## 引入\r\n\r\n將此Common資料夾導入至此處，作為子Git\r\n./assets/Common\r\n\r\n以SourceTree為例：\r\n\r\n1. 開啟 SourceTree git cmd\r\n2. 執行下列指令(位置依實際狀況修改)\r\n\r\n```\r\ngit submodule add https://gitlab.geax.io/demeter/client/Common.git assets/Common\r\n```\r\n3. 成功的話， SourceTree 將會多出子模塊的欄位\r\n\r\n## 目錄\r\n\r\n* Tools\r\n\r\n必要，為所有遊戲共通的功能，請在專案中引入或繼承。\r\n\r\n* Optional\r\n\r\n非必要，各成員自己所寫的功能。\r\n\r\n* Framework\r\n\r\n必要，基本幾種遊戲類型的共通架構，在專案中引入或繼承。\r\n\r\n沒有相同類型時，通知同仁並討論新增架構。\r\n\r\n"
        ]
      ],
      0,
      0,
      [],
      [],
      []
    ],
    [
      [
        {
          "name": "default_btn_normal",
          "rect": [
            0,
            0,
            40,
            40
          ],
          "offset": [
            0,
            0
          ],
          "originalSize": [
            40,
            40
          ],
          "capInsets": [
            12,
            12,
            12,
            12
          ]
        }
      ],
      [
        0
      ],
      0,
      [
        0
      ],
      [
        0
      ],
      [
        24
      ]
    ],
    [
      [
        [
          0,
          "Routine.d",
          "\r\ndeclare class Routine {\r\n    /** 離開等候室 */\r\n    public leaveRoutine(): Promise<any>;\r\n    /** 取得等候室當前資訊 */\r\n    public getRoutineStatus(): Promise<any>;\r\n    /** 加回好友房 */\r\n    public restore(topicName: string): Promise<any>;\r\n    /** 退出比賽房 */\r\n    public leaveCompetition(topicName: string): Promise<void>;\r\n\r\n    // ---------- 通知訊息 ------------------------------------------------------------------------\r\n    /** 通知 - 自己(被踢)離開等待室 */\r\n    public setOnSelfLeaveRoutineEvent(callback: ({ reason: number }) => void): IEventEmitterOff\r\n    /** 通知 - 有任一玩家加入等待室 */\r\n    public setOnSomeoneJoinRoutineEvent(callback: ({ playerData }) => void): IEventEmitterOff\r\n    /** 通知 - 有任一玩家離開等待室 */\r\n    public setOnSomeoneLeaveRoutineEvent(callback: ({ idx: number, reason: number, jsonData: string }) => void): IEventEmitterOff\r\n    /** 通知 - 有任一玩家在等待室變更準備狀態 */\r\n    public setOnSomeoneChangeReadyStatusEvent(callback: ({ flag: boolean, idx: number }) => void): IEventEmitterOff\r\n    /** 通知 - 自訂房參數發生變更 */\r\n    public setOnSettingChangedEvent(callback: ({ gameId: number, jsonData: string }) => void): IEventEmitterOff\r\n    /** 通知 - 等待室玩家更新資料 */\r\n    public setOnPlayerDataUpdate(callback: ({ playerData }) => void): IEventEmitterOff\r\n    /** 通知 - 房主於等待室發起開始遊戲 */\r\n    public setOnStartGame(callback: ({ launchGameUrl: string }) => void): IEventEmitterOff\r\n    /** 通知 - 比賽房賽局開始 */\r\n    public setOnStartGameCompetition(callback: ({ topicName: string, competitionName: string, gameId: number }) => void): IEventEmitterOff\r\n    /** 通知 - 已報名之比賽房被強制關閉 */\r\n    public setOnForcedClose(callback: ({ topicName: string }) => void): IEventEmitterOff\r\n    /** 通知 - 錯誤訊息 */\r\n    public setOnErrorMessage(callback: (message: { reason: number, playerDataList: { idx: number, jsonData: string }[] }) => void): IEventEmitterOff\r\n}"
        ]
      ],
      0,
      0,
      [],
      [],
      []
    ],
    [
      [
        [
          0,
          "README ",
          "# Component相關說明\r\n\r\n記得有更新時要把其他專案一起更新。\r\n\r\n## import引用\r\n\r\n### ObjectPool\r\n    * 物件池，用import ObjectPool.ts使用。\r\n    在需創造、刪除大量重複prefab物件用。\r\n### ResourceTool\r\n    * 用import ResourceTool.ts使用。\r\n    統合的讀取資源、預載資源等功能。\r\n\r\n## cc.Component掛載\r\n\r\n### LayoutWidget\r\n    WidgetToIphoneX: \r\n        * 需要同時掛載Widget。\r\n        自動針對iphoneX等有瀏海跟弧角的裝置，向左、向右預留一段空間。\r\n\r\n    CanvasAdaptation: \r\n        * 需要掛載在Canvas上。\r\n        自動設定fitHeight與fitWidth，過窄縮放、過寬拉伸。\r\n### ConnectLoading\r\n    * 需製作成物件，掛載背景sprite節點 + 讀取圖sprite節點。\r\n    顯示讀取效果。\r\n### Popup\r\n    * 需製作成物件，掛載阻擋背景的sprite節點 + popup根節點。\r\n    有數種基本的顯示與隱藏的彈窗效果，看情況選擇適合的效果繼承使用。\r\n### AlertPopup\r\n    * 需製作成物件，掛載阻擋背景的sprite節點 + popup根節點。\r\n    有基本的確定取消按鈕功能，並繼承Popup基本的顯示與隱藏的彈窗效果。\r\n\r\n"
        ]
      ],
      0,
      0,
      [],
      [],
      []
    ],
    [
      [
        [
          0,
          "GameClient.d",
          "interface IEventEmitterOff {\r\n    off(): any;\r\n}\r\n\r\ntype Callback<T> = (value: T) => void;\r\n\r\n/** 遊戲 SDK */\r\ndeclare class GameClient {\r\n    /**\r\n     * \r\n     * @param domain \r\n     * @param token \r\n     * @param gameId \r\n     */\r\n    constructor(domain: string, token: string, gameId: number);\r\n\r\n    public routine: Routine;\r\n    public competition: Competition;\r\n    public club: Club;\r\n    public wsp: WebSocketAsPromised;\r\n\r\n    /** 連線 */\r\n    public connect(): Promise<GameClient.ServerError>;\r\n    /** 登入 */\r\n    public login(): Promise<GameClient.LoginRes>;\r\n    /** 更換頭像 */\r\n    public changeIcon(icon): Promise<GameClient.ChangeIconRes>;\r\n    /** 更換頭像 */\r\n    public changeIconFrame(iconFrame): Promise<GameClient.ChangeIconRes>;\r\n    /** \r\n     * @deprecated This function is no longer supported in sdk. \r\n     * @original 取得大廳遊戲列表\r\n     */\r\n    public getLobbyGameList(gameId = 10001): Promise<any>;\r\n    /** \r\n     * @deprecated This function is no longer supported in sdk. \r\n     * @original 取得最後結算資料\r\n     */\r\n    public sendCheckStatus(obj: { playerId: string, gameId: string | number; }): Promise<any>;\r\n    /** \r\n     * @deprecated This function is no longer supported in sdk. \r\n     * @original 確認取得最後結算資料\r\n     */\r\n    public confirmSettlementData(obj: { playerId: string, gameId: string | number; }): Promise<any>;\r\n    /** 取得自訂房間設定資料 */\r\n    public getGetCustomData(gameId: number): Promise<any>;\r\n    public getPlayerWagerToken(token: string, startTimestamp: string, endTimestamp: string, apiServerUrl: string): Promise<WagerTokenRes>;\r\n    /** 登入遊戲 */\r\n    public launchGame(obj: { username: string, gameId: number; }): Promise<any>;\r\n    /** 反饋訊息 */\r\n    public feedback(msg): Promise<void>;\r\n    /** 伺服器回應時間監聽設定 單位毫秒 */\r\n    public setOnServerResponseTime(callback: Callback<number>): void;\r\n    /** 伺服器維護監聽設定 */\r\n    public setOnServerMaintenamce(callback: Callback<{ errCode: number, timestamp: number; }>): void;\r\n    /** 伺服器維護監聽設定 */\r\n    public setOnErrorEvent(callback: Callback<number>): void;\r\n    /** websocket 許久未操作 通知 */\r\n    public onIdleClose(callback: () => void): void;\r\n    /** websocket 增加斷線通知監聽 */\r\n    public addOnCloseListener(callback: Function): void;\r\n    /** websocket 移除斷線通知監聽 */\r\n    public removeOnCloseListener(callback: Function): void;\r\n    /** websocket 增加錯誤通知監聽 */\r\n    public addOnErrorListener(callback: Function): void;\r\n    /** websocket 移除錯誤通知監聽 */\r\n    public removeOnErrorListener(callback: Function): void;\r\n    /** 關閉 websocket */\r\n    public close(): Promise<any>;\r\n    /** BalanceModify 通知 */\r\n    public setOnBalanceModifyEvent(callback: (data: { balance: number; }) => void);\r\n    /** MsgAuthorityModifyEvent 通知 */\r\n    public setMsgAuthorityModifyEvent(callback: (data: { playerId: string, canSendMsg: boolean; }) => void);\r\n    /** setChatroomSettingModifyEvent 通知 */\r\n    public setChatroomSettingModifyEvent(callback: (data: { playerId: string, canSendMsg: boolean; }) => void);\r\n    /** 跑馬燈廣播恭喜語句 */\r\n    public setMarqueeCongratsEvent(callback: (data: GameClient.IMarqueeCongratsData) => void);\r\n    /** 跑馬燈廣播公告語句 */\r\n    public setMarqueeBroadcastEvent(callback: (data: { content: string, url: string; }) => void);\r\n    /** 跑馬燈廣播恭喜語句(前端演示後完後用) */\r\n    public delayMarqueeCongrats();\r\n    /** 檢查是否有看過教學 */\r\n    public tutorialCheck(): boolean;\r\n    /** 完成教學 */\r\n    public tutorialFinish(): void;\r\n    /** 設定教學狀態 */\r\n    public setTutorialState(isFinish: boolean): void;\r\n    /* 取得聊天室Token*/\r\n    public getChatroomToken(): Promise<ChatRoomToken>;\r\n    /** 取得錢包餘額 */\r\n    public getWalletAmount(token: string): Promise<any>;\r\n    /** 設定入場攜帶金額 */\r\n    public setCarryAmount(carryAmounts: GameClient.IRoomSetting[]): Promise<void>;\r\n    /** 儲值 KK 錢包 */\r\n    public depositKKWallet(param: { token: string, amount: number; }): Promise<void>;\r\n    /** 一鍵歸戶 */\r\n    public returnMasterWallet(token: string): Promise<void>;\r\n    /** 充值 */\r\n    public recharge({ url: string }): Promise<any>;\r\n    /** 取得進行中牌局列表 */\r\n    public getPlayerOnlineList(): Promise<any>;\r\n    /** 恢復狀態 */\r\n    public restore(topicName: string): Promise<any>;\r\n    /** 監聽當前遊戲列表 */\r\n    public setOnOnlineListEvent(callback: Function): void;\r\n    /** 取得未結算列表 */\r\n    public getUnsettlementList(): Promise<any>;\r\n    /** 取得結算資料 */\r\n    public getSettlementData(settlementKey: string): Promise<any>;\r\n    /** 取得新的 Token */\r\n    public getNowGameUrl(): Promise<{ url: string; }>;\r\n    /** 取得好友列表 */\r\n    public getFriendList(): Promise<{ friendList: GameClient.IFriendListData[]; }>;\r\n    /** 修改好友備註 */\r\n    public updateFriendRemark(param: { playerId: string, remark: string; }): Promise<void>;\r\n    /** 刪除好友 */\r\n    public deleteFriend(playerId: string): Promise<void>;\r\n    /** 取得好友申請列表 */\r\n    public getFriendApplyList(): Promise<{ applyList: GameClient.IFriendApplyListData[]; }>;\r\n    /** 同意或不同意好友請求 */\r\n    public confirmFriend(param: { friendPlayerIds: string[], isFriend: boolean; }): Promise<GameClient.IFriendComfirmFriendData>;\r\n    /** 取得好友推薦 */\r\n    public getFriendRecommend(): Promise<{ recommendList: GameClient.IFriendRecommendListData[]; }>;\r\n    /** 搜尋好友 */\r\n    public findFriend(nickName: string): Promise<GameClient.IFriendFindData>;\r\n    /** 加入好友 */\r\n    public addFriend(playerId: string): Promise<void>;\r\n    /** 好友系統等候室邀請 */\r\n    public inviteFriend(param: { playerId: string, gameId: number; }): Promise<void>;\r\n    /** 監聽好友的等待室邀請 */\r\n    public setOnInviteFriendEvent(callback: (data: GameClient.IFriendInviteData) => void);\r\n    /** 取得當前牌局遊戲資料 */\r\n    public setOnPreGameInfo(callback: Function): Promise<any>;\r\n    /** 取得好友房牌局結算資料 */\r\n    public getSettlementDataOfRoutine(settlemntKey: string): Promise<any>;\r\n    /** 取得邀請頁網址 */\r\n    public getFriendLinkUrl(): Promise<{ url: string; }>;\r\n    /** 取得網址上的平台參數 */\r\n    public friendLinkUrlSplitDeepAndBrand(url: string): any;\r\n\r\n    /**\r\n     * 取得校時的時間\r\n     * @param serverTime 伺服器時間戳記\r\n     */\r\n    public getClientTime(serverTime: number): number;\r\n\r\n    /** 取得 ping pong 校正的系統時間 */\r\n    public getServerTime(): number;\r\n\r\n    /**\r\n     * 通用基本監聽\r\n     * @param eventType\r\n     * @param messageSchema\r\n     * @param callback\r\n     * @param {Function} fixData\r\n     */\r\n    commonOnEvent(eventType: number, messageSchema: string, callback: Function): IEventEmitterOff;\r\n    /**\r\n     * 通用基本請求\r\n     * @param eventType\r\n     * @param responseSchema\r\n     * @param data\r\n     * @param requestSchema\r\n     * @param {Function} fixData\r\n     */\r\n    commonRequest(eventType: number, responseSchema: string, data?: any, requestSchema?: string): Promise<any>;\r\n}"
        ]
      ],
      0,
      0,
      [],
      [],
      []
    ],
    [
      [
        [
          0,
          "Club.d",
          "declare class Club {\n    public routine: Routine;\n\n    /** 是否被踢出俱樂部 */\n    public getClubMemberKickedInfo(): Promise<{ loungeId: string, leavReason: number, expiredAt: number }>;\n}"
        ]
      ],
      0,
      0,
      [],
      [],
      []
    ],
    [
      [
        {
          "name": "connection1",
          "rect": [
            3,
            279,
            65,
            63
          ],
          "offset": [
            0,
            0
          ],
          "originalSize": [
            65,
            63
          ],
          "capInsets": [
            0,
            0,
            0,
            0
          ]
        }
      ],
      [
        0
      ],
      0,
      [
        0
      ],
      [
        0
      ],
      [
        0
      ]
    ]
  ]
]