{
    "paths": {
        "609JqC9OVHyp2iq8BePsRc": [
            "Common/Socket/SDK/G53_GameClient.d",
            "cc.TextAsset"
        ],
        "f82WN4KtJDZ4ol7ERDigf9": [
            "Game/README",
            "cc.TextAsset"
        ],
        "9ej6DTYHZKMqGT1YPjXEOX": [
            "README",
            "cc.TextAsset"
        ],
        "2bfEd70vxGrLnAqXYS1ZOk": [
            "Resources/Audio - G53",
            "cc.TextAsset"
        ],
        "032ItENsBJNJ84JObEUoC9": [
            "Resources/Font/font_1",
            "cc.BitmapFont"
        ],
        "73EZL61rVDZ5uNbuZY0TYW": [
            "Resources/Font/font_1",
            "cc.SpriteFrame",
            1
        ],
        "8bAZi8cHZI8r7Gx9Ow4sCg": [
            "Resources/Font/font_1",
            "cc.Texture2D"
        ],
        "54MHO8XmhHmqPUEvSdnBQ/": [
            "Resources/Font/font_2",
            "cc.SpriteFrame",
            1
        ],
        "d3HYdCOYRN04lSHX3BQDB9": [
            "Resources/Font/font_2",
            "cc.Texture2D"
        ],
        "f3WZBcho5JiJE5cIoTscS+": [
            "Resources/Font/font_2",
            "cc.BitmapFont"
        ],
        "c2UldLC3xIz6O9p8i4dgbx": [
            "Resources/Font/g53_com_font_1",
            "cc.SpriteFrame",
            1
        ],
        "deb+CT2TtGzpjyynIUGaTY": [
            "Resources/Font/g53_com_font_1",
            "cc.Texture2D"
        ],
        "f4waO1HKhA0rAy3mV4qETQ": [
            "Resources/Font/g53_com_font_1",
            "cc.BitmapFont"
        ],
        "0csdO/EwNBbpWTUhiZp5Ba": [
            "Resources/Font/g53_com_font_2",
            "cc.Texture2D"
        ],
        "0dwmcdKXNFEJGeG6V7GoIU": [
            "Resources/Font/g53_com_font_2",
            "cc.BitmapFont"
        ],
        "a5FCQLDmBBzZrcaHFm/y0p": [
            "Resources/Font/g53_com_font_2",
            "cc.SpriteFrame",
            1
        ],
        "1fd0+8yQ1OrYjEbrzOdO5Q": [
            "Resources/Font/g53_com_font_3",
            "cc.SpriteFrame",
            1
        ],
        "44Ry2PujRLDr1dQqBSKtxg": [
            "Resources/Font/g53_com_font_3",
            "cc.Texture2D"
        ],
        "a11AP+F/JD2a/b/PuaXNRd": [
            "Resources/Font/g53_com_font_3",
            "cc.BitmapFont"
        ],
        "69sRazBNRBtp0g8Gq0s8qj": [
            "Resources/Font/g53_com_font_4",
            "cc.BitmapFont"
        ],
        "famTR59Y1GG4G2cEFMtV2+": [
            "Resources/Font/g53_com_font_4",
            "cc.Texture2D"
        ],
        "fdWOgekYdGWKEOpuC9G2FD": [
            "Resources/Font/g53_com_font_4",
            "cc.SpriteFrame",
            1
        ],
        "71CjcplatIKr2ZQ5vssmrD": [
            "Resources/G53_FX/FX_Animation/FX_AnAdd_FG_game",
            "cc.AnimationClip"
        ],
        "b41kQGLNJDnZ807jjPnz8e": [
            "Resources/G53_FX/FX_Animation/FX_AnAdd_FG_game2",
            "cc.AnimationClip"
        ],
        "f4HgARYiVDK6hdfMTh3Dmn": [
            "Resources/G53_FX/FX_Animation/FX_AnBroad_Loop",
            "cc.AnimationClip"
        ],
        "7akR+tjChCkKhYAd1F1tDY": [
            "Resources/G53_FX/FX_Animation/FX_AnBroad_Once",
            "cc.AnimationClip"
        ],
        "51sOH+LtZKTbpGQBloIH+p": [
            "Resources/G53_FX/FX_Animation/FX_AnChangeWild",
            "cc.AnimationClip"
        ],
        "2el3mmHQRNJ6sv5jH4LEcl": [
            "Resources/G53_FX/FX_Animation/FX_AnDisappear",
            "cc.AnimationClip"
        ],
        "ed1BtnlWNPMIp7va3YD7bM": [
            "Resources/G53_FX/FX_Animation/FX_AnEnd",
            "cc.AnimationClip"
        ],
        "39woB6c+NOT41Z/5OMrbJ5": [
            "Resources/G53_FX/FX_Animation/FX_AnFG_In",
            "cc.AnimationClip"
        ],
        "e9m8iec59HuJeWn3/Im5oN": [
            "Resources/G53_FX/FX_Animation/FX_AnHighWin",
            "cc.AnimationClip"
        ],
        "e6SS4NKF1NwpXxT5ORxpny": [
            "Resources/G53_FX/FX_Animation/FX_AnHighWin_loop",
            "cc.AnimationClip"
        ],
        "cbtF+dQ/5L8Zzz65pBUJZp": [
            "Resources/G53_FX/FX_Animation/FX_AnHighWin_text",
            "cc.AnimationClip"
        ],
        "dfM2Uc4f5K/oSzCA7+TKv5": [
            "Resources/G53_FX/FX_Animation/FX_AnHighWin_text - 001",
            "cc.AnimationClip"
        ],
        "3ddvOvQ+5N9Z229sdh9bEw": [
            "Resources/G53_FX/FX_Animation/FX_AnJackPot_mini",
            "cc.AnimationClip"
        ],
        "3621JwkxNE35rpS+BeD6tE": [
            "Resources/G53_FX/FX_Animation/FX_AnLoading",
            "cc.AnimationClip"
        ],
        "68kUdT6yFLWqKAl9RbVN35": [
            "Resources/G53_FX/FX_Animation/FX_AnMultiply_End",
            "cc.AnimationClip"
        ],
        "bbiBheR0tMs6EOxVTRma9C": [
            "Resources/G53_FX/FX_Animation/FX_AnScene_win",
            "cc.AnimationClip"
        ],
        "65dcDuTLZP6pu3HSoB+fZ5": [
            "Resources/G53_FX/FX_Animation/FX_AnSpin_Auto",
            "cc.AnimationClip"
        ],
        "3f0N468z9G6Y2gJf1GiH0w": [
            "Resources/G53_FX/FX_Animation/FX_AnSpin_Loop_V",
            "cc.AnimationClip"
        ],
        "eafcPs/0BJx5tJ/S9Xkt2h": [
            "Resources/G53_FX/FX_Animation/FX_AnSpin_Once",
            "cc.AnimationClip"
        ],
        "dazZqffH5DJIvFl+9ZLVNR": [
            "Resources/G53_FX/FX_Animation/FX_AnSpin_loop_H",
            "cc.AnimationClip"
        ],
        "f8zId3M2NCu50aq0QjmesD": [
            "Resources/G53_FX/FX_Animation/test_Add_Fly",
            "cc.AnimationClip"
        ],
        "faPjhBBx1KLZc+/VlNTkXF": [
            "Resources/G53_FX/FX_Animation/test_Add_Fly - 001",
            "cc.AnimationClip"
        ],
        "86yIFn45ZB0rnou88Ppzta": [
            "Resources/G53_FX/FX_Animation/test_Multiply_Fly",
            "cc.AnimationClip"
        ],
        "8bNvnGVRJM2IzaQcaz+2DE": [
            "Resources/G53_FX/FX_Material/m_coin_01",
            "cc.Material"
        ],
        "ddpoXQ+VdOWoVgDP8yr+Lg": [
            "Resources/G53_FX/FX_Material/m_coin_02",
            "cc.Material"
        ],
        "f2OwQklNpDQoFedx+PhmIA": [
            "Resources/G53_FX/FX_Material/m_ring_04",
            "cc.Material"
        ],
        "78tWK72ZtH1K3KQNTtu70N": [
            "Resources/G53_FX/FX_Material/m_ring_06",
            "cc.Material"
        ],
        "09nYQTjt1Gd7s3K8LGeNPw": [
            "Resources/G53_FX/FX_Material/m_star_05",
            "cc.Material"
        ],
        "47HIHDvZ5PAbxFbHGnAviN": [
            "Resources/G53_FX/FX_Material/m_star_06",
            "cc.Material"
        ],
        "e9x/1qS1hCp5l4FI14/kzy": [
            "Resources/G53_FX/FX_Material/m_star_09",
            "cc.Material"
        ],
        "73dCtYRptPDrIAlVLdMSTP": [
            "Resources/G53_FX/FX_Spine/End_BG/End_BG",
            "cc.Asset"
        ],
        "91ellFBzJA8LBaYOA8C6iv": [
            "Resources/G53_FX/FX_Spine/End_BG/End_BG",
            "cc.SpriteFrame",
            1
        ],
        "b78j9DPR5OZ5qpuw1wOTU6": [
            "Resources/G53_FX/FX_Spine/End_BG/End_BG",
            "sp.SkeletonData"
        ],
        "ee7raT1TRA1YUCkEAO+LZ5": [
            "Resources/G53_FX/FX_Spine/End_BG/End_BG",
            "cc.Texture2D"
        ],
        "175Dt6WelNQ623S8Fjr+nJ": [
            "Resources/G53_FX/FX_Spine/HighWin/HighWin",
            "cc.Texture2D"
        ],
        "8dBXcJgClKibQtmDHll7f5": [
            "Resources/G53_FX/FX_Spine/HighWin/HighWin",
            "sp.SkeletonData"
        ],
        "90nFaZFhBB3KFRDjiYS7sm": [
            "Resources/G53_FX/FX_Spine/HighWin/HighWin",
            "cc.Asset"
        ],
        "b2Wzh+oaZMu5lqMc84TCsm": [
            "Resources/G53_FX/FX_Spine/HighWin/HighWin",
            "cc.SpriteFrame",
            1
        ],
        "16jR8QQYZCh7xI/HbDTweC": [
            "Resources/G53_FX/FX_Spine/JackPot/JACKPOT",
            "sp.SkeletonData"
        ],
        "4fvnrJgoBCka3G5pV3GDG2": [
            "Resources/G53_FX/FX_Spine/JackPot/JACKPOT",
            "cc.Asset"
        ],
        "54bQnZ3S9DhJdKgplJyYL2": [
            "Resources/G53_FX/FX_Spine/JackPot/JACKPOT",
            "cc.Texture2D"
        ],
        "feqZoo9wJCqph89YUl5VK1": [
            "Resources/G53_FX/FX_Spine/JackPot/JACKPOT",
            "cc.SpriteFrame",
            1
        ],
        "0fageAhIRF9q6IVhGM2Vnt": [
            "Resources/G53_FX/FX_Spine/LD_FG_ED_BG/LD_FG_ED_BG",
            "sp.SkeletonData"
        ],
        "6b3L9ilYhIp4Xa/FjZwuvc": [
            "Resources/G53_FX/FX_Spine/LD_FG_ED_BG/LD_FG_ED_BG",
            "cc.Texture2D"
        ],
        "79vcYjOpRP0KCXKyOkhv+q": [
            "Resources/G53_FX/FX_Spine/LD_FG_ED_BG/LD_FG_ED_BG",
            "cc.SpriteFrame",
            1
        ],
        "e0Xxe7OJNF/6xPxPn/G2bR": [
            "Resources/G53_FX/FX_Spine/LD_FG_ED_BG/LD_FG_ED_BG",
            "cc.Asset"
        ],
        "38QiUucQNKyJYMIqycqxFm": [
            "Resources/G53_FX/FX_Spine/Loading_Bar/Loading_Bar",
            "cc.Asset"
        ],
        "4cT6g5YttPWJL0kbQVYGf3": [
            "Resources/G53_FX/FX_Spine/Loading_Bar/Loading_Bar",
            "cc.SpriteFrame",
            1
        ],
        "a1TX9zl/dKvaI/0UXbXc5v": [
            "Resources/G53_FX/FX_Spine/Loading_Bar/Loading_Bar",
            "cc.Texture2D"
        ],
        "c2FTdmuDtIMJZiY61Obf2c": [
            "Resources/G53_FX/FX_Spine/Loading_Bar/Loading_Bar",
            "sp.SkeletonData"
        ],
        "0ascmYet9DDLCRwnesFkVF": [
            "Resources/G53_FX/FX_Spine/MG_BG/MG_BG",
            "sp.SkeletonData"
        ],
        "5a+gw7AgBE3IDcArWYBK6U": [
            "Resources/G53_FX/FX_Spine/MG_BG/MG_BG",
            "cc.Asset"
        ],
        "740Fcrzf9JcqnYrxsa34qf": [
            "Resources/G53_FX/FX_Spine/MG_BG/MG_BG",
            "cc.SpriteFrame",
            1
        ],
        "c6bvZLBZBH0LfcBAJzSk7E": [
            "Resources/G53_FX/FX_Spine/MG_BG/MG_BG",
            "cc.Texture2D"
        ],
        "39HV9fA2lD84LEr5XaF+Lm": [
            "Resources/G53_FX/FX_Spine/Multiply/Multiply",
            "cc.SpriteFrame",
            1
        ],
        "95fN3YWdxGMYOcyjJbFA+Z": [
            "Resources/G53_FX/FX_Spine/Multiply/Multiply",
            "cc.Asset"
        ],
        "e1F+tP9MBJeKBbGNti2k73": [
            "Resources/G53_FX/FX_Spine/Multiply/Multiply",
            "cc.Texture2D"
        ],
        "e5vAdB9/RE15L/in/iu330": [
            "Resources/G53_FX/FX_Spine/Multiply/Multiply",
            "sp.SkeletonData"
        ],
        "2dAnZNTGxNKIPv1tRBDOYk": [
            "Resources/G53_FX/FX_Spine/Symbol/Symbol",
            "cc.Asset"
        ],
        "40pOayUllJpqEltBdr//9Q": [
            "Resources/G53_FX/FX_Spine/Symbol/Symbol",
            "sp.SkeletonData"
        ],
        "bfn+WnzstCB4GiPhXflIG7": [
            "Resources/G53_FX/FX_Spine/Symbol/Symbol",
            "cc.SpriteFrame",
            1
        ],
        "c30wdbOopPXpkUsHBwZLvU": [
            "Resources/G53_FX/FX_Spine/Symbol/Symbol",
            "cc.Texture2D"
        ],
        "a3zcNTLXhEIaS+i9AvZnMZ": [
            "Resources/G53_FX/FX_Spine/chr/chr",
            "cc.Texture2D"
        ],
        "b0fvYfrNNGoaJr5joZCBg5": [
            "Resources/G53_FX/FX_Spine/chr/chr",
            "cc.SpriteFrame",
            1
        ],
        "efVrw9tjNOFLtVhp1+frtd": [
            "Resources/G53_FX/FX_Spine/chr/chr",
            "sp.SkeletonData"
        ],
        "f2tEx2XONP1qyi08HOgH4W": [
            "Resources/G53_FX/FX_Spine/chr/chr",
            "cc.Asset"
        ],
        "62NGYILGFHEaVlsasSiD9j": [
            "Resources/G53_FX/FX_Texture/t_BG_1",
            "cc.Texture2D"
        ],
        "fbVgITXhVDAL5/HUqCpEWR": [
            "Resources/G53_FX/FX_Texture/t_BG_1",
            "cc.SpriteFrame",
            1
        ],
        "7eo3zzozVM15/B+qsgFkuI": [
            "Resources/G53_FX/FX_Texture/t_FG_BG_1",
            "cc.Texture2D"
        ],
        "c0qlklN4pMKaLs4pDmNo8j": [
            "Resources/G53_FX/FX_Texture/t_FG_BG_1",
            "cc.SpriteFrame",
            1
        ],
        "291euTv9BHUa1HLk/AyhZc": [
            "Resources/G53_FX/FX_Texture/t_FG_BG_3",
            "cc.SpriteFrame",
            1
        ],
        "766TYRV/VKV7mQ+LI+bJ71": [
            "Resources/G53_FX/FX_Texture/t_FG_BG_3",
            "cc.Texture2D"
        ],
        "7cCQ03XdZKtrwk9fCb2s3e": [
            "Resources/G53_FX/FX_Texture/t_LD_1",
            "cc.Texture2D"
        ],
        "a5Oo6mq05Ei4yhTMhpu28Z": [
            "Resources/G53_FX/FX_Texture/t_LD_1",
            "cc.SpriteFrame",
            1
        ],
        "52EKlXKB1LcJaF8AMLVHTM": [
            "Resources/G53_FX/FX_Texture/t_MG_BG",
            "cc.SpriteFrame",
            1
        ],
        "b1IupUeHdCNo2wiDzYv0KM": [
            "Resources/G53_FX/FX_Texture/t_MG_BG",
            "cc.Texture2D"
        ],
        "5aHM5WNyVNn7wM7eG7Eawi": [
            "Resources/G53_FX/FX_Texture/t_MG_BG_2",
            "cc.Texture2D"
        ],
        "afoxHwBQtCWp3UPyi5EBST": [
            "Resources/G53_FX/FX_Texture/t_MG_BG_2",
            "cc.SpriteFrame",
            1
        ],
        "39EP9iyvNBNKAj+BUGUNGX": [
            "Resources/G53_FX/FX_Texture/t_MG_BG_V",
            "cc.SpriteFrame",
            1
        ],
        "b183505CdDd6iD26PTFPlI": [
            "Resources/G53_FX/FX_Texture/t_MG_BG_V",
            "cc.Texture2D"
        ],
        "217S7CclRF3pdSpcjbXQcZ": [
            "Resources/G53_FX/FX_Texture/t_back_03",
            "cc.Texture2D"
        ],
        "cdKH0bf/1EC4im+DGmhSEo": [
            "Resources/G53_FX/FX_Texture/t_back_03",
            "cc.SpriteFrame",
            1
        ],
        "5c+BtQIBhGPqXeGamOzKjp": [
            "Resources/G53_FX/FX_Texture/t_bl_117",
            "cc.SpriteFrame",
            1
        ],
        "bcpdV5CI5MfJrsE9JTg9gQ": [
            "Resources/G53_FX/FX_Texture/t_bl_117",
            "cc.Texture2D"
        ],
        "74d1EnMHtABq2DFw9C5hgX": [
            "Resources/G53_FX/FX_Texture/t_bl_164",
            "cc.SpriteFrame",
            1
        ],
        "d1da+xp91EVbp8F9kJs/H/": [
            "Resources/G53_FX/FX_Texture/t_bl_164",
            "cc.Texture2D"
        ],
        "b3rQFYLeFOU74QtDtcGh4r": [
            "Resources/G53_FX/FX_Texture/t_btn_1",
            "cc.Texture2D"
        ],
        "c0baOqMqlEcr+dEHVM+4+T": [
            "Resources/G53_FX/FX_Texture/t_btn_1",
            "cc.SpriteFrame",
            1
        ],
        "5aFPW+62hFYKTBujJ6rqfF": [
            "Resources/G53_FX/FX_Texture/t_btn_2",
            "cc.SpriteFrame",
            1
        ],
        "7162nSYvtAuY1jwzusl+Mt": [
            "Resources/G53_FX/FX_Texture/t_btn_2",
            "cc.Texture2D"
        ],
        "55nHPeQkFPSo0kwEhg98Hv": [
            "Resources/G53_FX/FX_Texture/t_btn_3",
            "cc.SpriteFrame",
            1
        ],
        "98FMU4O5JBK6DMN7KBM5/v": [
            "Resources/G53_FX/FX_Texture/t_btn_3",
            "cc.Texture2D"
        ],
        "8dbETslGZGsptpnOMJRoAu": [
            "Resources/G53_FX/FX_Texture/t_btn_4",
            "cc.Texture2D"
        ],
        "b6tF5Gr/xKy6JDipng+O5T": [
            "Resources/G53_FX/FX_Texture/t_btn_4",
            "cc.SpriteFrame",
            1
        ],
        "1aa+yrQedHKJreH/tPv4rV": [
            "Resources/G53_FX/FX_Texture/t_btn_5",
            "cc.SpriteFrame",
            1
        ],
        "4ahWvIVLdJno3TQFOsNFFx": [
            "Resources/G53_FX/FX_Texture/t_btn_5",
            "cc.Texture2D"
        ],
        "48BaHWIgtHLpxagxix0EVN": [
            "Resources/G53_FX/FX_Texture/t_btn_6",
            "cc.SpriteFrame",
            1
        ],
        "49u4vylwdB04Eeh1Q6763k": [
            "Resources/G53_FX/FX_Texture/t_btn_6",
            "cc.Texture2D"
        ],
        "074D3IonhLbZ3xrgbXZDtZ": [
            "Resources/G53_FX/FX_Texture/t_btn_7",
            "cc.SpriteFrame",
            1
        ],
        "1bATtSZzhKX4qe3t3cc6TW": [
            "Resources/G53_FX/FX_Texture/t_btn_7",
            "cc.Texture2D"
        ],
        "47F/LTuWNGTolq2awG+McB": [
            "Resources/G53_FX/FX_Texture/t_btn_shap",
            "cc.Texture2D"
        ],
        "60joI0t9xG0LVZjbZYT/DY": [
            "Resources/G53_FX/FX_Texture/t_btn_shap",
            "cc.SpriteFrame",
            1
        ],
        "4aCaO0kH5GcYMsoftXEElX": [
            "Resources/G53_FX/FX_Texture/t_button_H",
            "cc.SpriteFrame",
            1
        ],
        "c1yidOIz5CFLihF1wPYaAO": [
            "Resources/G53_FX/FX_Texture/t_button_H",
            "cc.Texture2D"
        ],
        "3foH6jBFpOUZSa6oVT791t": [
            "Resources/G53_FX/FX_Texture/t_coin_01",
            "cc.Texture2D"
        ],
        "6dHybJHNFFMqtzUb75wI92": [
            "Resources/G53_FX/FX_Texture/t_coin_01",
            "cc.SpriteFrame",
            1
        ],
        "2dJLhro9tEopnZ1u0RNu6Z": [
            "Resources/G53_FX/FX_Texture/t_coin_02",
            "cc.SpriteFrame",
            1
        ],
        "f9BPZanYxGqI6PKgE0jCmP": [
            "Resources/G53_FX/FX_Texture/t_coin_02",
            "cc.Texture2D"
        ],
        "8aOcgMDBBMIbf//J45BRAO": [
            "Resources/G53_FX/FX_Texture/t_green_ring",
            "cc.SpriteFrame",
            1
        ],
        "907fiDvrhBpZsOQs18B5NP": [
            "Resources/G53_FX/FX_Texture/t_green_ring",
            "cc.Texture2D"
        ],
        "69yp5faOBCI5frGuMHlTvL": [
            "Resources/G53_FX/FX_Texture/t_line_01",
            "cc.Texture2D"
        ],
        "b4FTVQB65Gk7QDf8QeHWHC": [
            "Resources/G53_FX/FX_Texture/t_line_01",
            "cc.SpriteFrame",
            1
        ],
        "19I3C7l9NPb6NhzQs7DrX/": [
            "Resources/G53_FX/FX_Texture/t_line_09",
            "cc.Texture2D"
        ],
        "88+Josi/lJwI72ll1WHTng": [
            "Resources/G53_FX/FX_Texture/t_line_09",
            "cc.SpriteFrame",
            1
        ],
        "03PJU2hSdNaYFTwcjAd56F": [
            "Resources/G53_FX/FX_Texture/t_plant",
            "cc.Texture2D"
        ],
        "b8DqKgul1DMrO6R2dbzbL0": [
            "Resources/G53_FX/FX_Texture/t_plant",
            "cc.SpriteFrame",
            1
        ],
        "2co3zv1ThHDrmvbApX3lhZ": [
            "Resources/G53_FX/FX_Texture/t_radial_01",
            "cc.Texture2D"
        ],
        "b4KGPVGDNEKbBUZgQ3sPJV": [
            "Resources/G53_FX/FX_Texture/t_radial_01",
            "cc.SpriteFrame",
            1
        ],
        "75JiubuiZO+rKA1b8RCJxp": [
            "Resources/G53_FX/FX_Texture/t_radial_02",
            "cc.Texture2D"
        ],
        "b8JoBufv5LGp4uzm5d/r1s": [
            "Resources/G53_FX/FX_Texture/t_radial_02",
            "cc.SpriteFrame",
            1
        ],
        "e7sMgc+QtP0L9x8yMGQkTV": [
            "Resources/G53_FX/FX_Texture/t_ri_74",
            "cc.Texture2D"
        ],
        "fbmdJcBH5NOrvCCQGymSAl": [
            "Resources/G53_FX/FX_Texture/t_ri_74",
            "cc.SpriteFrame",
            1
        ],
        "23A8LrtNdCErYux8/vAjO2": [
            "Resources/G53_FX/FX_Texture/t_ring_01",
            "cc.SpriteFrame",
            1
        ],
        "f6bDI6/PNEsZpFV5ijh1FP": [
            "Resources/G53_FX/FX_Texture/t_ring_01",
            "cc.Texture2D"
        ],
        "19Xygb+gpA6bKC9ifY6lZP": [
            "Resources/G53_FX/FX_Texture/t_ring_02",
            "cc.Texture2D"
        ],
        "4fTksSSXlDcq6fmZK8OcnL": [
            "Resources/G53_FX/FX_Texture/t_ring_02",
            "cc.SpriteFrame",
            1
        ],
        "bfaK4YQc5GYYdmn+K4NcyE": [
            "Resources/G53_FX/FX_Texture/t_ring_03",
            "cc.Texture2D"
        ],
        "edBWgIF09G2b0fpBXRODNB": [
            "Resources/G53_FX/FX_Texture/t_ring_03",
            "cc.SpriteFrame",
            1
        ],
        "84zkG6DmJEprvCz8bDiz6w": [
            "Resources/G53_FX/FX_Texture/t_ring_04",
            "cc.Texture2D"
        ],
        "94sW9L3AtJZLMgMo/OAN1G": [
            "Resources/G53_FX/FX_Texture/t_ring_04",
            "cc.SpriteFrame",
            1
        ],
        "32yiZrA31E5JZRTyOXkF3F": [
            "Resources/G53_FX/FX_Texture/t_ring_05",
            "cc.SpriteFrame",
            1
        ],
        "fahMsdOhdMGJBj/KxRySVu": [
            "Resources/G53_FX/FX_Texture/t_ring_05",
            "cc.Texture2D"
        ],
        "55rwKKNL1D+riXN1K0KjLR": [
            "Resources/G53_FX/FX_Texture/t_ring_06",
            "cc.SpriteFrame",
            1
        ],
        "8cqiaY8a1OVqoo8O9uhOTl": [
            "Resources/G53_FX/FX_Texture/t_ring_06",
            "cc.Texture2D"
        ],
        "00nnKasaVA+qLuXr1Va0qQ": [
            "Resources/G53_FX/FX_Texture/t_star_01",
            "cc.SpriteFrame",
            1
        ],
        "c5EPBCRylJIpnhMGskuwwD": [
            "Resources/G53_FX/FX_Texture/t_star_01",
            "cc.Texture2D"
        ],
        "8ek2l2iZFN2Knrw0AR9OYp": [
            "Resources/G53_FX/FX_Texture/t_star_04",
            "cc.Texture2D"
        ],
        "a8dy00IIpOs4TrudPpv8Fd": [
            "Resources/G53_FX/FX_Texture/t_star_04",
            "cc.SpriteFrame",
            1
        ],
        "25O/LHKPdE7ZmcNRfCIiaE": [
            "Resources/G53_FX/FX_Texture/t_star_05",
            "cc.Texture2D"
        ],
        "6e3zjeWL1PfI1BWHQxTy9W": [
            "Resources/G53_FX/FX_Texture/t_star_05",
            "cc.SpriteFrame",
            1
        ],
        "17wB27yxZIs6+6nbiNzPrV": [
            "Resources/G53_FX/FX_Texture/t_star_06",
            "cc.SpriteFrame",
            1
        ],
        "3bmPVCq4pJBJMWTuAEjO2Y": [
            "Resources/G53_FX/FX_Texture/t_star_06",
            "cc.Texture2D"
        ],
        "70dz43d2tDi7/MH07cEGOT": [
            "Resources/G53_FX/FX_Texture/t_star_07",
            "cc.SpriteFrame",
            1
        ],
        "994jzkIxRMBKC/i8F55F0v": [
            "Resources/G53_FX/FX_Texture/t_star_07",
            "cc.Texture2D"
        ],
        "27ZF1ucwNN37/4ohpVAKZb": [
            "Resources/G53_FX/FX_Texture/t_star_09",
            "cc.SpriteFrame",
            1
        ],
        "909njjIddD6pP3dYFtP82r": [
            "Resources/G53_FX/FX_Texture/t_star_09",
            "cc.Texture2D"
        ],
        "32CrDjr0BGjaO2Yyu5tv9z": [
            "Resources/G53_FX/FX_Texture/t_star_10",
            "cc.Texture2D"
        ],
        "3ca8cviuNGTp1I4A9G1g51": [
            "Resources/G53_FX/FX_Texture/t_star_10",
            "cc.SpriteFrame",
            1
        ],
        "27CwTP+QBMNboGrD+gRvt/": [
            "Resources/G53_FX/FX_Texture/t_star_11",
            "cc.SpriteFrame",
            1
        ],
        "42NvTeXjVHgI7m31quuivY": [
            "Resources/G53_FX/FX_Texture/t_star_11",
            "cc.Texture2D"
        ],
        "acxOQDgqVMM488y3ilvvYw": [
            "Resources/G53_FX/FX_Texture/t_star_12_V",
            "cc.SpriteFrame",
            1
        ],
        "e78Oir5DdFypprCCUYNSqN": [
            "Resources/G53_FX/FX_Texture/t_star_12_V",
            "cc.Texture2D"
        ],
        "0dP8kJh9hKRrgtpoa2BEF7": [
            "Resources/G53_FX/FX_Texture/t_str_08",
            "cc.Texture2D"
        ],
        "4dxrad0RlN9raoMUG5aECa": [
            "Resources/G53_FX/FX_Texture/t_str_08",
            "cc.SpriteFrame",
            1
        ],
        "5bHuIDjQJLtq7I/71ylVW0": [
            "Resources/G53_FX/FX_Texture/t_str_09",
            "cc.SpriteFrame",
            1
        ],
        "d24YVH89hI+5lPCi4kRw1W": [
            "Resources/G53_FX/FX_Texture/t_str_09",
            "cc.Texture2D"
        ],
        "5aMMHG+P5FfIFNtc3EhBMS": [
            "Resources/G53_FX/FX_Word/cn/t_FgIn_cn",
            "cc.SpriteFrame",
            1
        ],
        "9f4FF0R9ZHuKqpnbXM/0wp": [
            "Resources/G53_FX/FX_Word/cn/t_FgIn_cn",
            "cc.Texture2D"
        ],
        "39P5uA39VDxqi3daCNUM4Y": [
            "Resources/G53_FX/FX_Word/cn/t_logo_cn",
            "cc.SpriteFrame",
            1
        ],
        "ecU9KSlRlJW7KuPLUEujuf": [
            "Resources/G53_FX/FX_Word/cn/t_logo_cn",
            "cc.Texture2D"
        ],
        "82j//L97lIkbVytpI/aWDM": [
            "Resources/Localize/zh-cn/image/g53_com_word_1",
            "cc.SpriteFrame",
            1
        ],
        "66MogqtpZChLqx2skiWkKL": [
            "Resources/Localize/zh-cn/image/g53_com_word_2",
            "cc.SpriteFrame",
            1
        ],
        "45MqEuA7hIdKNNwPcUfrE0": [
            "Resources/Localize/zh-cn/image/g53_com_word_3",
            "cc.SpriteFrame",
            1
        ],
        "afX1eUEZBD/plwxHncy9rO": [
            "Resources/Localize/zh-cn/image/g53_com_word_4",
            "cc.SpriteFrame",
            1
        ],
        "b0ONJ6VmFEuJ+QfA2c5gXV": [
            "Resources/Localize/zh-cn/image/g53_com_word_5",
            "cc.SpriteFrame",
            1
        ],
        "fcpkujaD1KV4VnCyoue6Oe": [
            "Resources/Localize/zh-cn/image/g53_com_word_7",
            "cc.SpriteFrame",
            1
        ],
        "eb+bTzj1ZD8KfouLvpEZmd": [
            "Resources/Localize/zh-cn/image/g53_fg_word_1",
            "cc.SpriteFrame",
            1
        ],
        "f88N9PTB1A0a0p/EukTuk/": [
            "Resources/Localize/zh-cn/image/g53_fg_word_2",
            "cc.SpriteFrame",
            1
        ],
        "37Hqk4/jFCdbt1pqw1sDEa": [
            "Resources/Localize/zh-cn/image/g53_fg_word_3",
            "cc.SpriteFrame",
            1
        ],
        "90T9ITeHJF5a5+W9FPkTt+": [
            "Resources/Localize/zh-cn/image/g53_fg_word_4",
            "cc.SpriteFrame",
            1
        ],
        "77NAzsKaxH5rwKMlPEnM7b": [
            "Resources/Localize/zh-cn/image/g53_localize_cn_atlas",
            "cc.SpriteAtlas"
        ],
        "74mUK/0OJMZYoqZkUDDh93": [
            "Resources/Localize/zh-cn/image/g53_maq_word_1",
            "cc.SpriteFrame",
            1
        ],
        "cd2gPHmixBm6+Cc0SdRgxi": [
            "Resources/Localize/zh-cn/image/g53_maq_word_2",
            "cc.SpriteFrame",
            1
        ],
        "3dJ6u/ZGpJDa8WPbd6v6ys": [
            "Resources/Localize/zh-cn/image/g53_maq_word_3",
            "cc.SpriteFrame",
            1
        ],
        "7fnvHeiFBHRZAP077ngz+F": [
            "Resources/Localize/zh-cn/image/g53_maq_word_4",
            "cc.SpriteFrame",
            1
        ],
        "6fPJOssT5MkpwHrL/UKymo": [
            "Resources/Localize/zh-cn/image/g53_maq_word_5",
            "cc.SpriteFrame",
            1
        ],
        "d167IJ+slB8bq44LgZkgAY": [
            "Resources/Localize/zh-cn/image/g53_rs_word_2",
            "cc.SpriteFrame",
            1
        ],
        "6dW7XhgMlAB4MHsEapsSk9": [
            "Resources/Localize/zh-cn/image/g53_ru_word_1",
            "cc.SpriteFrame",
            1
        ],
        "41AsK/xC5Bv4W7+/fPU9NP": [
            "Resources/Localize/zh-cn/image/g53_ru_word_2",
            "cc.SpriteFrame",
            1
        ],
        "6cqd+QA0lNi65mwBbPhWGE": [
            "Resources/Localize/zh-cn/image/g53_ru_word_3",
            "cc.SpriteFrame",
            1
        ],
        "8dgiCf9AxEvYn8YiU3fHsZ": [
            "Resources/Localize/zh-cn/image/g53_ru_word_4",
            "cc.SpriteFrame",
            1
        ],
        "86st2fWa9Ofq/qHQvd/3HL": [
            "Resources/Localize/zh-cn/image/g53_ru_word_5",
            "cc.SpriteFrame",
            1
        ],
        "219O9SoMZJno0rQ5G8L+De": [
            "Resources/Localize/zh-cn/image/g53_ru_word_6",
            "cc.SpriteFrame",
            1
        ],
        "9b+i3l8DdEJKsWe2146j7+": [
            "Resources/Localize/zh-cn/image/g53_ru_word_7",
            "cc.SpriteFrame",
            1
        ],
        "3eQXkll7NDubUnCMm+oDkp": [
            "Resources/Localize/zh-cn/image/g53_ru_word_8",
            "cc.SpriteFrame",
            1
        ],
        "12yztUVKBDhp8+VCv+/1sZ": [
            "Resources/Localize/zh-tw/image/README",
            "cc.TextAsset"
        ],
        "bcbB2nDrRCHr4pkxrs+fdu": [
            "Resources/Lossless/Atlas_G53_Lossless",
            "cc.SpriteAtlas"
        ],
        "2erOHgjlVCx45wciL53FvA": [
            "Resources/Lossless/README",
            "cc.TextAsset"
        ],
        "afB4TSt95H/rR9dV5ywTbq": [
            "Resources/Lossless/btn_8",
            "cc.SpriteFrame",
            1
        ],
        "b17EgZaRJJD72OdrS1YR9S": [
            "Resources/Lossless/g11_mg_btn_17",
            "cc.SpriteFrame",
            1
        ],
        "95tzD045FCcKvQ6CJmkoNe": [
            "Resources/Lossless/g11_mg_img_3",
            "cc.SpriteFrame",
            1
        ],
        "77In6NgJ1CwIhN396cCkS+": [
            "Resources/Lossless/img_3",
            "cc.SpriteFrame",
            1
        ],
        "0eddEr4fVM+pBnXqBFen6M": [
            "Resources/Lossless/img_4",
            "cc.SpriteFrame",
            1
        ],
        "9aRdmCOkdEALGmAQJpdPhn": [
            "Resources/Lossless/img_6",
            "cc.SpriteFrame",
            1
        ],
        "0bxwKNAt1GMpcubPIuf/zG": [
            "Resources/Lossless/img_8",
            "cc.SpriteFrame",
            1
        ],
        "06S7h30tZFD7lDOZ/EBV6Y": [
            "Resources/image/UI/all_common/G53_all_AutoAtlas",
            "cc.SpriteAtlas"
        ],
        "66+VtwlH1GroFU1Zhw7M9L": [
            "Resources/image/UI/all_common/Img_WaitTxt",
            "cc.SpriteFrame",
            1
        ],
        "d4C1g4pBROnYiQB+XM01Gl": [
            "Resources/image/UI/all_common/White",
            "cc.SpriteFrame",
            1
        ],
        "02yX5GoJRBhYqENDIqILn2": [
            "Resources/image/UI/all_common/btn_12",
            "cc.SpriteFrame",
            1
        ],
        "92FBrfJQpBDIVAhXFPqrXx": [
            "Resources/image/UI/all_common/btn_13_off",
            "cc.SpriteFrame",
            1
        ],
        "fccPK8+bhF14eA62mdB3o2": [
            "Resources/image/UI/all_common/btn_13_off_arrow",
            "cc.SpriteFrame",
            1
        ],
        "564IJNBWhKKKfNjvQGekaJ": [
            "Resources/image/UI/all_common/btn_14",
            "cc.SpriteFrame",
            1
        ],
        "fe6tuul31C3oTp9+KAshMR": [
            "Resources/image/UI/all_common/btn_15",
            "cc.SpriteFrame",
            1
        ],
        "edbAtpEqhLCrSnHmR/w57S": [
            "Resources/image/UI/all_common/btn_16",
            "cc.SpriteFrame",
            1
        ],
        "f7Rs721dtBqokF0FBT5N2L": [
            "Resources/image/UI/all_common/btn_17_off",
            "cc.SpriteFrame",
            1
        ],
        "3eTvzzpjZEMbQXdjWXRt82": [
            "Resources/image/UI/all_common/btn_17_on",
            "cc.SpriteFrame",
            1
        ],
        "ba4IiCvDVC7JvODHZmixsE": [
            "Resources/image/UI/all_common/btn_18_off",
            "cc.SpriteFrame",
            1
        ],
        "92yENWcyNN4p9jVYmI6nxA": [
            "Resources/image/UI/all_common/btn_18_on",
            "cc.SpriteFrame",
            1
        ],
        "585x6mWIlPHK63lYlL97HJ": [
            "Resources/image/UI/all_common/btn_9",
            "cc.SpriteFrame",
            1
        ],
        "d01rRoo65AxLfuoA3bFvov": [
            "Resources/image/UI/all_common/g11_mg_btn_16",
            "cc.SpriteFrame",
            1
        ],
        "aaspSIgihHl4hgtTIldR29": [
            "Resources/image/UI/all_common/g11_mg_btn_18",
            "cc.SpriteFrame",
            1
        ],
        "4fFlpnIo9Kzp8FSs0zeP0a": [
            "Resources/image/UI/all_common/g11_mg_btn_19",
            "cc.SpriteFrame",
            1
        ],
        "2d65tSCx1KSqI2fKY2dPCm": [
            "Resources/image/UI/all_common/g11_mg_btn_20",
            "cc.SpriteFrame",
            1
        ],
        "ffwsaffeJD87XQA/UpKyFK": [
            "Resources/image/UI/all_common/g11_mg_btn_21",
            "cc.SpriteFrame",
            1
        ],
        "40ARJZ7+5PsrbNK+JH/0ki": [
            "Resources/image/UI/all_common/g11_mg_btn_22",
            "cc.SpriteFrame",
            1
        ],
        "3eQgRZ3C1D8K+w+imdL5ok": [
            "Resources/image/UI/all_common/g11_mg_btn_23",
            "cc.SpriteFrame",
            1
        ],
        "3acBFzulRH36fqlIldNDhC": [
            "Resources/image/UI/all_common/g11_mg_btn_24",
            "cc.SpriteFrame",
            1
        ],
        "a2IKQfvmxEE6KyyoGVqrDb": [
            "Resources/image/UI/all_common/g11_mg_btn_25",
            "cc.SpriteFrame",
            1
        ],
        "4defjB0sZAmbrfwQiT84/Q": [
            "Resources/image/UI/all_common/g11_mg_btn_26",
            "cc.SpriteFrame",
            1
        ],
        "2fFV3D39pDI60sWtvPq/T9": [
            "Resources/image/UI/all_common/g11_mg_btn_27",
            "cc.SpriteFrame",
            1
        ],
        "ddftQTywpFvJxLNCnpKuW2": [
            "Resources/image/UI/all_common/g11_mg_img_1",
            "cc.SpriteFrame",
            1
        ],
        "20yLTY9YtEFK2pbVn1HVVK": [
            "Resources/image/UI/all_common/g11_mg_img_2",
            "cc.SpriteFrame",
            1
        ],
        "3bh44B8G9Gua5afL5cRTC7": [
            "Resources/image/UI/all_common/g9_mg_btn_20",
            "cc.SpriteFrame",
            1
        ],
        "bfsoOujA1C5oDUADu0IdHM": [
            "Resources/image/UI/all_common/img_10",
            "cc.SpriteFrame",
            1
        ],
        "a3chJyco9GtJJn/jhgfo9I": [
            "Resources/image/UI/all_common/img_11",
            "cc.SpriteFrame",
            1
        ],
        "02rhFDYDdFZbdVFkc91aUf": [
            "Resources/image/UI/all_common/img_7",
            "cc.SpriteFrame",
            1
        ],
        "cbUunPjBVFXIYZ4BCAP7Qa": [
            "Resources/image/UI/all_common/img_wait",
            "cc.SpriteFrame",
            1
        ],
        "e6Vq9p9TBIK7WEI7kATvmK": [
            "Resources/image/UI/g24_com_img_1",
            "cc.SpriteFrame",
            1
        ],
        "f5okweRp5GTLBtEZumSqP3": [
            "Resources/image/UI/g53_UI_atlas",
            "cc.SpriteAtlas"
        ],
        "876VOPZphKG62ybSAxyAdG": [
            "Resources/image/UI/g53_com_btn_1",
            "cc.SpriteFrame",
            1
        ],
        "b9FrfE4tZAtaZLkavoJzcD": [
            "Resources/image/UI/g53_com_btn_2",
            "cc.SpriteFrame",
            1
        ],
        "56UTW+sutPbKpDwTWS+xQM": [
            "Resources/image/UI/g53_com_btn_3",
            "cc.SpriteFrame",
            1
        ],
        "6aIiqjd/9FE461wrDNePUU": [
            "Resources/image/UI/g53_com_btn_4",
            "cc.SpriteFrame",
            1
        ],
        "29y06DOJRDjYWM1GmNAxbZ": [
            "Resources/image/UI/g53_com_btn_5",
            "cc.SpriteFrame",
            1
        ],
        "b5RWqMoihN/KERxEGTQCg/": [
            "Resources/image/UI/g53_com_pl_1",
            "cc.SpriteFrame",
            1
        ],
        "d0MyCMg1lAf7GeaCmr6R0v": [
            "Resources/image/UI/g53_com_pl_2",
            "cc.SpriteFrame",
            1
        ],
        "e9yo1OkrJPgaa+oppVnc5i": [
            "Resources/image/UI/g53_com_pl_3",
            "cc.SpriteFrame",
            1
        ],
        "34MVQNy+pE/KRFJi2kRXJ3": [
            "Resources/image/UI/g53_com_pl_4",
            "cc.SpriteFrame",
            1
        ],
        "76UXKda7pLs7KrUx41LSql": [
            "Resources/image/UI/g53_com_pl_5",
            "cc.SpriteFrame",
            1
        ],
        "a2G6cbSPRDObFrDpBKf12q": [
            "Resources/image/UI/g53_com_word_13",
            "cc.SpriteFrame",
            1
        ],
        "a5oOnXF+hEi7pSTW0em2dV": [
            "Resources/image/UI/g53_com_word_14",
            "cc.SpriteFrame",
            1
        ],
        "9etiG74bNM57yCS4f46vyP": [
            "Resources/image/UI/g53_com_word_15",
            "cc.SpriteFrame",
            1
        ],
        "e3j95g2dZFdqxIEtoH/Sdg": [
            "Resources/image/UI/g53_com_word_16",
            "cc.SpriteFrame",
            1
        ],
        "b6if2ZoVRM3b+ND3EWMe+k": [
            "Resources/image/UI/g53_fg_pl_1",
            "cc.SpriteFrame",
            1
        ],
        "e3K/S3fGNGS5j3q1gIGC1B": [
            "Resources/image/UI/g53_ld_img_1",
            "cc.SpriteFrame",
            1
        ],
        "fc5OitRK9MJ6nypzPgrnSN": [
            "Resources/image/UI/g53_ld_img_2",
            "cc.SpriteFrame",
            1
        ],
        "6ddBMxtQNM/YXzoCa9r/U9": [
            "Resources/image/UI/g53_mg_btn_1",
            "cc.SpriteFrame",
            1
        ],
        "5cIrcJ+B5K84jorD0WB6Wf": [
            "Resources/image/UI/g53_mg_btn_10",
            "cc.SpriteFrame",
            1
        ],
        "93W/pBs45Pvqsxr+/Jv5bL": [
            "Resources/image/UI/g53_mg_btn_11",
            "cc.SpriteFrame",
            1
        ],
        "a7C7BJL/FFbq3TWExEQq+y": [
            "Resources/image/UI/g53_mg_btn_12",
            "cc.SpriteFrame",
            1
        ],
        "afHK3lF3tLAqCZzDDlfD0A": [
            "Resources/image/UI/g53_mg_btn_13",
            "cc.SpriteFrame",
            1
        ],
        "58u5BOfSVPyIo/AZik4Jdc": [
            "Resources/image/UI/g53_mg_btn_2",
            "cc.SpriteFrame",
            1
        ],
        "0cuFdT0h9BXpP6m0NNvMNm": [
            "Resources/image/UI/g53_mg_btn_3",
            "cc.SpriteFrame",
            1
        ],
        "58o2/J67xKdK3Y2Do5crul": [
            "Resources/image/UI/g53_mg_btn_4",
            "cc.SpriteFrame",
            1
        ],
        "e7OS+Q22pCbrpFZz6Mm7dm": [
            "Resources/image/UI/g53_mg_btn_6",
            "cc.SpriteFrame",
            1
        ],
        "e0nfoClKRLvJahrfrCvAL1": [
            "Resources/image/UI/g53_mg_btn_7",
            "cc.SpriteFrame",
            1
        ],
        "72hNmB1v9FwZAY2XNbzrC0": [
            "Resources/image/UI/g53_mg_btn_8",
            "cc.SpriteFrame",
            1
        ],
        "1bneGYBvNMiqOg0CFlmZTz": [
            "Resources/image/UI/g53_mg_btn_9",
            "cc.SpriteFrame",
            1
        ],
        "15M31YfdVArIwPdcz8nY1R": [
            "Resources/image/UI/g53_mg_pl_1",
            "cc.SpriteFrame",
            1
        ],
        "04BVjSxwtFlKET9u8rDACn": [
            "Resources/image/UI/g53_ru_btn_1",
            "cc.SpriteFrame",
            1
        ],
        "19NTlr6nNNtbjPnW05vYc8": [
            "Resources/image/UI/g53_ru_img_1",
            "cc.SpriteFrame",
            1
        ],
        "26pHo01kJCSICNLgl56sMb": [
            "Resources/image/UI/g53_ru_img_10",
            "cc.SpriteFrame",
            1
        ],
        "0fpqle0IhGqZGHiOCUNzlS": [
            "Resources/image/UI/g53_ru_img_2",
            "cc.SpriteFrame",
            1
        ],
        "a34gf7iSxKwr5kRLw31F0l": [
            "Resources/image/UI/g53_ru_img_3",
            "cc.SpriteFrame",
            1
        ],
        "18gI0pezhOW641x2RijgSp": [
            "Resources/image/UI/g53_ru_img_4",
            "cc.SpriteFrame",
            1
        ],
        "e98Po7apNBvIfnFnIUPJrs": [
            "Resources/image/UI/g53_ru_img_5",
            "cc.SpriteFrame",
            1
        ],
        "d5VAB2TUZNvoO/HLI6EhIF": [
            "Resources/image/UI/g53_ru_img_6",
            "cc.SpriteFrame",
            1
        ],
        "57xdvZm5pHWrLWDXrzITm1": [
            "Resources/image/UI/g53_ru_img_7",
            "cc.SpriteFrame",
            1
        ],
        "6fCz31b+RGj5zoO95/bxlu": [
            "Resources/image/UI/g53_ru_img_8",
            "cc.SpriteFrame",
            1
        ],
        "7an68VLo5MRaMdGoWpwsAp": [
            "Resources/image/UI/g53_ru_img_9",
            "cc.SpriteFrame",
            1
        ],
        "ad8nNdAmZOaJAy8jFaQxuP": [
            "Resources/image/UI/g53_ru_word_9",
            "cc.SpriteFrame",
            1
        ],
        "9bcxoiqBpDzoh5a9fu/WLe": [
            "Resources/image/UI/g53_symbol_JP",
            "cc.SpriteFrame",
            1
        ],
        "d50tc044tOt7AU+f+7DW4M": [
            "Resources/image/UI/g53_symbol_SCATTER",
            "cc.SpriteFrame",
            1
        ],
        "12pSQJsXlET7lvOFrzmFXG": [
            "Resources/image/UI/g53_symbol_WILD",
            "cc.SpriteFrame",
            1
        ],
        "068Ykd2I5BjLCkBQo1Bg8X": [
            "Resources/music/G53_bgm_coindrop_4win",
            "cc.AudioClip"
        ],
        "19y5bUIeRBNJPpGszQW/ac": [
            "Resources/music/G53_bgm_coindrop_end",
            "cc.AudioClip"
        ],
        "7cD2o/nbJNvL+nHszd+6Ci": [
            "Resources/music/G53_bgm_coindrop_win",
            "cc.AudioClip"
        ],
        "3bA4Pf7JpMGYyBlJ3Gy91z": [
            "Resources/music/G53_bgm_freegame",
            "cc.AudioClip"
        ],
        "67oCqq+sdLiYCacSMzJT4T": [
            "Resources/music/G53_bgm_jackpot",
            "cc.AudioClip"
        ],
        "52vuJMhMNIpaa5KF6B0+Su": [
            "Resources/music/G53_bgm_main",
            "cc.AudioClip"
        ],
        "f5/nbYyIBN+7FTW1aaZYWO": [
            "Resources/prefab/DialogBox/Confirm System Msg DialogBox",
            "cc.Prefab"
        ],
        "04S5B/kxtMyoL5jhlo/8j2": [
            "Resources/prefab/DialogBox/Connect Waiting DialogBox",
            "cc.Prefab"
        ],
        "51sxDuaKJFErrhlMNdVc6w": [
            "Resources/prefab/DialogBox/YN System Msg DialogBox",
            "cc.Prefab"
        ],
        "3eCr8j/VRDm7gsA7dqfwXN": [
            "Resources/sound/G53_ef_click",
            "cc.AudioClip"
        ],
        "4anqKHnlJFrJcpt8wbk9V8": [
            "Resources/sound/G53_ef_click_end",
            "cc.AudioClip"
        ],
        "0bloAdBwVBFpOOqUNKDlKD": [
            "Resources/sound/G53_ef_coindrop_boom_big",
            "cc.AudioClip"
        ],
        "02XZPh3jhGF7KKpqoycPBV": [
            "Resources/sound/G53_ef_coindrop_boom_mega",
            "cc.AudioClip"
        ],
        "d0nxU657NL0royXUweDmvK": [
            "Resources/sound/G53_ef_coindrop_boom_super",
            "cc.AudioClip"
        ],
        "79PPUBy1hAPrfH/Bh08oSh": [
            "Resources/sound/G53_ef_coindrop_score_loop",
            "cc.AudioClip"
        ],
        "c89NJh0GtLlbAGRfzpUqay": [
            "Resources/sound/G53_ef_coindrop_sparkles_big",
            "cc.AudioClip"
        ],
        "01EYIpqkJFkKIPCHohYu1P": [
            "Resources/sound/G53_ef_coindrop_sparkles_mega_end",
            "cc.AudioClip"
        ],
        "f2vSAxvyVGdry5kAnOVoOv": [
            "Resources/sound/G53_ef_coindrop_sparkles_super_mega",
            "cc.AudioClip"
        ],
        "10i8RIK1pJIKz0IIGRnV0M": [
            "Resources/sound/G53_ef_coindrop_win",
            "cc.AudioClip"
        ],
        "89tvu87nZHuqnEQlFCrjpW": [
            "Resources/sound/G53_ef_fireball",
            "cc.AudioClip"
        ],
        "e6g/WFbVdOYoMd3FJGx0FL": [
            "Resources/sound/G53_ef_free_match",
            "cc.AudioClip"
        ],
        "43bPzpQ4RIsLvx62P7wmjc": [
            "Resources/sound/G53_ef_freegame_page",
            "cc.AudioClip"
        ],
        "8dg3LeY2dESL/Kjip23f8r": [
            "Resources/sound/G53_ef_grand_jp_boom",
            "cc.AudioClip"
        ],
        "c8TgIbAWlEspgzqVjgPfjw": [
            "Resources/sound/G53_ef_grand_jp_coins",
            "cc.AudioClip"
        ],
        "3cW1duTD9EBYVClzhaUoEP": [
            "Resources/sound/G53_ef_jackpot_02",
            "cc.AudioClip"
        ],
        "c0GcDi7mBNS4MOzXSTbJlu": [
            "Resources/sound/G53_ef_main_match",
            "cc.AudioClip"
        ],
        "cak+CsTFBPjq8BNY8Ykp7K": [
            "Resources/sound/G53_ef_major_jp_boom",
            "cc.AudioClip"
        ],
        "c7wRD8se1BLpAI1hnUUCGx": [
            "Resources/sound/G53_ef_major_jp_coins",
            "cc.AudioClip"
        ],
        "68DfnQQaBBjYbtmao3XULk": [
            "Resources/sound/G53_ef_mini_jp_boom",
            "cc.AudioClip"
        ],
        "d7n4Qhq7NPRLJHK+Lj3ibp": [
            "Resources/sound/G53_ef_mini_jp_coins",
            "cc.AudioClip"
        ],
        "efjD/+IH5EsLwcpeBT2rL+": [
            "Resources/sound/G53_ef_minor_jp_boom",
            "cc.AudioClip"
        ],
        "97Z7s5wbdPzYQNAo8+Itt4": [
            "Resources/sound/G53_ef_minor_jp_coins",
            "cc.AudioClip"
        ],
        "29Dlw4BcRABaB6tg6I6E8I": [
            "Resources/sound/G53_ef_play_reward_01",
            "cc.AudioClip"
        ],
        "132IGrtMNJ+oHtFqnqWSnn": [
            "Resources/sound/G53_ef_play_reward_02",
            "cc.AudioClip"
        ],
        "a9RlaBDyNL4Jmx0bK+H8Gw": [
            "Resources/sound/G53_ef_rolling_in",
            "cc.AudioClip"
        ],
        "e4eHJbaFZBCqkkLOmAhqXg": [
            "Resources/sound/G53_ef_rolling_out",
            "cc.AudioClip"
        ],
        "bdJ3M3yzdEpaUCvNHNLeLI": [
            "Resources/sound/G53_ef_show_mul_fly",
            "cc.AudioClip"
        ],
        "fcNrx0z5ZAbqeBruBUTqcN": [
            "Resources/sound/G53_ef_spin",
            "cc.AudioClip"
        ],
        "2bxsOdpfdPaYuhCKSm52bt": [
            "Resources/sound/G53_ef_spin_free",
            "cc.AudioClip"
        ],
        "48TQOUffZErqIeUeG2mlfB": [
            "Resources/sound/G53_ef_star_prize",
            "cc.AudioClip"
        ],
        "e5C6w/HINOzJqDSoCTQLY4": [
            "Resources/sound/G53_ef_star_prize_01",
            "cc.AudioClip"
        ],
        "8eFARabslJfL6LTCMGkug+": [
            "Resources/sound/G53_ef_symbol_drop",
            "cc.AudioClip"
        ],
        "65OvNm3OpHOpJyDj72fk8d": [
            "Resources/sound/G53_ef_symbol_expl_single_01",
            "cc.AudioClip"
        ],
        "7cjeiGYatP/rFKHkOhp04E": [
            "Resources/sound/G53_ef_wild_change_01",
            "cc.AudioClip"
        ],
        "06IwYJ+lRJ678QvI4vBgqj": [
            "Resources/sound/G53_ef_win_animation",
            "cc.AudioClip"
        ]
    },
    "uuids": [
        "00nnKasaVA+qLuXr1Va0qQ",
        "01EYIpqkJFkKIPCHohYu1P",
        "02XZPh3jhGF7KKpqoycPBV",
        "02rhFDYDdFZbdVFkc91aUf",
        "02yX5GoJRBhYqENDIqILn2",
        "03PJU2hSdNaYFTwcjAd56F",
        "032ItENsBJNJ84JObEUoC9",
        "04BVjSxwtFlKET9u8rDACn",
        "04S5B/kxtMyoL5jhlo/8j2",
        "06IwYJ+lRJ678QvI4vBgqj",
        "06S7h30tZFD7lDOZ/EBV6Y",
        "068Ykd2I5BjLCkBQo1Bg8X",
        "074D3IonhLbZ3xrgbXZDtZ",
        "09nYQTjt1Gd7s3K8LGeNPw",
        "0ascmYet9DDLCRwnesFkVF",
        "0bloAdBwVBFpOOqUNKDlKD",
        "0bxwKNAt1GMpcubPIuf/zG",
        "0csdO/EwNBbpWTUhiZp5Ba",
        "0cuFdT0h9BXpP6m0NNvMNm",
        "0dP8kJh9hKRrgtpoa2BEF7",
        "0dwmcdKXNFEJGeG6V7GoIU",
        "0eddEr4fVM+pBnXqBFen6M",
        "0fageAhIRF9q6IVhGM2Vnt",
        "0fpqle0IhGqZGHiOCUNzlS",
        "10i8RIK1pJIKz0IIGRnV0M",
        "11281592b",
        "12pSQJsXlET7lvOFrzmFXG",
        "12yztUVKBDhp8+VCv+/1sZ",
        "13311ada2",
        "132IGrtMNJ+oHtFqnqWSnn",
        "15M31YfdVArIwPdcz8nY1R",
        "16jR8QQYZCh7xI/HbDTweC",
        "17wB27yxZIs6+6nbiNzPrV",
        "175Dt6WelNQ623S8Fjr+nJ",
        "18gI0pezhOW641x2RijgSp",
        "19I3C7l9NPb6NhzQs7DrX/",
        "19NTlr6nNNtbjPnW05vYc8",
        "19Xygb+gpA6bKC9ifY6lZP",
        "1967f9200",
        "19y5bUIeRBNJPpGszQW/ac",
        "1aa+yrQedHKJreH/tPv4rV",
        "1bATtSZzhKX4qe3t3cc6TW",
        "1bneGYBvNMiqOg0CFlmZTz",
        "1e6d63dbd",
        "1eba3df0d",
        "1fd0+8yQ1OrYjEbrzOdO5Q",
        "20yLTY9YtEFK2pbVn1HVVK",
        "217S7CclRF3pdSpcjbXQcZ",
        "219O9SoMZJno0rQ5G8L+De",
        "23A8LrtNdCErYux8/vAjO2",
        "25O/LHKPdE7ZmcNRfCIiaE",
        "26pHo01kJCSICNLgl56sMb",
        "27CwTP+QBMNboGrD+gRvt/",
        "27ZF1ucwNN37/4ohpVAKZb",
        "29Dlw4BcRABaB6tg6I6E8I",
        "29FYIk+N1GYaeWH/q1NxQO",
        "29y06DOJRDjYWM1GmNAxbZ",
        "291euTv9BHUa1HLk/AyhZc",
        "2bfEd70vxGrLnAqXYS1ZOk",
        "2bxsOdpfdPaYuhCKSm52bt",
        "2co3zv1ThHDrmvbApX3lhZ",
        "2dAnZNTGxNKIPv1tRBDOYk",
        "2dJLhro9tEopnZ1u0RNu6Z",
        "2d65tSCx1KSqI2fKY2dPCm",
        "2el3mmHQRNJ6sv5jH4LEcl",
        "2erOHgjlVCx45wciL53FvA",
        "2fFV3D39pDI60sWtvPq/T9",
        "32CrDjr0BGjaO2Yyu5tv9z",
        "32yiZrA31E5JZRTyOXkF3F",
        "34MVQNy+pE/KRFJi2kRXJ3",
        "3621JwkxNE35rpS+BeD6tE",
        "37Hqk4/jFCdbt1pqw1sDEa",
        "38QiUucQNKyJYMIqycqxFm",
        "39EP9iyvNBNKAj+BUGUNGX",
        "39HV9fA2lD84LEr5XaF+Lm",
        "39P5uA39VDxqi3daCNUM4Y",
        "39woB6c+NOT41Z/5OMrbJ5",
        "3acBFzulRH36fqlIldNDhC",
        "3bA4Pf7JpMGYyBlJ3Gy91z",
        "3bh44B8G9Gua5afL5cRTC7",
        "3bmPVCq4pJBJMWTuAEjO2Y",
        "3cW1duTD9EBYVClzhaUoEP",
        "3ca8cviuNGTp1I4A9G1g51",
        "3dJ6u/ZGpJDa8WPbd6v6ys",
        "3ddvOvQ+5N9Z229sdh9bEw",
        "3eCr8j/VRDm7gsA7dqfwXN",
        "3eQXkll7NDubUnCMm+oDkp",
        "3eQgRZ3C1D8K+w+imdL5ok",
        "3eTvzzpjZEMbQXdjWXRt82",
        "3foH6jBFpOUZSa6oVT791t",
        "3f0N468z9G6Y2gJf1GiH0w",
        "40ARJZ7+5PsrbNK+JH/0ki",
        "40pOayUllJpqEltBdr//9Q",
        "41AsK/xC5Bv4W7+/fPU9NP",
        "42NvTeXjVHgI7m31quuivY",
        "43bPzpQ4RIsLvx62P7wmjc",
        "44Ry2PujRLDr1dQqBSKtxg",
        "45MqEuA7hIdKNNwPcUfrE0",
        "47F/LTuWNGTolq2awG+McB",
        "47HIHDvZ5PAbxFbHGnAviN",
        "48BaHWIgtHLpxagxix0EVN",
        "48TQOUffZErqIeUeG2mlfB",
        "49u4vylwdB04Eeh1Q6763k",
        "4aCaO0kH5GcYMsoftXEElX",
        "4ahWvIVLdJno3TQFOsNFFx",
        "4anqKHnlJFrJcpt8wbk9V8",
        "4cT6g5YttPWJL0kbQVYGf3",
        "4defjB0sZAmbrfwQiT84/Q",
        "4dxrad0RlN9raoMUG5aECa",
        "4fFlpnIo9Kzp8FSs0zeP0a",
        "4fTksSSXlDcq6fmZK8OcnL",
        "4fvnrJgoBCka3G5pV3GDG2",
        "51sOH+LtZKTbpGQBloIH+p",
        "51sxDuaKJFErrhlMNdVc6w",
        "52EKlXKB1LcJaF8AMLVHTM",
        "52vuJMhMNIpaa5KF6B0+Su",
        "54MHO8XmhHmqPUEvSdnBQ/",
        "54bQnZ3S9DhJdKgplJyYL2",
        "55nHPeQkFPSo0kwEhg98Hv",
        "55rwKKNL1D+riXN1K0KjLR",
        "56UTW+sutPbKpDwTWS+xQM",
        "564IJNBWhKKKfNjvQGekaJ",
        "57xdvZm5pHWrLWDXrzITm1",
        "58o2/J67xKdK3Y2Do5crul",
        "58u5BOfSVPyIo/AZik4Jdc",
        "585x6mWIlPHK63lYlL97HJ",
        "5aFPW+62hFYKTBujJ6rqfF",
        "5aHM5WNyVNn7wM7eG7Eawi",
        "5aMMHG+P5FfIFNtc3EhBMS",
        "5a+gw7AgBE3IDcArWYBK6U",
        "5bHuIDjQJLtq7I/71ylVW0",
        "5cIrcJ+B5K84jorD0WB6Wf",
        "5c+BtQIBhGPqXeGamOzKjp",
        "60joI0t9xG0LVZjbZYT/DY",
        "609JqC9OVHyp2iq8BePsRc",
        "62NGYILGFHEaVlsasSiD9j",
        "65OvNm3OpHOpJyDj72fk8d",
        "65dcDuTLZP6pu3HSoB+fZ5",
        "651oeZN8REy6BiwFLqPTd8",
        "66MogqtpZChLqx2skiWkKL",
        "66+VtwlH1GroFU1Zhw7M9L",
        "67oCqq+sdLiYCacSMzJT4T",
        "68DfnQQaBBjYbtmao3XULk",
        "68kUdT6yFLWqKAl9RbVN35",
        "69sRazBNRBtp0g8Gq0s8qj",
        "69yp5faOBCI5frGuMHlTvL",
        "6aIiqjd/9FE461wrDNePUU",
        "6b3L9ilYhIp4Xa/FjZwuvc",
        "6cqd+QA0lNi65mwBbPhWGE",
        "6dHybJHNFFMqtzUb75wI92",
        "6dW7XhgMlAB4MHsEapsSk9",
        "6ddBMxtQNM/YXzoCa9r/U9",
        "6e3zjeWL1PfI1BWHQxTy9W",
        "6fCz31b+RGj5zoO95/bxlu",
        "6fPJOssT5MkpwHrL/UKymo",
        "70dz43d2tDi7/MH07cEGOT",
        "71CjcplatIKr2ZQ5vssmrD",
        "7162nSYvtAuY1jwzusl+Mt",
        "72hNmB1v9FwZAY2XNbzrC0",
        "73EZL61rVDZ5uNbuZY0TYW",
        "73dCtYRptPDrIAlVLdMSTP",
        "74d1EnMHtABq2DFw9C5hgX",
        "74mUK/0OJMZYoqZkUDDh93",
        "740Fcrzf9JcqnYrxsa34qf",
        "75JiubuiZO+rKA1b8RCJxp",
        "75+/TkvvdIPJ84pFaXB/t9",
        "76UXKda7pLs7KrUx41LSql",
        "766TYRV/VKV7mQ+LI+bJ71",
        "77In6NgJ1CwIhN396cCkS+",
        "77NAzsKaxH5rwKMlPEnM7b",
        "78tWK72ZtH1K3KQNTtu70N",
        "79PPUBy1hAPrfH/Bh08oSh",
        "79vcYjOpRP0KCXKyOkhv+q",
        "7akR+tjChCkKhYAd1F1tDY",
        "7an68VLo5MRaMdGoWpwsAp",
        "7a/QZLET9IDreTiBfRn2PD",
        "7cCQ03XdZKtrwk9fCb2s3e",
        "7cD2o/nbJNvL+nHszd+6Ci",
        "7cjeiGYatP/rFKHkOhp04E",
        "7eo3zzozVM15/B+qsgFkuI",
        "7fnvHeiFBHRZAP077ngz+F",
        "82j//L97lIkbVytpI/aWDM",
        "82migssElAGb04Ws6NimQX",
        "84zkG6DmJEprvCz8bDiz6w",
        "86st2fWa9Ofq/qHQvd/3HL",
        "86yIFn45ZB0rnou88Ppzta",
        "876VOPZphKG62ybSAxyAdG",
        "88+Josi/lJwI72ll1WHTng",
        "89tvu87nZHuqnEQlFCrjpW",
        "8aOcgMDBBMIbf//J45BRAO",
        "8bAZi8cHZI8r7Gx9Ow4sCg",
        "8bNvnGVRJM2IzaQcaz+2DE",
        "8cqiaY8a1OVqoo8O9uhOTl",
        "8c20Sso/ZEn7NUfNSM+EBh",
        "8dBXcJgClKibQtmDHll7f5",
        "8dbETslGZGsptpnOMJRoAu",
        "8dgiCf9AxEvYn8YiU3fHsZ",
        "8dg3LeY2dESL/Kjip23f8r",
        "8eFARabslJfL6LTCMGkug+",
        "8ek2l2iZFN2Knrw0AR9OYp",
        "90T9ITeHJF5a5+W9FPkTt+",
        "90nFaZFhBB3KFRDjiYS7sm",
        "907fiDvrhBpZsOQs18B5NP",
        "909njjIddD6pP3dYFtP82r",
        "91ellFBzJA8LBaYOA8C6iv",
        "92FBrfJQpBDIVAhXFPqrXx",
        "92yENWcyNN4p9jVYmI6nxA",
        "93W/pBs45Pvqsxr+/Jv5bL",
        "94sW9L3AtJZLMgMo/OAN1G",
        "95fN3YWdxGMYOcyjJbFA+Z",
        "95tzD045FCcKvQ6CJmkoNe",
        "97Z7s5wbdPzYQNAo8+Itt4",
        "98FMU4O5JBK6DMN7KBM5/v",
        "994jzkIxRMBKC/i8F55F0v",
        "9aRdmCOkdEALGmAQJpdPhn",
        "9bcxoiqBpDzoh5a9fu/WLe",
        "9b+i3l8DdEJKsWe2146j7+",
        "9ej6DTYHZKMqGT1YPjXEOX",
        "9etiG74bNM57yCS4f46vyP",
        "9f4FF0R9ZHuKqpnbXM/0wp",
        "a1TX9zl/dKvaI/0UXbXc5v",
        "a11AP+F/JD2a/b/PuaXNRd",
        "a2G6cbSPRDObFrDpBKf12q",
        "a2IKQfvmxEE6KyyoGVqrDb",
        "a2MjXRFdtLlYQ5ouAFv/+R",
        "a3chJyco9GtJJn/jhgfo9I",
        "a3zcNTLXhEIaS+i9AvZnMZ",
        "a34gf7iSxKwr5kRLw31F0l",
        "a5FCQLDmBBzZrcaHFm/y0p",
        "a5Oo6mq05Ei4yhTMhpu28Z",
        "a5oOnXF+hEi7pSTW0em2dV",
        "a7C7BJL/FFbq3TWExEQq+y",
        "a8dy00IIpOs4TrudPpv8Fd",
        "a9RlaBDyNL4Jmx0bK+H8Gw",
        "aaspSIgihHl4hgtTIldR29",
        "acxOQDgqVMM488y3ilvvYw",
        "ad8nNdAmZOaJAy8jFaQxuP",
        "afB4TSt95H/rR9dV5ywTbq",
        "afHK3lF3tLAqCZzDDlfD0A",
        "afX1eUEZBD/plwxHncy9rO",
        "afoxHwBQtCWp3UPyi5EBST",
        "b0ONJ6VmFEuJ+QfA2c5gXV",
        "b0fvYfrNNGoaJr5joZCBg5",
        "b1IupUeHdCNo2wiDzYv0KM",
        "b17EgZaRJJD72OdrS1YR9S",
        "b183505CdDd6iD26PTFPlI",
        "b2Wzh+oaZMu5lqMc84TCsm",
        "b3rQFYLeFOU74QtDtcGh4r",
        "b4FTVQB65Gk7QDf8QeHWHC",
        "b4KGPVGDNEKbBUZgQ3sPJV",
        "b41kQGLNJDnZ807jjPnz8e",
        "b5RWqMoihN/KERxEGTQCg/",
        "b6if2ZoVRM3b+ND3EWMe+k",
        "b6tF5Gr/xKy6JDipng+O5T",
        "b78j9DPR5OZ5qpuw1wOTU6",
        "b8DqKgul1DMrO6R2dbzbL0",
        "b8JoBufv5LGp4uzm5d/r1s",
        "b9FrfE4tZAtaZLkavoJzcD",
        "ba4IiCvDVC7JvODHZmixsE",
        "bbiBheR0tMs6EOxVTRma9C",
        "bcbB2nDrRCHr4pkxrs+fdu",
        "bcpdV5CI5MfJrsE9JTg9gQ",
        "bdJ3M3yzdEpaUCvNHNLeLI",
        "bfaK4YQc5GYYdmn+K4NcyE",
        "bfn+WnzstCB4GiPhXflIG7",
        "bfsoOujA1C5oDUADu0IdHM",
        "c0GcDi7mBNS4MOzXSTbJlu",
        "c0baOqMqlEcr+dEHVM+4+T",
        "c0qlklN4pMKaLs4pDmNo8j",
        "c1yidOIz5CFLihF1wPYaAO",
        "c2FTdmuDtIMJZiY61Obf2c",
        "c2UldLC3xIz6O9p8i4dgbx",
        "c30wdbOopPXpkUsHBwZLvU",
        "c5EPBCRylJIpnhMGskuwwD",
        "c6bvZLBZBH0LfcBAJzSk7E",
        "c7wRD8se1BLpAI1hnUUCGx",
        "c8TgIbAWlEspgzqVjgPfjw",
        "c89NJh0GtLlbAGRfzpUqay",
        "cak+CsTFBPjq8BNY8Ykp7K",
        "cbUunPjBVFXIYZ4BCAP7Qa",
        "cbtF+dQ/5L8Zzz65pBUJZp",
        "cdKH0bf/1EC4im+DGmhSEo",
        "cd2gPHmixBm6+Cc0SdRgxi",
        "d0MyCMg1lAf7GeaCmr6R0v",
        "d0nxU657NL0royXUweDmvK",
        "d01rRoo65AxLfuoA3bFvov",
        "d1da+xp91EVbp8F9kJs/H/",
        "d167IJ+slB8bq44LgZkgAY",
        "d24YVH89hI+5lPCi4kRw1W",
        "d3HYdCOYRN04lSHX3BQDB9",
        "d4C1g4pBROnYiQB+XM01Gl",
        "d5VAB2TUZNvoO/HLI6EhIF",
        "d50tc044tOt7AU+f+7DW4M",
        "d7n4Qhq7NPRLJHK+Lj3ibp",
        "dazZqffH5DJIvFl+9ZLVNR",
        "ddftQTywpFvJxLNCnpKuW2",
        "ddpoXQ+VdOWoVgDP8yr+Lg",
        "deb+CT2TtGzpjyynIUGaTY",
        "dfM2Uc4f5K/oSzCA7+TKv5",
        "e0Xxe7OJNF/6xPxPn/G2bR",
        "e0nfoClKRLvJahrfrCvAL1",
        "e1F+tP9MBJeKBbGNti2k73",
        "e3K/S3fGNGS5j3q1gIGC1B",
        "e3j95g2dZFdqxIEtoH/Sdg",
        "e3j/Qy9wdLVIX8rXo7Z0T0",
        "e4eHJbaFZBCqkkLOmAhqXg",
        "e5C6w/HINOzJqDSoCTQLY4",
        "e5vAdB9/RE15L/in/iu330",
        "e6SS4NKF1NwpXxT5ORxpny",
        "e6Vq9p9TBIK7WEI7kATvmK",
        "e6g/WFbVdOYoMd3FJGx0FL",
        "e7OS+Q22pCbrpFZz6Mm7dm",
        "e7q6FL+VZEgLJUjVeDLic/",
        "e7sMgc+QtP0L9x8yMGQkTV",
        "e78Oir5DdFypprCCUYNSqN",
        "e9m8iec59HuJeWn3/Im5oN",
        "e9x/1qS1hCp5l4FI14/kzy",
        "e9yo1OkrJPgaa+oppVnc5i",
        "e97GVMl6JHh5Ml5qEDdSGa",
        "e98Po7apNBvIfnFnIUPJrs",
        "eafcPs/0BJx5tJ/S9Xkt2h",
        "eb+bTzj1ZD8KfouLvpEZmd",
        "ecU9KSlRlJW7KuPLUEujuf",
        "ecpdLyjvZBwrvm+cedCcQy",
        "edBWgIF09G2b0fpBXRODNB",
        "edbAtpEqhLCrSnHmR/w57S",
        "ed1BtnlWNPMIp7va3YD7bM",
        "ee7raT1TRA1YUCkEAO+LZ5",
        "efVrw9tjNOFLtVhp1+frtd",
        "efjD/+IH5EsLwcpeBT2rL+",
        "f0BIwQ8D5Ml7nTNQbh1YlS",
        "f2OwQklNpDQoFedx+PhmIA",
        "f2tEx2XONP1qyi08HOgH4W",
        "f2vSAxvyVGdry5kAnOVoOv",
        "f3WZBcho5JiJE5cIoTscS+",
        "f4HgARYiVDK6hdfMTh3Dmn",
        "f4Qy6woadJ1oduMVBNPxw6",
        "f4waO1HKhA0rAy3mV4qETQ",
        "f5okweRp5GTLBtEZumSqP3",
        "f5/nbYyIBN+7FTW1aaZYWO",
        "f6bDI6/PNEsZpFV5ijh1FP",
        "f7Rs721dtBqokF0FBT5N2L",
        "f8zId3M2NCu50aq0QjmesD",
        "f82WN4KtJDZ4ol7ERDigf9",
        "f88N9PTB1A0a0p/EukTuk/",
        "f9BPZanYxGqI6PKgE0jCmP",
        "faPjhBBx1KLZc+/VlNTkXF",
        "fahMsdOhdMGJBj/KxRySVu",
        "famTR59Y1GG4G2cEFMtV2+",
        "fbVgITXhVDAL5/HUqCpEWR",
        "fbmdJcBH5NOrvCCQGymSAl",
        "fcNrx0z5ZAbqeBruBUTqcN",
        "fccPK8+bhF14eA62mdB3o2",
        "fcpkujaD1KV4VnCyoue6Oe",
        "fc5OitRK9MJ6nypzPgrnSN",
        "fdWOgekYdGWKEOpuC9G2FD",
        "feqZoo9wJCqph89YUl5VK1",
        "fe6tuul31C3oTp9+KAshMR",
        "ffDpHHVcZAhqOfy25Fe4w7",
        "ffwsaffeJD87XQA/UpKyFK"
    ],
    "scenes": {
        "db://assets/G53/Scene/G53_Game.fire": "75+/TkvvdIPJ84pFaXB/t9",
        "db://assets/G53/Scene/G53_Loading.fire": "f4Qy6woadJ1oduMVBNPxw6",
        "db://assets/G53/Scene/G53_Lobby.fire": "e3j/Qy9wdLVIX8rXo7Z0T0"
    },
    "redirect": [
        "29FYIk+N1GYaeWH/q1NxQO",
        0,
        "651oeZN8REy6BiwFLqPTd8",
        0,
        "7a/QZLET9IDreTiBfRn2PD",
        1,
        "82migssElAGb04Ws6NimQX",
        1,
        "8c20Sso/ZEn7NUfNSM+EBh",
        2,
        "a2MjXRFdtLlYQ5ouAFv/+R",
        2,
        "e7q6FL+VZEgLJUjVeDLic/",
        2,
        "e97GVMl6JHh5Ml5qEDdSGa",
        0,
        "ecpdLyjvZBwrvm+cedCcQy",
        1,
        "f0BIwQ8D5Ml7nTNQbh1YlS",
        0,
        "ffDpHHVcZAhqOfy25Fe4w7",
        2
    ],
    "deps": [
        "Common",
        "internal",
        "CommonResources"
    ],
    "packs": {
        "07d17fd77": [
            "00nnKasaVA+qLuXr1Va0qQ",
            "01EYIpqkJFkKIPCHohYu1P",
            "02XZPh3jhGF7KKpqoycPBV",
            "02rhFDYDdFZbdVFkc91aUf",
            "02yX5GoJRBhYqENDIqILn2",
            "03PJU2hSdNaYFTwcjAd56F",
            "032ItENsBJNJ84JObEUoC9",
            "04BVjSxwtFlKET9u8rDACn",
            "04S5B/kxtMyoL5jhlo/8j2",
            "06IwYJ+lRJ678QvI4vBgqj",
            "06S7h30tZFD7lDOZ/EBV6Y",
            "068Ykd2I5BjLCkBQo1Bg8X",
            "074D3IonhLbZ3xrgbXZDtZ",
            "09nYQTjt1Gd7s3K8LGeNPw",
            "0ascmYet9DDLCRwnesFkVF",
            "0bloAdBwVBFpOOqUNKDlKD",
            "0bxwKNAt1GMpcubPIuf/zG",
            "0csdO/EwNBbpWTUhiZp5Ba",
            "0cuFdT0h9BXpP6m0NNvMNm",
            "0dP8kJh9hKRrgtpoa2BEF7",
            "0dwmcdKXNFEJGeG6V7GoIU",
            "0eddEr4fVM+pBnXqBFen6M",
            "0fageAhIRF9q6IVhGM2Vnt",
            "0fpqle0IhGqZGHiOCUNzlS",
            "10i8RIK1pJIKz0IIGRnV0M",
            "11281592b",
            "12pSQJsXlET7lvOFrzmFXG",
            "12yztUVKBDhp8+VCv+/1sZ",
            "13311ada2",
            "132IGrtMNJ+oHtFqnqWSnn",
            "15M31YfdVArIwPdcz8nY1R",
            "16jR8QQYZCh7xI/HbDTweC",
            "17wB27yxZIs6+6nbiNzPrV",
            "175Dt6WelNQ623S8Fjr+nJ",
            "18gI0pezhOW641x2RijgSp",
            "19I3C7l9NPb6NhzQs7DrX/",
            "19NTlr6nNNtbjPnW05vYc8",
            "19Xygb+gpA6bKC9ifY6lZP",
            "1967f9200",
            "19y5bUIeRBNJPpGszQW/ac",
            "1aa+yrQedHKJreH/tPv4rV",
            "1bATtSZzhKX4qe3t3cc6TW",
            "1bneGYBvNMiqOg0CFlmZTz",
            "1e6d63dbd",
            "1eba3df0d",
            "1fd0+8yQ1OrYjEbrzOdO5Q",
            "20yLTY9YtEFK2pbVn1HVVK",
            "217S7CclRF3pdSpcjbXQcZ",
            "219O9SoMZJno0rQ5G8L+De",
            "23A8LrtNdCErYux8/vAjO2",
            "25O/LHKPdE7ZmcNRfCIiaE",
            "26pHo01kJCSICNLgl56sMb",
            "27CwTP+QBMNboGrD+gRvt/",
            "27ZF1ucwNN37/4ohpVAKZb",
            "29Dlw4BcRABaB6tg6I6E8I",
            "29y06DOJRDjYWM1GmNAxbZ",
            "291euTv9BHUa1HLk/AyhZc",
            "2bfEd70vxGrLnAqXYS1ZOk",
            "2bxsOdpfdPaYuhCKSm52bt",
            "2co3zv1ThHDrmvbApX3lhZ",
            "2dAnZNTGxNKIPv1tRBDOYk",
            "2dJLhro9tEopnZ1u0RNu6Z",
            "2d65tSCx1KSqI2fKY2dPCm",
            "2el3mmHQRNJ6sv5jH4LEcl",
            "2erOHgjlVCx45wciL53FvA",
            "2fFV3D39pDI60sWtvPq/T9",
            "32CrDjr0BGjaO2Yyu5tv9z",
            "32yiZrA31E5JZRTyOXkF3F",
            "34MVQNy+pE/KRFJi2kRXJ3",
            "3621JwkxNE35rpS+BeD6tE",
            "37Hqk4/jFCdbt1pqw1sDEa",
            "38QiUucQNKyJYMIqycqxFm",
            "39EP9iyvNBNKAj+BUGUNGX",
            "39HV9fA2lD84LEr5XaF+Lm",
            "39P5uA39VDxqi3daCNUM4Y",
            "39woB6c+NOT41Z/5OMrbJ5",
            "3acBFzulRH36fqlIldNDhC",
            "3bA4Pf7JpMGYyBlJ3Gy91z",
            "3bh44B8G9Gua5afL5cRTC7",
            "3bmPVCq4pJBJMWTuAEjO2Y",
            "3cW1duTD9EBYVClzhaUoEP",
            "3ca8cviuNGTp1I4A9G1g51",
            "3dJ6u/ZGpJDa8WPbd6v6ys",
            "3ddvOvQ+5N9Z229sdh9bEw",
            "3eCr8j/VRDm7gsA7dqfwXN",
            "3eQXkll7NDubUnCMm+oDkp",
            "3eQgRZ3C1D8K+w+imdL5ok",
            "3eTvzzpjZEMbQXdjWXRt82",
            "3foH6jBFpOUZSa6oVT791t",
            "3f0N468z9G6Y2gJf1GiH0w",
            "40ARJZ7+5PsrbNK+JH/0ki",
            "40pOayUllJpqEltBdr//9Q",
            "41AsK/xC5Bv4W7+/fPU9NP",
            "42NvTeXjVHgI7m31quuivY",
            "43bPzpQ4RIsLvx62P7wmjc",
            "44Ry2PujRLDr1dQqBSKtxg",
            "45MqEuA7hIdKNNwPcUfrE0",
            "47F/LTuWNGTolq2awG+McB",
            "47HIHDvZ5PAbxFbHGnAviN",
            "48BaHWIgtHLpxagxix0EVN",
            "48TQOUffZErqIeUeG2mlfB",
            "49u4vylwdB04Eeh1Q6763k",
            "4aCaO0kH5GcYMsoftXEElX",
            "4ahWvIVLdJno3TQFOsNFFx",
            "4anqKHnlJFrJcpt8wbk9V8",
            "4cT6g5YttPWJL0kbQVYGf3",
            "4defjB0sZAmbrfwQiT84/Q",
            "4dxrad0RlN9raoMUG5aECa",
            "4fFlpnIo9Kzp8FSs0zeP0a",
            "4fTksSSXlDcq6fmZK8OcnL",
            "4fvnrJgoBCka3G5pV3GDG2",
            "51sOH+LtZKTbpGQBloIH+p",
            "51sxDuaKJFErrhlMNdVc6w",
            "52EKlXKB1LcJaF8AMLVHTM",
            "52vuJMhMNIpaa5KF6B0+Su",
            "54MHO8XmhHmqPUEvSdnBQ/",
            "54bQnZ3S9DhJdKgplJyYL2",
            "55nHPeQkFPSo0kwEhg98Hv",
            "55rwKKNL1D+riXN1K0KjLR",
            "56UTW+sutPbKpDwTWS+xQM",
            "564IJNBWhKKKfNjvQGekaJ",
            "57xdvZm5pHWrLWDXrzITm1",
            "58o2/J67xKdK3Y2Do5crul",
            "58u5BOfSVPyIo/AZik4Jdc",
            "585x6mWIlPHK63lYlL97HJ",
            "5aFPW+62hFYKTBujJ6rqfF",
            "5aHM5WNyVNn7wM7eG7Eawi",
            "5aMMHG+P5FfIFNtc3EhBMS",
            "5a+gw7AgBE3IDcArWYBK6U",
            "5bHuIDjQJLtq7I/71ylVW0",
            "5cIrcJ+B5K84jorD0WB6Wf",
            "5c+BtQIBhGPqXeGamOzKjp",
            "60joI0t9xG0LVZjbZYT/DY",
            "609JqC9OVHyp2iq8BePsRc",
            "62NGYILGFHEaVlsasSiD9j",
            "65OvNm3OpHOpJyDj72fk8d",
            "65dcDuTLZP6pu3HSoB+fZ5",
            "66MogqtpZChLqx2skiWkKL",
            "66+VtwlH1GroFU1Zhw7M9L",
            "67oCqq+sdLiYCacSMzJT4T",
            "68DfnQQaBBjYbtmao3XULk",
            "68kUdT6yFLWqKAl9RbVN35",
            "69sRazBNRBtp0g8Gq0s8qj",
            "69yp5faOBCI5frGuMHlTvL",
            "6aIiqjd/9FE461wrDNePUU",
            "6b3L9ilYhIp4Xa/FjZwuvc",
            "6cqd+QA0lNi65mwBbPhWGE",
            "6dHybJHNFFMqtzUb75wI92",
            "6dW7XhgMlAB4MHsEapsSk9",
            "6ddBMxtQNM/YXzoCa9r/U9",
            "6e3zjeWL1PfI1BWHQxTy9W",
            "6fCz31b+RGj5zoO95/bxlu",
            "6fPJOssT5MkpwHrL/UKymo",
            "70dz43d2tDi7/MH07cEGOT",
            "71CjcplatIKr2ZQ5vssmrD",
            "7162nSYvtAuY1jwzusl+Mt",
            "72hNmB1v9FwZAY2XNbzrC0",
            "73EZL61rVDZ5uNbuZY0TYW",
            "73dCtYRptPDrIAlVLdMSTP",
            "74d1EnMHtABq2DFw9C5hgX",
            "74mUK/0OJMZYoqZkUDDh93",
            "740Fcrzf9JcqnYrxsa34qf",
            "75JiubuiZO+rKA1b8RCJxp",
            "75+/TkvvdIPJ84pFaXB/t9",
            "76UXKda7pLs7KrUx41LSql",
            "766TYRV/VKV7mQ+LI+bJ71",
            "77In6NgJ1CwIhN396cCkS+",
            "77NAzsKaxH5rwKMlPEnM7b",
            "78tWK72ZtH1K3KQNTtu70N",
            "79PPUBy1hAPrfH/Bh08oSh",
            "79vcYjOpRP0KCXKyOkhv+q",
            "7akR+tjChCkKhYAd1F1tDY",
            "7an68VLo5MRaMdGoWpwsAp",
            "7cCQ03XdZKtrwk9fCb2s3e",
            "7cD2o/nbJNvL+nHszd+6Ci",
            "7cjeiGYatP/rFKHkOhp04E",
            "7eo3zzozVM15/B+qsgFkuI",
            "7fnvHeiFBHRZAP077ngz+F",
            "82j//L97lIkbVytpI/aWDM",
            "84zkG6DmJEprvCz8bDiz6w",
            "86st2fWa9Ofq/qHQvd/3HL",
            "86yIFn45ZB0rnou88Ppzta",
            "876VOPZphKG62ybSAxyAdG",
            "88+Josi/lJwI72ll1WHTng",
            "89tvu87nZHuqnEQlFCrjpW",
            "8aOcgMDBBMIbf//J45BRAO",
            "8bAZi8cHZI8r7Gx9Ow4sCg",
            "8bNvnGVRJM2IzaQcaz+2DE",
            "8cqiaY8a1OVqoo8O9uhOTl",
            "8dBXcJgClKibQtmDHll7f5",
            "8dbETslGZGsptpnOMJRoAu",
            "8dgiCf9AxEvYn8YiU3fHsZ",
            "8dg3LeY2dESL/Kjip23f8r",
            "8eFARabslJfL6LTCMGkug+",
            "8ek2l2iZFN2Knrw0AR9OYp",
            "90T9ITeHJF5a5+W9FPkTt+",
            "90nFaZFhBB3KFRDjiYS7sm",
            "907fiDvrhBpZsOQs18B5NP",
            "909njjIddD6pP3dYFtP82r",
            "91ellFBzJA8LBaYOA8C6iv",
            "92FBrfJQpBDIVAhXFPqrXx",
            "92yENWcyNN4p9jVYmI6nxA",
            "93W/pBs45Pvqsxr+/Jv5bL",
            "94sW9L3AtJZLMgMo/OAN1G",
            "95fN3YWdxGMYOcyjJbFA+Z",
            "95tzD045FCcKvQ6CJmkoNe",
            "97Z7s5wbdPzYQNAo8+Itt4",
            "98FMU4O5JBK6DMN7KBM5/v",
            "994jzkIxRMBKC/i8F55F0v",
            "9aRdmCOkdEALGmAQJpdPhn",
            "9bcxoiqBpDzoh5a9fu/WLe",
            "9b+i3l8DdEJKsWe2146j7+",
            "9ej6DTYHZKMqGT1YPjXEOX",
            "9etiG74bNM57yCS4f46vyP",
            "9f4FF0R9ZHuKqpnbXM/0wp",
            "a1TX9zl/dKvaI/0UXbXc5v",
            "a11AP+F/JD2a/b/PuaXNRd",
            "a2G6cbSPRDObFrDpBKf12q",
            "a2IKQfvmxEE6KyyoGVqrDb",
            "a3chJyco9GtJJn/jhgfo9I",
            "a3zcNTLXhEIaS+i9AvZnMZ",
            "a34gf7iSxKwr5kRLw31F0l",
            "a5FCQLDmBBzZrcaHFm/y0p",
            "a5Oo6mq05Ei4yhTMhpu28Z",
            "a5oOnXF+hEi7pSTW0em2dV",
            "a7C7BJL/FFbq3TWExEQq+y",
            "a8dy00IIpOs4TrudPpv8Fd",
            "a9RlaBDyNL4Jmx0bK+H8Gw",
            "aaspSIgihHl4hgtTIldR29",
            "acxOQDgqVMM488y3ilvvYw",
            "ad8nNdAmZOaJAy8jFaQxuP",
            "afB4TSt95H/rR9dV5ywTbq",
            "afHK3lF3tLAqCZzDDlfD0A",
            "afX1eUEZBD/plwxHncy9rO",
            "afoxHwBQtCWp3UPyi5EBST",
            "b0ONJ6VmFEuJ+QfA2c5gXV",
            "b0fvYfrNNGoaJr5joZCBg5",
            "b1IupUeHdCNo2wiDzYv0KM",
            "b17EgZaRJJD72OdrS1YR9S",
            "b183505CdDd6iD26PTFPlI",
            "b2Wzh+oaZMu5lqMc84TCsm",
            "b3rQFYLeFOU74QtDtcGh4r",
            "b4FTVQB65Gk7QDf8QeHWHC",
            "b4KGPVGDNEKbBUZgQ3sPJV",
            "b41kQGLNJDnZ807jjPnz8e",
            "b5RWqMoihN/KERxEGTQCg/",
            "b6if2ZoVRM3b+ND3EWMe+k",
            "b6tF5Gr/xKy6JDipng+O5T",
            "b78j9DPR5OZ5qpuw1wOTU6",
            "b8DqKgul1DMrO6R2dbzbL0",
            "b8JoBufv5LGp4uzm5d/r1s",
            "b9FrfE4tZAtaZLkavoJzcD",
            "ba4IiCvDVC7JvODHZmixsE",
            "bbiBheR0tMs6EOxVTRma9C",
            "bcbB2nDrRCHr4pkxrs+fdu",
            "bcpdV5CI5MfJrsE9JTg9gQ",
            "bdJ3M3yzdEpaUCvNHNLeLI",
            "bfaK4YQc5GYYdmn+K4NcyE",
            "bfn+WnzstCB4GiPhXflIG7",
            "bfsoOujA1C5oDUADu0IdHM",
            "c0GcDi7mBNS4MOzXSTbJlu",
            "c0baOqMqlEcr+dEHVM+4+T",
            "c0qlklN4pMKaLs4pDmNo8j",
            "c1yidOIz5CFLihF1wPYaAO",
            "c2FTdmuDtIMJZiY61Obf2c",
            "c2UldLC3xIz6O9p8i4dgbx",
            "c30wdbOopPXpkUsHBwZLvU",
            "c5EPBCRylJIpnhMGskuwwD",
            "c6bvZLBZBH0LfcBAJzSk7E",
            "c7wRD8se1BLpAI1hnUUCGx",
            "c8TgIbAWlEspgzqVjgPfjw",
            "c89NJh0GtLlbAGRfzpUqay",
            "cak+CsTFBPjq8BNY8Ykp7K",
            "cbUunPjBVFXIYZ4BCAP7Qa",
            "cbtF+dQ/5L8Zzz65pBUJZp",
            "cdKH0bf/1EC4im+DGmhSEo",
            "cd2gPHmixBm6+Cc0SdRgxi",
            "d0MyCMg1lAf7GeaCmr6R0v",
            "d0nxU657NL0royXUweDmvK",
            "d01rRoo65AxLfuoA3bFvov",
            "d1da+xp91EVbp8F9kJs/H/",
            "d167IJ+slB8bq44LgZkgAY",
            "d24YVH89hI+5lPCi4kRw1W",
            "d3HYdCOYRN04lSHX3BQDB9",
            "d4C1g4pBROnYiQB+XM01Gl",
            "d5VAB2TUZNvoO/HLI6EhIF",
            "d50tc044tOt7AU+f+7DW4M",
            "d7n4Qhq7NPRLJHK+Lj3ibp",
            "dazZqffH5DJIvFl+9ZLVNR",
            "ddftQTywpFvJxLNCnpKuW2",
            "ddpoXQ+VdOWoVgDP8yr+Lg",
            "deb+CT2TtGzpjyynIUGaTY",
            "dfM2Uc4f5K/oSzCA7+TKv5",
            "e0Xxe7OJNF/6xPxPn/G2bR",
            "e0nfoClKRLvJahrfrCvAL1",
            "e1F+tP9MBJeKBbGNti2k73",
            "e3K/S3fGNGS5j3q1gIGC1B",
            "e3j95g2dZFdqxIEtoH/Sdg",
            "e3j/Qy9wdLVIX8rXo7Z0T0",
            "e4eHJbaFZBCqkkLOmAhqXg",
            "e5C6w/HINOzJqDSoCTQLY4",
            "e5vAdB9/RE15L/in/iu330",
            "e6SS4NKF1NwpXxT5ORxpny",
            "e6Vq9p9TBIK7WEI7kATvmK",
            "e6g/WFbVdOYoMd3FJGx0FL",
            "e7OS+Q22pCbrpFZz6Mm7dm",
            "e7sMgc+QtP0L9x8yMGQkTV",
            "e78Oir5DdFypprCCUYNSqN",
            "e9m8iec59HuJeWn3/Im5oN",
            "e9x/1qS1hCp5l4FI14/kzy",
            "e9yo1OkrJPgaa+oppVnc5i",
            "e98Po7apNBvIfnFnIUPJrs",
            "eafcPs/0BJx5tJ/S9Xkt2h",
            "eb+bTzj1ZD8KfouLvpEZmd",
            "ecU9KSlRlJW7KuPLUEujuf",
            "edBWgIF09G2b0fpBXRODNB",
            "edbAtpEqhLCrSnHmR/w57S",
            "ed1BtnlWNPMIp7va3YD7bM",
            "ee7raT1TRA1YUCkEAO+LZ5",
            "efVrw9tjNOFLtVhp1+frtd",
            "efjD/+IH5EsLwcpeBT2rL+",
            "f2OwQklNpDQoFedx+PhmIA",
            "f2tEx2XONP1qyi08HOgH4W",
            "f2vSAxvyVGdry5kAnOVoOv",
            "f3WZBcho5JiJE5cIoTscS+",
            "f4HgARYiVDK6hdfMTh3Dmn",
            "f4Qy6woadJ1oduMVBNPxw6",
            "f4waO1HKhA0rAy3mV4qETQ",
            "f5okweRp5GTLBtEZumSqP3",
            "f5/nbYyIBN+7FTW1aaZYWO",
            "f6bDI6/PNEsZpFV5ijh1FP",
            "f7Rs721dtBqokF0FBT5N2L",
            "f8zId3M2NCu50aq0QjmesD",
            "f82WN4KtJDZ4ol7ERDigf9",
            "f88N9PTB1A0a0p/EukTuk/",
            "f9BPZanYxGqI6PKgE0jCmP",
            "faPjhBBx1KLZc+/VlNTkXF",
            "fahMsdOhdMGJBj/KxRySVu",
            "famTR59Y1GG4G2cEFMtV2+",
            "fbVgITXhVDAL5/HUqCpEWR",
            "fbmdJcBH5NOrvCCQGymSAl",
            "fcNrx0z5ZAbqeBruBUTqcN",
            "fccPK8+bhF14eA62mdB3o2",
            "fcpkujaD1KV4VnCyoue6Oe",
            "fc5OitRK9MJ6nypzPgrnSN",
            "fdWOgekYdGWKEOpuC9G2FD",
            "feqZoo9wJCqph89YUl5VK1",
            "fe6tuul31C3oTp9+KAshMR",
            "ffwsaffeJD87XQA/UpKyFK"
        ]
    },
    "name": "G53",
    "importBase": "import",
    "nativeBase": "native",
    "debug": true,
    "isZip": false,
    "encrypted": false,
    "versions": {
        "import": [
            "07d17fd77",
            "e683e"
        ],
        "native": [
            "01EYIpqkJFkKIPCHohYu1P",
            "d675f",
            "02XZPh3jhGF7KKpqoycPBV",
            "a4e4c",
            "03PJU2hSdNaYFTwcjAd56F",
            "383bc",
            "06IwYJ+lRJ678QvI4vBgqj",
            "028ad",
            "068Ykd2I5BjLCkBQo1Bg8X",
            "f1b9c",
            "0ascmYet9DDLCRwnesFkVF",
            "ee9a3",
            "0bloAdBwVBFpOOqUNKDlKD",
            "50547",
            "0csdO/EwNBbpWTUhiZp5Ba",
            "14bde",
            "0dP8kJh9hKRrgtpoa2BEF7",
            "5df9d",
            "0fageAhIRF9q6IVhGM2Vnt",
            "69b01",
            "10i8RIK1pJIKz0IIGRnV0M",
            "98020",
            "11281592b",
            "d4127",
            "13311ada2",
            "c7a0c",
            "132IGrtMNJ+oHtFqnqWSnn",
            "c1eaa",
            "16jR8QQYZCh7xI/HbDTweC",
            "2042c",
            "175Dt6WelNQ623S8Fjr+nJ",
            "defa8",
            "19I3C7l9NPb6NhzQs7DrX/",
            "2ef49",
            "19Xygb+gpA6bKC9ifY6lZP",
            "d5be6",
            "1967f9200",
            "a029f",
            "19y5bUIeRBNJPpGszQW/ac",
            "5030b",
            "1bATtSZzhKX4qe3t3cc6TW",
            "71e50",
            "1e6d63dbd",
            "abed0",
            "1eba3df0d",
            "969cb",
            "217S7CclRF3pdSpcjbXQcZ",
            "f0b00",
            "25O/LHKPdE7ZmcNRfCIiaE",
            "a5b74",
            "29Dlw4BcRABaB6tg6I6E8I",
            "841c1",
            "2bxsOdpfdPaYuhCKSm52bt",
            "724fe",
            "2co3zv1ThHDrmvbApX3lhZ",
            "37e12",
            "2dAnZNTGxNKIPv1tRBDOYk",
            "17686",
            "32CrDjr0BGjaO2Yyu5tv9z",
            "7303d",
            "38QiUucQNKyJYMIqycqxFm",
            "7ca36",
            "3bA4Pf7JpMGYyBlJ3Gy91z",
            "87897",
            "3bmPVCq4pJBJMWTuAEjO2Y",
            "7a732",
            "3cW1duTD9EBYVClzhaUoEP",
            "a6282",
            "3eCr8j/VRDm7gsA7dqfwXN",
            "1ae75",
            "3foH6jBFpOUZSa6oVT791t",
            "0a7ca",
            "40pOayUllJpqEltBdr//9Q",
            "c8a28",
            "42NvTeXjVHgI7m31quuivY",
            "d0f64",
            "43bPzpQ4RIsLvx62P7wmjc",
            "0c8f9",
            "44Ry2PujRLDr1dQqBSKtxg",
            "a1748",
            "47F/LTuWNGTolq2awG+McB",
            "ae46e",
            "48TQOUffZErqIeUeG2mlfB",
            "43f4f",
            "49u4vylwdB04Eeh1Q6763k",
            "7220f",
            "4ahWvIVLdJno3TQFOsNFFx",
            "ee1e0",
            "4anqKHnlJFrJcpt8wbk9V8",
            "e65cb",
            "4fvnrJgoBCka3G5pV3GDG2",
            "31ee9",
            "52vuJMhMNIpaa5KF6B0+Su",
            "b112c",
            "54bQnZ3S9DhJdKgplJyYL2",
            "13f3b",
            "5aHM5WNyVNn7wM7eG7Eawi",
            "0137c",
            "5a+gw7AgBE3IDcArWYBK6U",
            "c5d83",
            "62NGYILGFHEaVlsasSiD9j",
            "4dcc6",
            "65OvNm3OpHOpJyDj72fk8d",
            "f45ee",
            "67oCqq+sdLiYCacSMzJT4T",
            "5937c",
            "68DfnQQaBBjYbtmao3XULk",
            "fa549",
            "69yp5faOBCI5frGuMHlTvL",
            "29c79",
            "6b3L9ilYhIp4Xa/FjZwuvc",
            "edddc",
            "7162nSYvtAuY1jwzusl+Mt",
            "e4e0e",
            "73dCtYRptPDrIAlVLdMSTP",
            "bbf2a",
            "75JiubuiZO+rKA1b8RCJxp",
            "41385",
            "766TYRV/VKV7mQ+LI+bJ71",
            "7e4e7",
            "79PPUBy1hAPrfH/Bh08oSh",
            "deda0",
            "7cCQ03XdZKtrwk9fCb2s3e",
            "85824",
            "7cD2o/nbJNvL+nHszd+6Ci",
            "3dac9",
            "7cjeiGYatP/rFKHkOhp04E",
            "58e64",
            "7eo3zzozVM15/B+qsgFkuI",
            "82e45",
            "84zkG6DmJEprvCz8bDiz6w",
            "a4199",
            "89tvu87nZHuqnEQlFCrjpW",
            "f11a2",
            "8bAZi8cHZI8r7Gx9Ow4sCg",
            "4e70a",
            "8cqiaY8a1OVqoo8O9uhOTl",
            "eaf34",
            "8dBXcJgClKibQtmDHll7f5",
            "6059a",
            "8dbETslGZGsptpnOMJRoAu",
            "b3a8c",
            "8dg3LeY2dESL/Kjip23f8r",
            "8af92",
            "8eFARabslJfL6LTCMGkug+",
            "700f0",
            "8ek2l2iZFN2Knrw0AR9OYp",
            "ef92a",
            "90nFaZFhBB3KFRDjiYS7sm",
            "1ef80",
            "907fiDvrhBpZsOQs18B5NP",
            "fb237",
            "909njjIddD6pP3dYFtP82r",
            "3e2c2",
            "95fN3YWdxGMYOcyjJbFA+Z",
            "859d9",
            "97Z7s5wbdPzYQNAo8+Itt4",
            "8f80e",
            "98FMU4O5JBK6DMN7KBM5/v",
            "5e651",
            "994jzkIxRMBKC/i8F55F0v",
            "f95a9",
            "9f4FF0R9ZHuKqpnbXM/0wp",
            "84db4",
            "a1TX9zl/dKvaI/0UXbXc5v",
            "e5465",
            "a3zcNTLXhEIaS+i9AvZnMZ",
            "355f2",
            "a9RlaBDyNL4Jmx0bK+H8Gw",
            "6c9c7",
            "b1IupUeHdCNo2wiDzYv0KM",
            "b4fa2",
            "b183505CdDd6iD26PTFPlI",
            "3a220",
            "b3rQFYLeFOU74QtDtcGh4r",
            "d39b5",
            "b78j9DPR5OZ5qpuw1wOTU6",
            "14404",
            "bcpdV5CI5MfJrsE9JTg9gQ",
            "5399f",
            "bdJ3M3yzdEpaUCvNHNLeLI",
            "2e1a1",
            "bfaK4YQc5GYYdmn+K4NcyE",
            "07249",
            "c0GcDi7mBNS4MOzXSTbJlu",
            "2d63f",
            "c1yidOIz5CFLihF1wPYaAO",
            "6b6b0",
            "c2FTdmuDtIMJZiY61Obf2c",
            "995aa",
            "c30wdbOopPXpkUsHBwZLvU",
            "101fa",
            "c5EPBCRylJIpnhMGskuwwD",
            "a9407",
            "c6bvZLBZBH0LfcBAJzSk7E",
            "25e9d",
            "c7wRD8se1BLpAI1hnUUCGx",
            "9de0f",
            "c8TgIbAWlEspgzqVjgPfjw",
            "a2ec2",
            "c89NJh0GtLlbAGRfzpUqay",
            "030e2",
            "cak+CsTFBPjq8BNY8Ykp7K",
            "861db",
            "d0nxU657NL0royXUweDmvK",
            "5b3a6",
            "d1da+xp91EVbp8F9kJs/H/",
            "f8837",
            "d24YVH89hI+5lPCi4kRw1W",
            "988be",
            "d3HYdCOYRN04lSHX3BQDB9",
            "4f80f",
            "d7n4Qhq7NPRLJHK+Lj3ibp",
            "3810e",
            "deb+CT2TtGzpjyynIUGaTY",
            "04d1c",
            "e0Xxe7OJNF/6xPxPn/G2bR",
            "642b0",
            "e1F+tP9MBJeKBbGNti2k73",
            "3f353",
            "e4eHJbaFZBCqkkLOmAhqXg",
            "d51bd",
            "e5C6w/HINOzJqDSoCTQLY4",
            "2d3dc",
            "e5vAdB9/RE15L/in/iu330",
            "0c05b",
            "e6g/WFbVdOYoMd3FJGx0FL",
            "ccc91",
            "e7sMgc+QtP0L9x8yMGQkTV",
            "3a928",
            "e78Oir5DdFypprCCUYNSqN",
            "d0b05",
            "ecU9KSlRlJW7KuPLUEujuf",
            "35a48",
            "ee7raT1TRA1YUCkEAO+LZ5",
            "8aa47",
            "efVrw9tjNOFLtVhp1+frtd",
            "5f17e",
            "efjD/+IH5EsLwcpeBT2rL+",
            "8d395",
            "f2tEx2XONP1qyi08HOgH4W",
            "dd75a",
            "f2vSAxvyVGdry5kAnOVoOv",
            "11464",
            "f6bDI6/PNEsZpFV5ijh1FP",
            "45f4b",
            "f9BPZanYxGqI6PKgE0jCmP",
            "e795e",
            "fahMsdOhdMGJBj/KxRySVu",
            "7878a",
            "famTR59Y1GG4G2cEFMtV2+",
            "b98d2",
            "fcNrx0z5ZAbqeBruBUTqcN",
            "d9451"
        ]
    }
}